// EVENT 4322
Name "Nanabi 2"

If(0,25,1)
 221()
 PictureClear(5)
 PictureClear(6)
 ShowMessageFace("",0,0,2,0)
 ShowMessage("......")
 242(2)
 Wait(120)
 241(bytes(0x04,0x08,0x6f,0x3a,0x0d,0x52,0x50,0x47,0x3a,0x3a,0x42,0x47,0x4d,0x08,0x3a,0x0a,0x40,0x6e,0x61,0x6d,0x65,0x49,0x22,0x0c,0x63,0x61,0x73,0x74,0x6c,0x65,0x36,0x06,0x3a,0x06,0x45,0x54,0x3a,0x0c,0x40,0x76,0x6f,0x6c,0x75,0x6d,0x65,0x69,0x69,0x3a,0x0b,0x40,0x70,0x69,0x74,0x63,0x68,0x69,0x69))
 EndEventProcessing()
 0()
EndIf()
PictureDisplay(5,"80_nanabi_st01",0,0,0,0,100,100,255,0)
ShowMessageFace("nanabi_fc1",0,0,2,1)
ShowMessage("\\n<Nanabi>Fufu, you wish to mate with me?\nIf it will provide me with your semen, I have no complaints.")
ShowMessageFace("nanabi_fc1",0,0,2,2)
ShowMessage("\\n<Nanabi>Come to my room.\nI'll give you a taste of the pleasures of this world...")
ShowMessageFace("",0,0,2,3)
ShowMessage("\\n<Luka>......")
ShowMessageFace("",0,0,2,4)
ShowMessage("I follow Nanabi to her room...")
221()
PictureDisplay(1,"bg195",0,0,0,0,100,100,255,0)
PictureDisplay(5,"80_nanabi_st02",0,0,0,0,100,100,255,0)
222()
241(bytes(0x04,0x08,0x6f,0x3a,0x0d,0x52,0x50,0x47,0x3a,0x3a,0x42,0x47,0x4d,0x08,0x3a,0x0a,0x40,0x6e,0x61,0x6d,0x65,0x49,0x22,0x09,0x65,0x72,0x6f,0x31,0x06,0x3a,0x06,0x45,0x54,0x3a,0x0c,0x40,0x76,0x6f,0x6c,0x75,0x6d,0x65,0x69,0x69,0x3a,0x0b,0x40,0x70,0x69,0x74,0x63,0x68,0x69,0x69))
ShowMessageFace("nanabi_fc1",1,0,2,5)
ShowMessage("\\n<Nanabi>Now to rape you...\nWill you shoot your seed into me?")
ShowMessageFace("",0,0,2,6)
ShowMessage("\\n<Luka>Auu...")
PictureDisplay(5,"ev_nanabi_h5",0,0,0,0,100,100,255,0)
ShowMessageFace("",0,0,2,7)
ShowMessage("Nanabi pushes me down, and gets on top of me.")
ShowMessage("She presses her fox body against mine and lowers her waist.")
ShowMessageFace("",0,0,2,8)
ShowMessage("Her warm, fluffy fur rubs me all over my body.")
ShowMessage("It feels just like soft pelt.")
ShowMessageFace("",0,0,2,9)
ShowMessage("Inside her fur, a pink opening moves towards my groin.")
ShowMessage("She slowly forces my dick into her pussy...")
ShowMessageFace("",0,0,2,10)
ShowMessage("\\n<Luka>Aaaa!")
245(bytes(0x04,0x08,0x6f,0x3a,0x0d,0x52,0x50,0x47,0x3a,0x3a,0x42,0x47,0x53,0x08,0x3a,0x0a,0x40,0x6e,0x61,0x6d,0x65,0x49,0x22,0x1e,0x6d,0x6f,0x6e,0x5f,0x68,0x73,0x65,0x61,0x6e,0x30,0x39,0x5f,0x69,0x6e,0x6e,0x65,0x72,0x77,0x6f,0x72,0x6b,0x73,0x5f,0x62,0x31,0x06,0x3a,0x06,0x45,0x54,0x3a,0x0c,0x40,0x76,0x6f,0x6c,0x75,0x6d,0x65,0x69,0x55,0x3a,0x0b,0x40,0x70,0x69,0x74,0x63,0x68,0x69,0x69))
PictureDisplay(5,"ev_nanabi_h6",0,0,0,0,100,100,255,0)
PictureDisplay(6,"ev_nanabi_ctc01",0,0,0,0,100,100,255,0)
ShowMessageFace("nanabi_fc1",1,0,2,11)
ShowMessage("\\n<Nanabi>Fufu... I violated you.")
ShowMessageFace("",0,0,2,12)
ShowMessage("Wrapped in her warm opening, the rough walls rub against me as I'm pushed all the way into her.")
ShowMessageFace("",0,0,2,13)
ShowMessage("Covered in bumps along her walls, her pussy sends intense pleasure through me as I'm pushed into her.")
ShowMessageFace("",0,0,2,14)
ShowMessage("\\n<Luka>Aaaa...")
ShowMessageFace("",0,0,2,15)
ShowMessage("Her amazing pussy starts to tighten around me, as the ecstasy flowing through me feels like it's melting my body.")
ShowMessageFace("nanabi_fc1",1,0,2,16)
ShowMessage("\\n<Nanabi>Mating with me feels good, doesn't it?")
ShowMessageFace("",0,0,2,17)
ShowMessage("Nanabi wiggles slightly as she questions me.")
ShowMessageFace("",0,0,2,18)
ShowMessage("The movements force my penis to rub all around inside of her, massaging all of my most sensitive parts.")
ShowMessageFace("",0,0,2,19)
ShowMessage("\\n<Luka>Auuu... It's so good...")
ShowMessageFace("",0,0,2,20)
ShowMessage("The feeling would quickly force any man into submission.")
ShowMessage("Feeling that sweet stimulus, I'm quickly brought to the edge.")
ShowMessageFace("",0,0,2,21)
ShowMessage("\\n<Luka>Aahh... I'm going to come already...")
ShowMessageFace("nanabi_fc1",1,0,2,22)
ShowMessage("\\n<Nanabi>I don't mind, let it all out...\nPut all of your seed into my vagina...")
ShowMessageFace("",0,0,2,23)
ShowMessage("Nanabi starts to move her hips more than before.")
ShowMessageFace("",0,0,2,24)
ShowMessage("Rubbed inside of her, I'm quickly brought to my limit.")
ShowMessageFace("",0,0,2,25)
ShowMessage("The desire to ejaculate rises in me, until I succumb to it.")
ShowMessageFace("",0,0,2,26)
ShowMessage("\\n<Luka>Aaa...! Ahhhh!")
RunCommonEvent(104)
PictureDisplay(5,"ev_nanabi_h7",0,0,0,0,100,100,255,0)
PictureDisplay(6,"ev_nanabi_ctc02",0,0,0,0,100,100,255,0)
RunCommonEvent(105)
ShowMessageFace("",0,0,2,27)
ShowMessage("Forced deep into Nanabi, my semen gushes out into her.")
ShowMessageFace("",0,0,2,28)
ShowMessage("Suddenly, her pussy starts to contract quickly, squeezing and sucking up everything I shoot out.")
ShowMessageFace("",0,0,2,29)
ShowMessage("\\n<Luka>Ahii! What... Is this...?")
ShowMessageFace("",0,0,2,30)
ShowMessage("My body writhes in reaction to the sudden strange pleasure.")
ShowMessageFace("nanabi_fc1",1,0,2,31)
ShowMessage("\\n<Nanabi>Fufu...\nIt's to quickly suck your sperm into my womb.")
ShowMessageFace("nanabi_fc1",1,0,2,32)
ShowMessage("\\n<Nanabi>Did you enjoy it?")
ShowMessageFace("nanabi_fc1",1,0,2,33)
ShowMessage("\\n<Nanabi>Using that, I'm able to ensure I squeeze out all of your sperm, and the best one fertilizes me...")
ShowMessageFace("",0,0,2,34)
ShowMessage("\\n<Luka>Aa! Haaa!")
245(bytes(0x04,0x08,0x6f,0x3a,0x0d,0x52,0x50,0x47,0x3a,0x3a,0x42,0x47,0x53,0x08,0x3a,0x0a,0x40,0x6e,0x61,0x6d,0x65,0x49,0x22,0x1e,0x6d,0x6f,0x6e,0x5f,0x68,0x73,0x65,0x61,0x6e,0x31,0x30,0x5f,0x69,0x6e,0x6e,0x65,0x72,0x77,0x6f,0x72,0x6b,0x73,0x5f,0x62,0x32,0x06,0x3a,0x06,0x45,0x54,0x3a,0x0c,0x40,0x76,0x6f,0x6c,0x75,0x6d,0x65,0x69,0x55,0x3a,0x0b,0x40,0x70,0x69,0x74,0x63,0x68,0x69,0x69))
ShowMessageFace("",0,0,2,35)
ShowMessage("Nanabi's pussy continues to contract in waves, as if milking everything out of me.")
ShowMessageFace("",0,0,2,36)
ShowMessage("Like she said, it doesn't look like she'll leave a single drop...")
ShowMessageFace("",0,0,2,37)
ShowMessage("\\n<Luka>Faa! Haaa...")
ShowMessageFace("",0,0,2,38)
ShowMessage("Even after her milking sucks out the last drop, the contractions don't stop.")
ShowMessageFace("",0,0,2,39)
ShowMessage("Her milking continues, as my body writhes in futility.")
ShowMessageFace("",0,0,2,40)
ShowMessage("\\n<Luka>Hauuu! Stop already!")
ShowMessageFace("nanabi_fc1",1,0,2,41)
ShowMessage("\\n<Nanabi>I said I'd squeeze out all your sperm, didn't I?")
ShowMessageFace("nanabi_fc1",1,0,2,42)
ShowMessage("\\n<Nanabi>Until your scrotum is empty,\nI need to continue...")
ShowMessageFace("",0,0,2,43)
ShowMessage("\\n<Luka>Faaa!")
ShowMessageFace("",0,0,2,44)
ShowMessage("Her relentless contractions milk me, as if encouraging me to ejaculate quickly again.")
ShowMessageFace("",0,0,2,45)
ShowMessage("Even though I just came, I already can't endure the rising desire.")
ShowMessageFace("nanabi_fc1",1,0,2,46)
ShowMessage("\\n<Nanabi>Now, let it out.\nSend all of your healthy seed into my womb...")
ShowMessageFace("",0,0,2,47)
ShowMessage("\\n<Luka>Aaaa... Coming!\nAaaaaa!")
RunCommonEvent(104)
PictureDisplay(5,"ev_nanabi_h8",0,0,0,0,100,100,255,0)
PictureDisplay(6,"ev_nanabi_ctc03",0,0,0,0,100,100,255,0)
RunCommonEvent(105)
ShowMessageFace("",0,0,2,48)
ShowMessage("I come again inside of her, as her contractions continue even stronger than before, sucking up everything.")
ShowMessageFace("",0,0,2,49)
ShowMessage("\\n<Luka>Stop... Please...")
ShowMessageFace("nanabi_fc1",1,0,2,50)
ShowMessage("\\n<Nanabi>You can come more, can't you?\nI said I'd get everything...")
ShowMessageFace("",0,0,2,51)
ShowMessage("\\n<Luka>Faaaa!")
ShowMessageFace("",0,0,2,52)
ShowMessage("She suddenly tightens her pussy around me, shooting me over the edge again.")
RunCommonEvent(104)
PictureDisplay(5,"ev_nanabi_h9",0,0,0,0,100,100,255,0)
PictureDisplay(6,"ev_nanabi_ctc04",0,0,0,0,100,100,255,0)
RunCommonEvent(105)
ShowMessageFace("",0,0,2,53)
ShowMessage("Unable to endure at all, I helplessly shoot out in her again.")
ShowMessageFace("",0,0,2,54)
ShowMessage("Her milking continues as I come, ensuring not a single drop is wasted.")
ShowMessageFace("",0,0,2,55)
ShowMessage("\\n<Luka>Ahi... Ha...")
ShowMessageFace("nanabi_fc1",1,0,2,56)
ShowMessage("\\n<Nanabi>Fufu... Mating with you is very nice...\nYour energetic little children are swimming so lively in me...")
ShowMessageFace("",0,0,2,57)
ShowMessage("\\n<Luka>Hau....")
RunCommonEvent(104)
RunCommonEvent(105)
ShowMessageFace("",0,0,2,58)
ShowMessage("Continuing to wring me out as she talks, I'm forced to come again.")
ShowMessageFace("",0,0,2,59)
ShowMessage("Unable to do anything about the torturous pleasure, my consciousness starts to slowly fade.")
ShowMessageFace("",0,0,2,60)
ShowMessage("\\n<Luka>Au....")
ShowMessageFace("nanabi_fc1",1,0,2,61)
ShowMessage("\\n<Nanabi>Fainting while still mating with me?\nYou're still pretty weak...")
ShowMessageFace("nanabi_fc1",1,0,2,62)
ShowMessage("\\n<Nanabi>I'll train you plenty from now on.\nYou're going to be my mate after all... Fufu.")
ShowMessageFace("",0,0,2,63)
ShowMessage("\\n<Luka>Aaa....")
RunCommonEvent(104)
RunCommonEvent(105)
ShowMessageFace("",0,0,2,64)
ShowMessage("I faint at the same time as I ejaculate, unable to endure the overwhelming pleasure.")
ShowMessageFace("",0,0,2,65)
ShowMessage("Thinking that being her mate might not be too bad, I lose consciousness.")
221()
PictureClear(5)
PictureClear(6)
246(2)
ShowMessageFace("",0,0,2,66)
ShowMessage(".............")
242(2)
Wait(120)
241(bytes(0x04,0x08,0x6f,0x3a,0x0d,0x52,0x50,0x47,0x3a,0x3a,0x42,0x47,0x4d,0x08,0x3a,0x0a,0x40,0x6e,0x61,0x6d,0x65,0x49,0x22,0x0c,0x63,0x61,0x73,0x74,0x6c,0x65,0x36,0x06,0x3a,0x06,0x45,0x54,0x3a,0x0c,0x40,0x76,0x6f,0x6c,0x75,0x6d,0x65,0x69,0x69,0x3a,0x0b,0x40,0x70,0x69,0x74,0x63,0x68,0x69,0x69))
0()
