﻿// EVENT 5783
Name "R Myusca 4"

If(0,443,0)
 355("set_temp_actors(1)")
 205(-1,bytes(0x04,0x08,0x6f,0x3a,0x13,0x52,0x50,0x47,0x3a,0x3a,0x4d,0x6f,0x76,0x65,0x52,0x6f,0x75,0x74,0x65,0x09,0x3a,0x0c,0x40,0x72,0x65,0x70,0x65,0x61,0x74,0x46,0x3a,0x0f,0x40,0x73,0x6b,0x69,0x70,0x70,0x61,0x62,0x6c,0x65,0x46,0x3a,0x0a,0x40,0x77,0x61,0x69,0x74,0x54,0x3a,0x0a,0x40,0x6c,0x69,0x73,0x74,0x5b,0x07,0x6f,0x3a,0x15,0x52,0x50,0x47,0x3a,0x3a,0x4d,0x6f,0x76,0x65,0x43,0x6f,0x6d,0x6d,0x61,0x6e,0x64,0x07,0x3a,0x0a,0x40,0x63,0x6f,0x64,0x65,0x69,0x16,0x3a,0x10,0x40,0x70,0x61,0x72,0x61,0x6d,0x65,0x74,0x65,0x72,0x73,0x5b,0x00,0x6f,0x3b,0x0a,0x07,0x3b,0x0b,0x69,0x00,0x3b,0x0c,0x5b,0x00))
 ChangeSwitch(35,35,0)
 222()
 0()
EndIf()
241(bytes(0x04,0x08,0x6f,0x3a,0x0d,0x52,0x50,0x47,0x3a,0x3a,0x42,0x47,0x4d,0x08,0x3a,0x0a,0x40,0x6e,0x61,0x6d,0x65,0x49,0x22,0x09,0x65,0x72,0x6f,0x31,0x06,0x3a,0x06,0x45,0x54,0x3a,0x0c,0x40,0x76,0x6f,0x6c,0x75,0x6d,0x65,0x69,0x69,0x3a,0x0b,0x40,0x70,0x69,0x74,0x63,0x68,0x69,0x69))
ShowMessageFace("",0,0,2,1)
ShowMessage("\\n<Luka>Ahh, no way...")
ShowMessageFace("myuska_fc1",5,0,2,2)
ShowMessage("\\n<Myusca>You're next♥\nI'll eat deliciously...♥")
ShowMessageFace("",0,0,2,3)
ShowMessage("Myusca brings her lips close to my face.\nIf I let her kiss me, there will be no saving me...")
ShowMessageFace("",0,0,2,4)
ShowMessage("I know this, yet I can't move.\nI'm unable to move, as if I've been possessed. All I can do is wait to be preyed upon...")
ShowMessageFace("",0,0,2,5)
ShowMessage("\\n<Luka>Ahhh...")
ShowMessageFace("",0,0,2,6)
ShowMessage("Her bewitching lips draw closer and closer...\nMyusca is about to eat me...")
245(bytes(0x04,0x08,0x6f,0x3a,0x0d,0x52,0x50,0x47,0x3a,0x3a,0x42,0x47,0x53,0x08,0x3a,0x0a,0x40,0x6e,0x61,0x6d,0x65,0x49,0x22,0x10,0x6d,0x6f,0x6e,0x5f,0x68,0x76,0x6f,0x69,0x63,0x65,0x31,0x06,0x3a,0x06,0x45,0x54,0x3a,0x0c,0x40,0x76,0x6f,0x6c,0x75,0x6d,0x65,0x69,0x55,0x3a,0x0b,0x40,0x70,0x69,0x74,0x63,0x68,0x69,0x69))
ChangeSwitch(36,36,0)
211(0)
ShowMessageFace("myuska_fc1",6,0,2,7)
ShowMessage("\\n<Myusca>Nn... Hmcht...")
ShowMessageFace("",0,0,2,8)
ShowMessage("Finally, she presses her lips against mine...\nIn that instant, an electric current of pleasure runs through my body.")
ChangeSwitch(37,37,0)
ShowMessageFace("",0,0,2,9)
ShowMessage("\\n<Luka>Uwah... Ah, ahhhhhh!!")
ShowMessageFace("",0,0,2,10)
ShowMessage("Her kiss is sweet and tender...\nThe pleasure goes through my whole body like deadly poison.")
ShowMessageFace("",0,0,2,11)
ShowMessage("My entire body trembles while Myusca and I are kissing.")
ShowMessageFace("myuska_fc1",6,0,2,12)
ShowMessage("\\n<Myusca>I'll suck it out all at once...♥\nSlrrrpt...♥")
ShowMessageFace("",0,0,2,13)
ShowMessage("\\n<Luka>Hiyaaahhhhhh!!")
ShowMessageFace("",0,0,2,14)
ShowMessage("The maddening pleasure makes my body bounce up and down.\nMy penis pulsates and twitches in my underwear...")
RunCommonEvent(104)
RunCommonEvent(105)
ShowMessageFace("",0,0,2,15)
ShowMessage("Then, semen gushes out of me.\nMy dick pulsates over and over again, spitting out the proof of my surrender.")
ShowMessageFace("myuska_fc1",6,0,2,16)
ShowMessage("\\n<Myusca>Haha, coming already?\nYou came from a kiss, even though you're a Hero...♥")
ShowMessageFace("",0,0,2,17)
ShowMessage("Myusca giggles as she snatches my lips.\nThe sweetness of her breath encroaches on my brain too, and even violates my very soul.")
ShowMessageFace("myuska_fc1",6,0,2,18)
ShowMessage("\\n<Myusca>Don't think about it too much.\nEveryone's underwear become like that when I kiss them...")
ShowMessageFace("myuska_fc1",6,0,2,19)
ShowMessage("\\n<Myusca>Besides, you're gonna die now anyway.\nSo it doesn't matter if you've soiled your pants...♥")
ShowMessageFace("",0,0,2,20)
ShowMessage("\\n<Luka>Ahhhhhh!!")
RunCommonEvent(104)
RunCommonEvent(105)
ShowMessageFace("",0,0,2,21)
ShowMessage("The pleasure is so great that my vision flickers as I writhe in delight.\nMy penis starts pulsating again, and I keep shooting out semen in a steady stream.")
ShowMessageFace("",0,0,2,22)
ShowMessage("Her merciless suction through this kiss is causing my body to quickly deteriorate...\nI lose my strength, and my consciousness fades away...")
246(2)
ChangeSwitch(38,38,0)
ShowMessageFace("",0,0,2,23)
ShowMessage("\\n<Luka>............")
ShowMessageFace("",0,0,2,24)
ShowMessage("As it kept going, I dried up in no time.\nMyusca's kiss sucked all the semen out of me from the core...")
ShowMessageFace("myuska_fc1",6,0,2,25)
ShowMessage("\\n<Myusca>Haha, you were really delicious.\nThanks for the meal...♥")
221()
246(2)
PictureClear(5)
PictureClear(6)
ShowMessageFace("",0,0,2,26)
ShowMessage("・・・・・・・・")
221()
242(1)
Wait(120)
If(0,443,0)
 EndEventProcessing()
 0()
EndIf()
RunCommonEvent(541)
0()
