// EVENT 4091
Name "Rami 1"

If(0,25,1)
 221()
 PictureClear(5)
 PictureClear(6)
 ShowMessageFace("",0,0,2,0)
 ShowMessage("......")
 242(2)
 Wait(120)
 241(bytes(0x04,0x08,0x6f,0x3a,0x0d,0x52,0x50,0x47,0x3a,0x3a,0x42,0x47,0x4d,0x08,0x3a,0x0a,0x40,0x6e,0x61,0x6d,0x65,0x49,0x22,0x0c,0x63,0x61,0x73,0x74,0x6c,0x65,0x36,0x06,0x3a,0x06,0x45,0x54,0x3a,0x0c,0x40,0x76,0x6f,0x6c,0x75,0x6d,0x65,0x69,0x69,0x3a,0x0b,0x40,0x70,0x69,0x74,0x63,0x68,0x69,0x69))
 EndEventProcessing()
 0()
EndIf()
PictureDisplay(5,"80_inp_st01",0,0,0,0,100,100,255,0)
ShowMessageFace("inp_fc1",0,0,2,1)
ShowMessage("\\n<Rami>Hm...? You want me to, ah... lick your penis?")
ShowMessageFace("",0,0,2,2)
ShowMessage("\\n<Luka>A-Ah. Yeah...If that's OK, I mean...")
ShowMessageFace("inp_fc1",1,0,2,3)
ShowMessage("\\n<Rami>And here I thought Mr. Hero didn't like girls that way♪\nUfufu... Consider it licked clean♪")
ShowMessageFace("",0,0,2,4)
ShowMessage("Rami crouches down in front of me with a mischievous smirk, pulling down my pants and bringing her face up to my already stiff penis.")
241(bytes(0x04,0x08,0x6f,0x3a,0x0d,0x52,0x50,0x47,0x3a,0x3a,0x42,0x47,0x4d,0x08,0x3a,0x0a,0x40,0x6e,0x61,0x6d,0x65,0x49,0x22,0x09,0x65,0x72,0x6f,0x31,0x06,0x3a,0x06,0x45,0x54,0x3a,0x0c,0x40,0x76,0x6f,0x6c,0x75,0x6d,0x65,0x69,0x69,0x3a,0x0b,0x40,0x70,0x69,0x74,0x63,0x68,0x69,0x69))
PictureDisplay(5,"ev_inp_hd1",0,0,0,0,100,100,0,0)
PictureMove(5,null,0,0,0,0,100,100,255,0,30,true)
ShowMessageFace("",0,0,2,5)
ShowMessage("With just a single lick, I feel pleasure begin to course through my body! The rough, ticklish sensation of her tongue makes my body squirm.")
ShowMessageFace("inp_fc1",1,0,2,6)
ShowMessage("\\n<Rami>*lick* *lick*")
ShowMessageFace("",0,0,2,7)
ShowMessage("\\n<Luka>Aaah...")
ShowMessageFace("",0,0,2,8)
ShowMessage("I can't help but moan as her tongue flicks against my glans. She knows just what she's doing, and she glances up to give me a playful smile.")
ShowMessageFace("inp_fc1",1,0,2,9)
ShowMessage("\\n<Rami>What, did I do that? Oh, my, I'm so new at this...\nLet's see what happens when I do this♪")
PictureDisplay(5,"ev_inp_hd2",0,0,0,0,100,100,255,0)
ShowMessageFace("",0,0,2,10)
ShowMessage("Rami takes the tip of my cock into her mouth, and as the head of it is sucked past her lips, I practically melt at the sensation.")
ShowMessageFace("",0,0,2,11)
ShowMessage("\\n<Luka>Ah! Fwaaaaah...")
ShowMessageFace("",0,0,2,12)
ShowMessage("Inside her mouth, the head of my cock gives a twitch, surrounded by warm wetness. Her tongue presses just under the tip, making it even better... even if she's not moving it.")
ShowMessageFace("",0,0,2,13)
ShowMessage("She's holding just the tip in her mouth and not even moving, at that. Even so, it's nearly enough to make me finish on the spot.")
ShowMessageFace("inp_fc1",1,0,2,14)
ShowMessage("\\n<Rami>Enjoying yourself up there?")
ShowMessageFace("",0,0,2,15)
ShowMessage("Rami hasn't looked away from my face, smirking up at me. She can clearly tell I'm already about to finish.")
ShowMessageFace("inp_fc1",1,0,2,16)
ShowMessage("\\n<Rami>You need to work on your stamina.\nHere, we'll begin right now. If you're finished off by this, you have some serious work to do♪")
245(bytes(0x04,0x08,0x6f,0x3a,0x0d,0x52,0x50,0x47,0x3a,0x3a,0x42,0x47,0x53,0x08,0x3a,0x0a,0x40,0x6e,0x61,0x6d,0x65,0x49,0x22,0x10,0x6d,0x6f,0x6e,0x5f,0x68,0x76,0x6f,0x69,0x63,0x65,0x37,0x06,0x3a,0x06,0x45,0x54,0x3a,0x0c,0x40,0x76,0x6f,0x6c,0x75,0x6d,0x65,0x69,0x55,0x3a,0x0b,0x40,0x70,0x69,0x74,0x63,0x68,0x69,0x69))
ShowMessageFace("inp_fc1",1,0,2,17)
ShowMessage("\\n<Rami>*suck* *suck*")
ShowMessageFace("",0,0,2,18)
ShowMessage("\\n<Luka>H-Ha... Aaaah!!")
ShowMessageFace("",0,0,2,19)
ShowMessage("She suddenly begins to suck mercilessly hard on the tip of my penis. It's incredible on its own, but her tongue swirls around the crown at the same time, too!")
ShowMessageFace("",0,0,2,20)
ShowMessage("The warm wetness of her saliva coats my glans, but that's nothing compared to how she slurps away at my penis.")
ShowMessageFace("",0,0,2,21)
ShowMessage("She may only be an imp, but the way she sucks at my cock makes it feel as if my soul itself is going to be drained when I finish.")
ShowMessageFace("",0,0,2,22)
ShowMessage("\\n<Luka>T-Too much... I'm going to...\nFaaaaah...")
ShowMessageFace("inp_fc1",1,0,2,23)
ShowMessage("\\n<Rami>*suck* ... *suck*\n*slurrrp* ... *suck* *suck*")
ShowMessageFace("",0,0,2,24)
ShowMessage("The way she keeps sucking harder and harder on the tip of my cock makes me feel like she knows just how to make a man come in an instant. My mind fogs over, and soon I can't think of much besides giving in and just basking in the pleasure.")
ShowMessageFace("",0,0,2,25)
ShowMessage("\\n<Luka>Ah! Aaaaah!!")
RunCommonEvent(104)
PictureDisplay(5,"ev_inp_hd7",0,0,0,0,100,100,255,0)
RunCommonEvent(105)
ShowMessageFace("",0,0,2,26)
ShowMessage("Finally, my penis gives a happy twitch, spurting out semen into Rami's eagerly sucking mouth.")
ShowMessageFace("inp_fc1",1,0,2,27)
ShowMessage("\\n<Rami>*gulp* *gulp*...*suck*")
ShowMessageFace("",0,0,2,28)
ShowMessage("\\n<Luka>Haa... Aaaah...")
ShowMessageFace("",0,0,2,29)
ShowMessage("Even after I've finished, Rami doesn't let up at all. Her tongue continues to trace little circles around my glans, and the sucking doesn't abate one bit.")
ShowMessageFace("",0,0,2,30)
ShowMessage("Only once she's gulped down the last drop of my semen does she let me go. Exhausted, I barely manage to stay on my feet, feeling like some of my energy was happily lapped up by my ally.")
246(1)
PictureDisplay(5,"ev_inp_hd8",0,0,0,0,100,100,255,0)
ShowMessageFace("inp_fc1",1,0,2,31)
ShowMessage("\\n<Rami>Ufufu. I'd thank you, but you were the one who came to me, after all.")
ShowMessageFace("",0,0,2,32)
ShowMessage("Rami tugs my pants back up with a smirk, finally standing up with a satisfied bounce in her step.")
ShowMessage("Try as I may, I can't keep my balance after being sucked dry, and I clumsily fall to the ground in front of her...")
221()
PictureClear(5)
PictureClear(6)
ShowMessageFace("",0,0,2,33)
ShowMessage("......")
242(2)
Wait(120)
241(bytes(0x04,0x08,0x6f,0x3a,0x0d,0x52,0x50,0x47,0x3a,0x3a,0x42,0x47,0x4d,0x08,0x3a,0x0a,0x40,0x6e,0x61,0x6d,0x65,0x49,0x22,0x0c,0x63,0x61,0x73,0x74,0x6c,0x65,0x36,0x06,0x3a,0x06,0x45,0x54,0x3a,0x0c,0x40,0x76,0x6f,0x6c,0x75,0x6d,0x65,0x69,0x69,0x3a,0x0b,0x40,0x70,0x69,0x74,0x63,0x68,0x69,0x69))
0()
