﻿// EVENT 7212
Name "Milio: Match"

ChangeSwitch(96,96,0)
ChangeSwitch(98,98,0)
ShowMessageFace("mob_kaihei_fc1",0,0,2,1)
ShowMessage("\\n<Milio>All right, now I'll make you come!♪\nLet's both do our best!♪")
PictureDisplay(5,"80_mob_kaihei_st01",0,0,-190,0,100,100,255,0)
PictureDisplay(6,"ev_mob_kaihei_ct41",0,0,240,50,100,100,255,0)
ChangeVariable(11,11,0,2,105,115)
311(0,1,1,1,11,true)
ShowMessageFace("",0,0,2,2)
ShowMessage("Milio grabs Luka's penis with her soft hand!\nThe warm feeling stimulates Luka!\\D")
ShowMessage("Luka takes \\V[11] damage!")
ChangeVariable(27,27,0,3,3,1,2)
If(1,27,0,0,0)
 RunCommonEvent(7215)
 EndEventProcessing()
 0()
EndIf()
ShowMessageFace("mob_kaihei_fc1",0,0,2,3)
ShowMessage("\\n<Milio>I'll do something amazing!\nHoora, it's a handjob!♪")
250(bytes(0x04,0x08,0x6f,0x3a,0x0c,0x52,0x50,0x47,0x3a,0x3a,0x53,0x45,0x08,0x3a,0x0a,0x40,0x6e,0x61,0x6d,0x65,0x49,0x22,0x12,0x6d,0x6f,0x6e,0x5f,0x65,0x72,0x6f,0x5f,0x6b,0x6f,0x6b,0x69,0x31,0x06,0x3a,0x06,0x45,0x54,0x3a,0x0b,0x40,0x70,0x69,0x74,0x63,0x68,0x69,0x69,0x3a,0x0c,0x40,0x76,0x6f,0x6c,0x75,0x6d,0x65,0x69,0x69))
ChangeVariable(11,11,0,2,105,115)
311(0,1,1,1,11,true)
ShowMessageFace("",0,0,2,4)
ShowMessage("Milio strokes Luka's penis as fast as she can!\nHer soft hand quickly strokes him!\\D")
ShowMessage("Luka takes \\V[11] damage!")
ChangeVariable(27,27,0,3,3,1,2)
If(1,27,0,0,0)
 RunCommonEvent(7216)
 EndEventProcessing()
 0()
EndIf()
ShowMessageFace("mob_kaihei_fc1",0,0,2,5)
ShowMessage("\\n<Milio>Hora hora, cooome!♪")
250(bytes(0x04,0x08,0x6f,0x3a,0x0c,0x52,0x50,0x47,0x3a,0x3a,0x53,0x45,0x08,0x3a,0x0a,0x40,0x6e,0x61,0x6d,0x65,0x49,0x22,0x12,0x6d,0x6f,0x6e,0x5f,0x65,0x72,0x6f,0x5f,0x6b,0x6f,0x6b,0x69,0x31,0x06,0x3a,0x06,0x45,0x54,0x3a,0x0b,0x40,0x70,0x69,0x74,0x63,0x68,0x69,0x69,0x3a,0x0c,0x40,0x76,0x6f,0x6c,0x75,0x6d,0x65,0x69,0x69))
ChangeVariable(11,11,0,2,105,115)
311(0,1,1,1,11,true)
ShowMessageFace("",0,0,2,6)
ShowMessage("Milio's hand moves blazingly fast up and down!\nShe tightens her grip as she strokes!\\D")
ShowMessage("Luka takes \\V[11] damage!")
ChangeVariable(27,27,0,3,3,1,2)
If(1,27,0,0,0)
 RunCommonEvent(7216)
 EndEventProcessing()
 0()
EndIf()
ShowMessageFace("mob_kaihei_fc1",0,0,2,7)
ShowMessage("\\n<Milio>My hands are soft, right?\nThis must feel really good then!")
250(bytes(0x04,0x08,0x6f,0x3a,0x0c,0x52,0x50,0x47,0x3a,0x3a,0x53,0x45,0x08,0x3a,0x0a,0x40,0x6e,0x61,0x6d,0x65,0x49,0x22,0x12,0x6d,0x6f,0x6e,0x5f,0x65,0x72,0x6f,0x5f,0x6b,0x6f,0x6b,0x69,0x31,0x06,0x3a,0x06,0x45,0x54,0x3a,0x0b,0x40,0x70,0x69,0x74,0x63,0x68,0x69,0x69,0x3a,0x0c,0x40,0x76,0x6f,0x6c,0x75,0x6d,0x65,0x69,0x69))
ChangeVariable(11,11,0,2,105,115)
311(0,1,1,1,11,true)
ShowMessageFace("",0,0,2,8)
ShowMessage("Milio skillfully strokes Luka!\nHer small fingers rub the neck of his penis as she moves!\\D")
ShowMessage("Luka takes \\V[11] damage!")
ChangeVariable(27,27,0,3,3,1,2)
If(1,27,0,0,0)
 RunCommonEvent(7216)
 EndEventProcessing()
 0()
EndIf()
ShowMessageFace("mob_kaihei_fc1",0,0,2,9)
ShowMessage("\\n<Milio>Hora, come! Come!\nSpurt it out in my hand!♪")
250(bytes(0x04,0x08,0x6f,0x3a,0x0c,0x52,0x50,0x47,0x3a,0x3a,0x53,0x45,0x08,0x3a,0x0a,0x40,0x6e,0x61,0x6d,0x65,0x49,0x22,0x12,0x6d,0x6f,0x6e,0x5f,0x65,0x72,0x6f,0x5f,0x6b,0x6f,0x6b,0x69,0x31,0x06,0x3a,0x06,0x45,0x54,0x3a,0x0b,0x40,0x70,0x69,0x74,0x63,0x68,0x69,0x69,0x3a,0x0c,0x40,0x76,0x6f,0x6c,0x75,0x6d,0x65,0x69,0x69))
ChangeVariable(11,11,0,2,105,115)
311(0,1,1,1,11,true)
ShowMessageFace("",0,0,2,10)
ShowMessage("Milio quickly moves up and down!\nSqueezing him as she strokes, Milio milks Luka!\\D")
ShowMessage("Luka takes \\V[11] damage!")
ChangeVariable(27,27,0,3,3,1,2)
If(1,27,0,0,0)
 RunCommonEvent(7216)
 EndEventProcessing()
 0()
EndIf()
If(1,27,0,175,4)
 ShowMessageFace("ruka_fc1",0,0,2,11)
 ShowMessage("\\n<Luka>A-auu...")
 ShowMessageFace("mob_kaihei_fc1",0,0,2,12)
 ShowMessage("\\n<Milio>Aha, is it going to be my win?\nThen I'll finish you off!♪")
 0()
Else()
 ShowMessageFace("mob_kaihei_fc1",0,0,2,13)
 ShowMessage("\\n<Milio>There's still time to go...\nI'll go to my deathblow!♪")
 0()
EndIf()
250(bytes(0x04,0x08,0x6f,0x3a,0x0c,0x52,0x50,0x47,0x3a,0x3a,0x53,0x45,0x08,0x3a,0x0a,0x40,0x6e,0x61,0x6d,0x65,0x49,0x22,0x12,0x6d,0x6f,0x6e,0x5f,0x65,0x72,0x6f,0x5f,0x6b,0x6f,0x6b,0x69,0x31,0x06,0x3a,0x06,0x45,0x54,0x3a,0x0b,0x40,0x70,0x69,0x74,0x63,0x68,0x69,0x69,0x3a,0x0c,0x40,0x76,0x6f,0x6c,0x75,0x6d,0x65,0x69,0x69))
PictureClear(6)
PictureDisplay(5,"ev_mob_kaihei_h1",0,0,0,0,100,100,255,0)
ChangeVariable(11,11,0,2,105,115)
311(0,1,1,1,11,true)
ShowMessageFace("",0,0,2,14)
ShowMessage("Milio pushes her armpit against Luka's penis!\nThe hot, damp feeling assaults Luka's senses!\\D")
ShowMessage("Luka takes \\V[11] damage!")
ChangeVariable(27,27,0,3,3,1,2)
If(1,27,0,0,0)
 RunCommonEvent(7217)
 EndEventProcessing()
 0()
EndIf()
250(bytes(0x04,0x08,0x6f,0x3a,0x0c,0x52,0x50,0x47,0x3a,0x3a,0x53,0x45,0x08,0x3a,0x0a,0x40,0x6e,0x61,0x6d,0x65,0x49,0x22,0x12,0x6d,0x6f,0x6e,0x5f,0x65,0x72,0x6f,0x5f,0x6b,0x6f,0x6b,0x69,0x31,0x06,0x3a,0x06,0x45,0x54,0x3a,0x0b,0x40,0x70,0x69,0x74,0x63,0x68,0x69,0x69,0x3a,0x0c,0x40,0x76,0x6f,0x6c,0x75,0x6d,0x65,0x69,0x69))
ChangeVariable(11,11,0,2,105,115)
311(0,1,1,1,11,true)
ShowMessageFace("",0,0,2,15)
ShowMessage("Like that, she rubs her armpit against his tip!\nThe sweet, hot feeling stimulates him!\\D")
ShowMessage("Luka takes \\V[11] damage!")
ChangeVariable(27,27,0,3,3,1,2)
If(1,27,0,0,0)
 RunCommonEvent(7217)
 EndEventProcessing()
 0()
EndIf()
ShowMessageFace("mob_kaihei_fc1",0,0,2,16)
ShowMessage("\\n<Milio>The slight feel of sweat feels strange, doesn't it?\nI feel a little bit embarrassed but... It feels good for you, doesn't it?")
250(bytes(0x04,0x08,0x6f,0x3a,0x0c,0x52,0x50,0x47,0x3a,0x3a,0x53,0x45,0x08,0x3a,0x0a,0x40,0x6e,0x61,0x6d,0x65,0x49,0x22,0x12,0x6d,0x6f,0x6e,0x5f,0x65,0x72,0x6f,0x5f,0x6b,0x6f,0x6b,0x69,0x31,0x06,0x3a,0x06,0x45,0x54,0x3a,0x0b,0x40,0x70,0x69,0x74,0x63,0x68,0x69,0x69,0x3a,0x0c,0x40,0x76,0x6f,0x6c,0x75,0x6d,0x65,0x69,0x69))
ChangeVariable(11,11,0,2,105,115)
311(0,1,1,1,11,true)
ShowMessageFace("",0,0,2,17)
ShowMessage("Milio continues to rub Luka's penis against her armpit!\nCovered in her sweat, his glans rubs against her soft skin!\\D")
ShowMessage("Luka takes \\V[11] damage!")
ChangeVariable(27,27,0,3,3,1,2)
If(1,27,0,0,0)
 RunCommonEvent(7217)
 EndEventProcessing()
 0()
EndIf()
250(bytes(0x04,0x08,0x6f,0x3a,0x0c,0x52,0x50,0x47,0x3a,0x3a,0x53,0x45,0x08,0x3a,0x0a,0x40,0x6e,0x61,0x6d,0x65,0x49,0x22,0x12,0x6d,0x6f,0x6e,0x5f,0x65,0x72,0x6f,0x5f,0x6b,0x6f,0x6b,0x69,0x31,0x06,0x3a,0x06,0x45,0x54,0x3a,0x0b,0x40,0x70,0x69,0x74,0x63,0x68,0x69,0x69,0x3a,0x0c,0x40,0x76,0x6f,0x6c,0x75,0x6d,0x65,0x69,0x69))
ChangeVariable(11,11,0,2,105,115)
311(0,1,1,1,11,true)
ShowMessageFace("",0,0,2,18)
ShowMessage("Milio moves her upper body, rubbing her armpit hard against Luka's penis!\\D")
ShowMessage("Luka takes \\V[11] damage!")
ChangeVariable(27,27,0,3,3,1,2)
If(1,27,0,0,0)
 RunCommonEvent(7217)
 EndEventProcessing()
 0()
EndIf()
ShowMessageFace("mob_kaihei_fc1",0,0,2,19)
ShowMessage("\\n<Milio>This...is the finish!♪")
250(bytes(0x04,0x08,0x6f,0x3a,0x0c,0x52,0x50,0x47,0x3a,0x3a,0x53,0x45,0x08,0x3a,0x0a,0x40,0x6e,0x61,0x6d,0x65,0x49,0x22,0x12,0x6d,0x6f,0x6e,0x5f,0x65,0x72,0x6f,0x5f,0x6b,0x6f,0x6b,0x69,0x31,0x06,0x3a,0x06,0x45,0x54,0x3a,0x0b,0x40,0x70,0x69,0x74,0x63,0x68,0x69,0x69,0x3a,0x0c,0x40,0x76,0x6f,0x6c,0x75,0x6d,0x65,0x69,0x69))
ChangeVariable(11,11,0,2,105,115)
311(0,1,1,1,11,true)
ShowMessageFace("",0,0,2,20)
ShowMessage("Milio squeezes Luka's penis in her armpit!\nHer warm, sweaty flesh wraps around his penis!\\D")
ShowMessage("Luka takes \\V[11] damage!")
ChangeVariable(27,27,0,3,3,1,2)
If(1,27,0,0,0)
 RunCommonEvent(7217)
 EndEventProcessing()
 0()
EndIf()
RunCommonEvent(7214)
EndEventProcessing()
0()
