// EVENT 5246
Name "ウィッチフェラ"

PictureDisplay(5,"80_witchs_st14",0,0,0,0,100,100,0,0)
PictureMove(5,null,0,0,0,0,100,100,255,0,30,true)
ShowMessageFace("witchs_fc1",0,0,2,1)
ShowMessage("\\n<Witch>")
ShowMessage("You want to do something lewd...?")
ShowMessage("What a naughty little Hero.")
ShowMessageFace("",0,0,2,2)
ShowMessage("\\n<Luka>P-Please...")
ShowMessageFace("witchs_fc1",2,0,2,3)
ShowMessage("\\n<Witch>")
ShowMessage("Well then, come to my room.")
ShowMessage("We can play around for a bit...")
ShowMessageFace("",0,0,2,4)
ShowMessage("Invited, I follow her to her room...")
221()
PictureDisplay(1,"bg195",0,0,0,0,100,100,255,0)
PictureDisplay(5,"80_witchs_st14",0,0,0,0,100,100,255,0)
222()
241(bytes(0x04,0x08,0x6f,0x3a,0x0d,0x52,0x50,0x47,0x3a,0x3a,0x42,0x47,0x4d,0x08,0x3a,0x0a,0x40,0x6e,0x61,0x6d,0x65,0x49,0x22,0x09,0x65,0x72,0x6f,0x31,0x06,0x3a,0x06,0x45,0x54,0x3a,0x0c,0x40,0x76,0x6f,0x6c,0x75,0x6d,0x65,0x69,0x69,0x3a,0x0b,0x40,0x70,0x69,0x74,0x63,0x68,0x69,0x69))
ShowMessageFace("witchs_fc1",2,0,2,5)
ShowMessage("\\n<Witch>")
ShowMessage("I'll wring all of your semen out with my mouth.")
ShowMessage("Ufufu, it will feel amazing...")
ShowMessageFace("",0,0,2,6)
ShowMessage("Showing a wide smile, Witch brings her mouth close to my crotch...")
245(bytes(0x04,0x08,0x6f,0x3a,0x0d,0x52,0x50,0x47,0x3a,0x3a,0x42,0x47,0x53,0x08,0x3a,0x0a,0x40,0x6e,0x61,0x6d,0x65,0x49,0x22,0x10,0x6d,0x6f,0x6e,0x5f,0x68,0x76,0x6f,0x69,0x63,0x65,0x33,0x06,0x3a,0x06,0x45,0x54,0x3a,0x0c,0x40,0x76,0x6f,0x6c,0x75,0x6d,0x65,0x69,0x55,0x3a,0x0b,0x40,0x70,0x69,0x74,0x63,0x68,0x69,0x69))
PictureDisplay(5,"ev_witchs_hg1",0,0,0,0,100,100,255,0)
PictureDisplay(6,"ev_witchs_ct21",0,0,0,0,100,100,255,0)
ShowMessageFace("",0,0,2,7)
ShowMessage("With a slurp... She sucks my penis inside!")
ShowMessageFace("",0,0,2,8)
ShowMessage("\\n<Luka>Ah...Hauuu!!")
ShowMessageFace("",0,0,2,9)
ShowMessage("A wet feeling surrounds my penis.")
ShowMessage("Her mouth, filled with saliva, takes my penis deep inside.")
ShowMessageFace("witchs_fc1",2,0,2,10)
ShowMessage("\\n<Witch>")
ShowMessage("Nnnn... Does my mouth feel good?")
ShowMessageFace("",0,0,2,11)
ShowMessage("\\n<Luka>I-it feels good... Auu...")
ShowMessageFace("",0,0,2,12)
ShowMessage("My penis is covered in her warm, sweet saliva.")
ShowMessage("Feeling too good, the strength fades from my waist.")
ShowMessageFace("witchs_fc1",2,0,2,13)
ShowMessage("\\n<Witch>")
ShowMessage("Ufufu, are you entranced?")
ShowMessage("Nnnn... *Suck* *Suck*")
ShowMessageFace("",0,0,2,14)
ShowMessage("Witch's tongue rolls around my glans.")
ShowMessage("At the same time, her gentle sucking pulls on me.")
ShowMessageFace("",0,0,2,15)
ShowMessage("\\n<Luka>A-auuu!!")
ShowMessageFace("",0,0,2,16)
ShowMessage("As she slowly sucks on my penis, I tremble.")
ShowMessage("Enjoying my reactions, Witch runs her tongue around my tip.")
ShowMessageFace("",0,0,2,17)
ShowMessage("Her whole mouth sucks on me.")
ShowMessage("Pressing the tip of her tongue to my urethra, she laps up the pre-come leaking from me.")
ShowMessageFace("witchs_fc1",2,0,2,18)
ShowMessage("\\n<Witch>")
ShowMessage("Horahora... *Suck* *Lick*")
ShowMessage("Make sure you come a lot in my mouth♪")
ShowMessageFace("",0,0,2,19)
ShowMessage("\\n<Luka>N-no... Ahh...!")
ShowMessageFace("",0,0,2,20)
ShowMessage("As she sucks on me, I feel myself reaching a pathetically quick climax.")
ShowMessage("My hips tremble as I relax, leaving myself over to the feeling.")
RunCommonEvent(104)
PictureDisplay(5,"ev_witchs_hg2",0,0,0,0,100,100,255,0)
PictureDisplay(6,"ev_witchs_ct22",0,0,0,0,100,100,255,0)
RunCommonEvent(105)
ShowMessageFace("",0,0,2,21)
ShowMessage("At last I reach my high.")
ShowMessage("Coming, I quickly fill Witch's mouth with my white seed.")
ShowMessageFace("",0,0,2,22)
ShowMessage("\\n<Luka>Auuu...")
ShowMessageFace("witchs_fc1",2,0,2,23)
ShowMessage("\\n<Witch>")
ShowMessage("Nnngg... *Suck* *Suck*")
ShowMessage("There's more to go... *Suck* *Lick*")
ShowMessageFace("",0,0,2,24)
ShowMessage("\\n<Luka>A... Hauuu!")
ShowMessageFace("",0,0,2,25)
ShowMessage("Witch quickly swallows my semen, and starts sucking again.")
ShowMessage("Her tongue runs over my now extra sensitive penis.")
ShowMessageFace("",0,0,2,26)
ShowMessage("Witch's wet tongue runs back and forth over my urethral opening.")
ShowMessage("Pressing against my tip, she starts to move her head back and forth as she sucks harder.")
ShowMessageFace("",0,0,2,27)
ShowMessage("\\n<Luka>S-Stop... Too much...!")
ShowMessageFace("",0,0,2,28)
ShowMessage("Despite feeling so good, I try to pull my waist back.")
ShowMessage("But with her holding onto me, I can't pull away.")
ShowMessageFace("witchs_fc1",2,0,2,29)
ShowMessage("\\n<Witch>")
ShowMessage("No running... *Suck* *Suck*")
ShowMessage("I'll make you come like this...♪")
ShowMessageFace("witchs_fc1",2,0,2,30)
ShowMessage("\\n<Witch>")
ShowMessage("Nnnn... *Suck* *Suuuuck*")
ShowMessageFace("",0,0,2,31)
ShowMessage("\\n<Luka>A-Ahhhh!!")
ShowMessageFace("",0,0,2,32)
ShowMessage("Witch's head goes back and forth faster and faster.")
ShowMessage("With her lips running up and down my shaft, I'm forced to another quick high.")
ShowMessageFace("",0,0,2,33)
ShowMessage("\\n<Luka>Hauu... A-Ahhh!!")
RunCommonEvent(104)
PictureDisplay(5,"ev_witchs_hg3",0,0,0,0,100,100,255,0)
PictureDisplay(6,"ev_witchs_ct23",0,0,0,0,100,100,255,0)
RunCommonEvent(105)
ShowMessageFace("",0,0,2,34)
ShowMessage("My semen gushes into her mouth as she sucks hard.")
ShowMessage("But even during my climax, Witch doesn't slow down at all.")
ShowMessageFace("",0,0,2,35)
ShowMessage("\\n<Luka>Ahiii! Ahhhhhh!!")
ShowMessageFace("witchs_fc1",2,0,2,36)
ShowMessage("\\n<Witch>")
ShowMessage("There's no point crying, you can't escape from my mouth...")
ShowMessage("*Suck* *Suck*")
ShowMessageFace("",0,0,2,37)
ShowMessage("Witch suddenly sucks harder than before.")
ShowMessage("Preying on my penis, I'm completely at this succubus' mercy.")
ShowMessageFace("",0,0,2,38)
ShowMessage("\\n<Luka>Ah... Hyaaa~~!")
ShowMessageFace("witchs_fc1",2,0,2,39)
ShowMessage("\\n<Witch>")
ShowMessage("*Lick* *Lick* *Suck*")
ShowMessageFace("",0,0,2,40)
ShowMessage("Her piston-like movements drive me to the edge.")
ShowMessage("Adding in her tongue, I'm left a moaning mess.")
ShowMessageFace("",0,0,2,41)
ShowMessage("Feeling overwhelmed, my head goes pure white.")
ShowMessage("With my body trembling, I let myself go.")
RunCommonEvent(104)
PictureDisplay(8,"ev_witchs_ct24",0,0,0,0,100,100,255,0)
RunCommonEvent(105)
ShowMessageFace("",0,0,2,42)
ShowMessage("At last I release, my semen shooting into her mouth.")
ShowMessage("As my penis pulses, Witch sucks, swallowing every drop down.")
ShowMessageFace("",0,0,2,43)
ShowMessage("\\n<Luka>Hauuu...")
ShowMessageFace("",0,0,2,44)
ShowMessage("Witch's mouth is filled with my white semen...")
ShowMessage("The amount she couldn't fit in her mouth makes a ring around her mouth.")
246(2)
ShowMessageFace("witchs_fc1",2,0,2,45)
ShowMessage("\\n<Witch>")
ShowMessage("Ufufu, lots of milk.")
ShowMessage("You feel dry now, don't you?")
ShowMessageFace("",0,0,2,46)
ShowMessage("\\n<Luka>Hauuu...")
ShowMessageFace("",0,0,2,47)
ShowMessage("After coming so much, I collapse in weakness.")
ShowMessage("I soak in the afterglow, drained of semen by Witch's mouth...")
221()
PictureClear(5)
PictureClear(6)
246(2)
ShowMessageFace("",0,0,2,48)
ShowMessage("......")
RunCommonEvent(3998)
0()
