﻿// EVENT 5830
Name "R Victoria"

If(0,443,0)
 PictureDisplay(5,"80_valkyrie_st01",0,0,0,0,100,100,255,0)
 0()
EndIf()
242(1)
250(bytes(0x04,0x08,0x6f,0x3a,0x0c,0x52,0x50,0x47,0x3a,0x3a,0x53,0x45,0x08,0x3a,0x0a,0x40,0x6e,0x61,0x6d,0x65,0x49,0x22,0x0a,0x7a,0x69,0x68,0x6f,0x75,0x06,0x3a,0x06,0x45,0x54,0x3a,0x0b,0x40,0x70,0x69,0x74,0x63,0x68,0x69,0x69,0x3a,0x0c,0x40,0x76,0x6f,0x6c,0x75,0x6d,0x65,0x69,0x55))
Wait(60)
ShowMessageFace("",0,0,2,1)
ShowMessage("At that moment, the five o'clock bell rings in the castle.")
241(bytes(0x04,0x08,0x6f,0x3a,0x0d,0x52,0x50,0x47,0x3a,0x3a,0x42,0x47,0x4d,0x08,0x3a,0x0a,0x40,0x6e,0x61,0x6d,0x65,0x49,0x22,0x09,0x65,0x72,0x6f,0x31,0x06,0x3a,0x06,0x45,0x54,0x3a,0x0c,0x40,0x76,0x6f,0x6c,0x75,0x6d,0x65,0x69,0x69,0x3a,0x0b,0x40,0x70,0x69,0x74,0x63,0x68,0x69,0x69))
ShowMessageFace("valkyrie_fc1",0,0,2,2)
ShowMessage("\\n<Victoria>This is the end of the sword training.\nNext, I'll train you with my sexual techniques...")
ShowMessageFace("",0,0,2,3)
ShowMessage("After saying that, Victoria takes off her armor.")
ShowMessageFace("valkyrie_fc1",3,0,2,4)
ShowMessage("\\n<Victoria>Choose now...\nWhat kind of training do you want?")
ShowChoices(strings("Give me an intense handjob","Train my endurance","I don't want to train"),0)
IfPlayerPicksChoice(0,null)
 ShowMessageFace("valkyrie_fc1",3,0,2,5)
 ShowMessage("\\n<Victoria>Understood... I'll stroke it hard.")
 245(bytes(0x04,0x08,0x6f,0x3a,0x0d,0x52,0x50,0x47,0x3a,0x3a,0x42,0x47,0x53,0x08,0x3a,0x0a,0x40,0x6e,0x61,0x6d,0x65,0x49,0x22,0x17,0x6d,0x6f,0x6e,0x5f,0x68,0x73,0x65,0x61,0x6e,0x31,0x37,0x5f,0x73,0x69,0x67,0x6f,0x6b,0x69,0x06,0x3a,0x06,0x45,0x54,0x3a,0x0c,0x40,0x76,0x6f,0x6c,0x75,0x6d,0x65,0x69,0x55,0x3a,0x0b,0x40,0x70,0x69,0x74,0x63,0x68,0x69,0x69))
 PictureDisplay(5,"ev_valkyrie_hc1",0,0,0,0,100,100,255,0)
 ShowMessageFace("",0,0,2,6)
 ShowMessage("Victoria gets close to me from behind...\nShe then grabs my penis and starts pumping it up and down.")
 ShowMessageFace("",0,0,2,7)
 ShowMessage("\\n<Luka>Ah... Ugh, ahhh...")
 ShowMessageFace("valkyrie_fc1",3,0,2,8)
 ShowMessage("\\n<Victoria>Don't hold back...\nShoot it out.")
 ShowMessageFace("",0,0,2,9)
 ShowMessage("Victoria holds my penis in her soft palm...\nThe tightness of her dexterous grip brings the finest of pleasures to my dick.")
 ShowMessageFace("",0,0,2,10)
 ShowMessage("Then, she moves her hand back and forth.\nShe forms a ring with her fingers, and it feels amazing when it bumps into my head with each stroke...")
 ShowMessageFace("",0,0,2,11)
 ShowMessage("\\n<Luka>Ah...! Ah, ahhh...!!")
 RunCommonEvent(104)
 RunCommonEvent(105)
 ShowMessageFace("",0,0,2,12)
 ShowMessage("She leads me to the climax in the blink of an eye.\nI spurt it out in Victoria's hand...")
 ShowMessageFace("valkyrie_fc1",3,0,2,13)
 ShowMessage("\\n<Victoria>You came...\nBut I'll squeeze a few more out of you.")
 ShowMessageFace("",0,0,2,14)
 ShowMessage("\\n<Luka>No way... Ah, uhhhh...!")
 ShowMessageFace("",0,0,2,15)
 ShowMessage("She mercilessly strokes my penis just after an orgasm.\nShe alternates between gripping it tightly and slowly rubbing it with her palm...")
 ShowMessageFace("",0,0,2,16)
 ShowMessage("\\n<Luka>Ugh... Ah, ahhh!!")
 RunCommonEvent(104)
 RunCommonEvent(105)
 ShowMessageFace("",0,0,2,17)
 ShowMessage("Then I am guided to a second ejaculation.\nAnd yet she continues to ruthlessly pump my penis, which is still shooting out semen.")
 ShowMessageFace("",0,0,2,18)
 ShowMessage("\\n<Luka>Ugh, ah, ahhhh!!")
 ShowMessageFace("valkyrie_fc1",3,0,2,19)
 ShowMessage("\\n<Victoria>Resistance is futile...\nI'll keep going until you're empty.")
 ShowMessageFace("",0,0,2,20)
 ShowMessage("\\n<Luka>Oh, no... Ah, ahhh!!")
 RunCommonEvent(104)
 RunCommonEvent(105)
 ShowMessageFace("",0,0,2,21)
 ShowMessage("Victoria's hand kept squeezing out my semen endlessly.\nAnd as soon as I couldn't let a single drop out, I lost consciousness...")
 221()
 PictureClear(5)
 242(1)
 246(1)
 ShowMessageFace("",0,0,2,22)
 ShowMessage("・・・・・・・・")
 0()
IfPlayerPicksChoice(1,null)
 ShowMessageFace("valkyrie_fc1",3,0,2,23)
 ShowMessage("\\n<Victoria>Understood... Try to endure it as long as you can.")
 PictureDisplay(5,"ev_valkyrie_hb1",0,0,0,0,100,100,255,0)
 ShowMessageFace("",0,0,2,24)
 ShowMessage("Victoria pushes me down.\nCompletely naked, she comes forward and mounts me.")
 ShowMessageFace("",0,0,2,25)
 ShowMessage("\\n<Luka>Ahhh...!")
 ShowMessageFace("",0,0,2,26)
 ShowMessage("My erect penis is now underneath her crotch.\nI squirm in pleasure as I feel its soft touch pressing down on me.")
 ShowMessageFace("valkyrie_fc1",3,0,2,27)
 ShowMessage("\\n<Victoria>This is how I will train you with my sexual skills...\nEndure it, no matter how good it feels.")
 245(bytes(0x04,0x08,0x6f,0x3a,0x0d,0x52,0x50,0x47,0x3a,0x3a,0x42,0x47,0x53,0x08,0x3a,0x0a,0x40,0x6e,0x61,0x6d,0x65,0x49,0x22,0x17,0x6d,0x6f,0x6e,0x5f,0x68,0x73,0x65,0x61,0x6e,0x31,0x37,0x5f,0x73,0x69,0x67,0x6f,0x6b,0x69,0x06,0x3a,0x06,0x45,0x54,0x3a,0x0c,0x40,0x76,0x6f,0x6c,0x75,0x6d,0x65,0x69,0x55,0x3a,0x0b,0x40,0x70,0x69,0x74,0x63,0x68,0x69,0x69))
 ShowMessageFace("",0,0,2,28)
 ShowMessage("Victoria skillfully moves her hips up and down, then left and right.\nShe grinds her pussy against my penis, providing me with one-sided pleasure...")
 ShowMessageFace("",0,0,2,29)
 ShowMessage("\\n<Luka>Ahhh...!!")
 ShowMessageFace("",0,0,2,30)
 ShowMessage("Her fierce waist movements gradually bring me close to an orgasm.\nAnd the moment I surrender to pleasure and entrust my body to this feeling of release...")
 ShowMessageFace("valkyrie_fc1",3,0,2,31)
 ShowMessage("\\n<Victoria>I won't let you come yet...")
 PictureDisplay(5,"ev_valkyrie_hb2",0,0,0,0,100,100,255,0)
 ShowMessageFace("",0,0,2,32)
 ShowMessage("\\n<Luka>Uhhh...!")
 ShowMessageFace("",0,0,2,33)
 ShowMessage("A strange magic blocks my ejaculation.\nIt prevents my penis from shooting out just before I reach the climax...")
 ShowMessageFace("",0,0,2,34)
 ShowMessage("\\n<Luka>Ahhh... W-what's this...")
 ShowMessageFace("valkyrie_fc1",3,0,2,35)
 ShowMessage("\\n<Victoria>Writhe in the pleasure of being denied your orgasm.\nCome on, I'll make it more stimulating...")
 ShowMessageFace("",0,0,2,36)
 ShowMessage("\\n<Luka>Ah... Uwhaaah!!")
 ShowMessageFace("",0,0,2,37)
 ShowMessage("Victoria's movements become increasingly intense.\nShe vigorously twists her waist around, giving intense stimulation to my penis as her crotch presses down on it.")
 ShowMessageFace("",0,0,2,38)
 ShowMessage("She teases me while preventing me from ejaculating as this frustrating pleasure makes my body twist and turn in anguish...")
 221()
 Wait(60)
 222()
 ShowMessageFace("",0,0,2,39)
 ShowMessage("\\n<Luka>Ugh... Ah...")
 ShowMessageFace("valkyrie_fc1",3,0,2,40)
 ShowMessage("\\n<Victoria>............")
 ShowMessageFace("",0,0,2,41)
 ShowMessage("I wonder how much time has passed since then.\nNo, maybe there is no concept of time in this anomaly.")
 ShowMessageFace("",0,0,2,42)
 ShowMessage("I've experienced an unending Hell of orgasm denial between her legs...\nI am completely devoid of strength under Victoria's body.")
 ShowMessageFace("",0,0,2,43)
 ShowMessage("My penis twitches repeatedly beneath her pussy.\nEven after being stimulated for so long, she didn't allow me to ejaculate even once...")
 ShowMessageFace("",0,0,2,44)
 ShowMessage("\\n<Luka>Please, let me come... I'm begging you...")
 ShowMessageFace("valkyrie_fc1",3,0,2,45)
 ShowMessage("\\n<Victoria>...I guess it can't be helped.\nI'll break the ejaculation seal, so you can wet yourself miserably.")
 ShowMessageFace("",0,0,2,46)
 ShowMessage("After saying that, Victoria starts to move her hips.\nThe intense intercrural sex sweetly pressures and stimulates my penis...")
 ShowMessageFace("",0,0,2,47)
 ShowMessage("At the same time, the magic seal preventing me from ejaculating disappears.\nAnd now that it's free, my penis starts throbbing wildly...")
 RunCommonEvent(104)
 PictureDisplay(5,"ev_valkyrie_hb3",0,0,0,0,100,100,255,0)
 RunCommonEvent(105)
 ShowMessageFace("",0,0,2,48)
 ShowMessage("\\n<Luka>Fuahhhhh...")
 ShowMessageFace("",0,0,2,49)
 ShowMessage("The sense of release is so overwhelming that I feel like my mind is going blank.\nSemen gushes out of my penis as I feel like I'm about to melt away.")
 ShowMessageFace("",0,0,2,50)
 ShowMessage("My penis pulses without stopping, longer than normal...\nA large amount of semen spurts out of me.")
 ShowMessageFace("valkyrie_fc1",3,0,2,51)
 ShowMessage("\\n<Victoria>You squirted out so much... Are you satisfied?")
 ShowMessageFace("",0,0,2,52)
 ShowMessage("\\n<Luka>Ah... Ahhh...")
 ShowMessageFace("",0,0,2,53)
 ShowMessage("She thoroughly teased me, tortured me so much I lost all strength, then gave me a massive ejaculation at the end.\nI was so exhausted that I lost consciousness.")
 221()
 PictureClear(5)
 242(1)
 246(1)
 ShowMessageFace("",0,0,2,54)
 ShowMessage("・・・・・・・・")
 0()
IfPlayerPicksChoice(2,null)
 ShowMessageFace("valkyrie_fc1",3,0,2,55)
 ShowMessage("\\n<Victoria>You don't want to train...?\nI'll beat some spirit back into you.")
 PictureDisplay(5,"ev_valkyrie_hb1",0,0,0,0,100,100,255,0)
 ShowMessageFace("",0,0,2,56)
 ShowMessage("Victoria pushes me down.\nCompletely naked, she comes forward and mounts me.")
 ShowMessageFace("",0,0,2,57)
 ShowMessage("\\n<Luka>Ahhh...!")
 ShowMessageFace("",0,0,2,58)
 ShowMessage("My erect penis is now underneath her crotch.\nI squirm in pleasure as I feel its soft touch pressing down on me.")
 ShowMessageFace("valkyrie_fc1",3,0,2,59)
 ShowMessage("\\n<Victoria>This is your punishment...\nNow, enjoy the flesh pot of a war maiden.")
 245(bytes(0x04,0x08,0x6f,0x3a,0x0d,0x52,0x50,0x47,0x3a,0x3a,0x42,0x47,0x53,0x08,0x3a,0x0a,0x40,0x6e,0x61,0x6d,0x65,0x49,0x22,0x1e,0x6d,0x6f,0x6e,0x5f,0x68,0x73,0x65,0x61,0x6e,0x30,0x32,0x5f,0x69,0x6e,0x6e,0x65,0x72,0x77,0x6f,0x72,0x6b,0x73,0x5f,0x61,0x32,0x06,0x3a,0x06,0x45,0x54,0x3a,0x0c,0x40,0x76,0x6f,0x6c,0x75,0x6d,0x65,0x69,0x55,0x3a,0x0b,0x40,0x70,0x69,0x74,0x63,0x68,0x69,0x69))
 PictureDisplay(5,"ev_valkyrie_hb4",0,0,0,0,100,100,255,0)
 ShowMessageFace("",0,0,2,60)
 ShowMessage("Victoria then guides my penis into her vagina.\nMy dick is submitted to its soft tightness...")
 ShowMessageFace("",0,0,2,61)
 ShowMessage("\\n<Luka>Ah... Ahhh...!")
 ShowMessageFace("",0,0,2,62)
 ShowMessage("In addition, Victoria gently bucks her hips.\nHer pussy clamps down on my penis as she teases me with the tender movements of her waist...")
 ShowMessageFace("",0,0,2,63)
 ShowMessage("\\n<Luka>Stop it, I'm about to come...")
 ShowMessageFace("",0,0,2,64)
 ShowMessage("I can't endure being raped by a war maiden's incredible pussy.\nAnd the moment I surrender to pleasure and entrust my body to this feeling of release...")
 ShowMessageFace("valkyrie_fc1",3,0,2,65)
 ShowMessage("\\n<Victoria>I won't let you come yet...")
 PictureDisplay(5,"ev_valkyrie_hb5",0,0,0,0,100,100,255,0)
 ShowMessageFace("",0,0,2,66)
 ShowMessage("\\n<Luka>Uhhh...!")
 ShowMessageFace("",0,0,2,67)
 ShowMessage("A strange magic blocks my ejaculation.\nIt prevents my penis from shooting out just before I reach the climax...")
 ShowMessageFace("",0,0,2,68)
 ShowMessage("\\n<Luka>Ahhh... W-what's this...")
 ShowMessageFace("valkyrie_fc1",3,0,2,69)
 ShowMessage("\\n<Victoria>Writhe in the pleasure of being denied your orgasm.\nCome on, I'll make it more stimulating...")
 ShowMessageFace("",0,0,2,70)
 ShowMessage("\\n<Luka>Ah... Uwhaaah!!")
 ShowMessageFace("",0,0,2,71)
 ShowMessage("Her pussy twists around my dick more intensely.\nIt seductively contracts, giving my penis the most exquisite pleasure.")
 ShowMessageFace("",0,0,2,72)
 ShowMessage("She teases me while preventing me from ejaculating as this frustrating pleasure makes my body twist and turn in anguish...")
 221()
 Wait(60)
 222()
 ShowMessageFace("",0,0,2,73)
 ShowMessage("\\n<Luka>Ugh... Ah...")
 ShowMessageFace("valkyrie_fc1",3,0,2,74)
 ShowMessage("\\n<Victoria>............")
 ShowMessageFace("",0,0,2,75)
 ShowMessage("I wonder how much time has passed since then.\nNo, maybe there is no concept of time in this anomaly.")
 ShowMessageFace("",0,0,2,76)
 ShowMessage("I've experienced an unending Hell of orgasm denial inside her pussy...\nI am completely devoid of strength under Victoria's body.")
 ShowMessageFace("",0,0,2,77)
 ShowMessage("My penis twitches repeatedly inside her vagina.\nEven after being stimulated for so long, she didn't allow me to ejaculate even once...")
 ShowMessageFace("",0,0,2,78)
 ShowMessage("\\n<Luka>Please, let me come... I'm begging you...")
 ShowMessageFace("valkyrie_fc1",3,0,2,79)
 ShowMessage("\\n<Victoria>...I guess it can't be helped.\nI'll break the ejaculation seal, so you can wet yourself miserably.")
 ShowMessageFace("",0,0,2,80)
 ShowMessage("After saying that, Victoria starts to shake her hips.\nHer intense piston-like movements sweetly stimulate my penis...")
 ShowMessageFace("",0,0,2,81)
 ShowMessage("At the same time, the magic seal preventing me from ejaculating disappears.\nAnd now that it's free, my penis starts throbbing wildly...")
 RunCommonEvent(104)
 PictureDisplay(5,"ev_valkyrie_hb6",0,0,0,0,100,100,255,0)
 RunCommonEvent(105)
 ShowMessageFace("",0,0,2,82)
 ShowMessage("\\n<Luka>Fuahhhhh...")
 ShowMessageFace("",0,0,2,83)
 ShowMessage("The sense of release is so overwhelming that I feel like my mind is going blank.\nSemen gushes out of my penis as I feel like I'm about to melt away.")
 ShowMessageFace("",0,0,2,84)
 ShowMessage("My penis pulses without stopping, longer than normal...\nA large amount of semen spurts out of me.")
 ShowMessageFace("valkyrie_fc1",3,0,2,85)
 ShowMessage("\\n<Victoria>You squirted out so much... Are you satisfied?")
 ShowMessageFace("",0,0,2,86)
 ShowMessage("\\n<Luka>Ah... Ahhh...")
 ShowMessageFace("valkyrie_fc1",3,0,2,87)
 ShowMessage("\\n<Victoria>But your punishment isn't over.\nBefore, I sealed your ability to ejaculate. Now, I will make you splurt it out continuously...")
 ShowMessageFace("",0,0,2,88)
 ShowMessage("\\n<Luka>Y-you can't... Ahhhh!!")
 ShowMessageFace("",0,0,2,89)
 ShowMessage("Victoria rides me furiously!\nShe even clenches her pussy to finish my penis off...")
 ShowMessageFace("",0,0,2,90)
 ShowMessage("\\n<Luka>Ugh... Ah, ahhhh!!")
 RunCommonEvent(104)
 PictureDisplay(5,"ev_valkyrie_hb7",0,0,0,0,100,100,255,0)
 RunCommonEvent(105)
 ShowMessageFace("",0,0,2,91)
 ShowMessage("I writhe before the intense pleasure and ejaculate in rapid succession.\nSemen keeps flowing out of my penis, and I can't stop shooting it out...")
 ShowMessageFace("",0,0,2,92)
 ShowMessage("\\n<Luka>Uh... Ah, uwhaaah...!")
 ShowMessageFace("valkyrie_fc1",3,0,2,93)
 ShowMessage("\\n<Victoria>Ejaculate more...\nMore, more...")
 RunCommonEvent(104)
 RunCommonEvent(105)
 ShowMessageFace("",0,0,2,94)
 ShowMessage("\\n<Luka>ah... ahh...")
 ShowMessageFace("",0,0,2,95)
 ShowMessage("She thoroughly teased me, tortured me so much I lost all strength, then made me come repeatedly at the end.\nI was so exhausted that I lost consciousness.")
 221()
 PictureClear(5)
 242(1)
 246(1)
 ShowMessageFace("",0,0,2,96)
 ShowMessage("・・・・・・・・")
 0()
404()
221()
Wait(120)
If(0,443,0)
 EndEventProcessing()
 0()
EndIf()
RunCommonEvent(541)
0()
