// EVENT 4826
Name "Seahorse Marine 1"

PictureDisplay(5,"80_tatunoko_k_st02",0,0,0,0,100,100,0,0)
PictureMove(5,null,0,0,0,0,100,100,255,0,30,true)
ShowMessageFace("tatunoko_k_fc1",1,0,2,1)
ShowMessage("\\n<Tatsuko>I need to fulfill my recruiting quota for the Navy! Since there's no one else, Luka, you will join the Navy!")
ShowMessageFace("",0,0,2,2)
ShowMessage("\\n<Luka>No way...")
ShowMessageFace("tatunoko_k_fc1",1,0,2,3)
ShowMessage("\\n<Tatsuko>Newbie ranks of the Navy are determined by endurance. Starting now, I'll test your endurance!")
ShowMessageFace("",0,0,2,4)
ShowMessage("Thus I was taken to a private room...")
221()
PictureDisplay(1,"bg195",0,0,0,0,100,100,255,0)
PictureDisplay(5,"ev_tatunoko_k_h1",0,0,0,0,100,100,255,0)
222()
241(bytes(0x04,0x08,0x6f,0x3a,0x0d,0x52,0x50,0x47,0x3a,0x3a,0x42,0x47,0x4d,0x08,0x3a,0x0a,0x40,0x6e,0x61,0x6d,0x65,0x49,0x22,0x09,0x65,0x72,0x6f,0x31,0x06,0x3a,0x06,0x45,0x54,0x3a,0x0c,0x40,0x76,0x6f,0x6c,0x75,0x6d,0x65,0x69,0x69,0x3a,0x0b,0x40,0x70,0x69,0x74,0x63,0x68,0x69,0x69))
245(bytes(0x04,0x08,0x6f,0x3a,0x0d,0x52,0x50,0x47,0x3a,0x3a,0x42,0x47,0x53,0x08,0x3a,0x0a,0x40,0x6e,0x61,0x6d,0x65,0x49,0x22,0x17,0x6d,0x6f,0x6e,0x5f,0x68,0x73,0x65,0x61,0x6e,0x31,0x37,0x5f,0x73,0x69,0x67,0x6f,0x6b,0x69,0x06,0x3a,0x06,0x45,0x54,0x3a,0x0c,0x40,0x76,0x6f,0x6c,0x75,0x6d,0x65,0x69,0x55,0x3a,0x0b,0x40,0x70,0x69,0x74,0x63,0x68,0x69,0x69))
ShowMessageFace("",0,0,2,5)
ShowMessage("As soon as I enter the room Tatsuko forcefully pulls down my pants. And, she brings her chest close to my crotch...")
ShowMessageFace("tatunoko_k_fc1",1,0,2,6)
ShowMessage("\\n<Tatsuko>...You have no shame.")
ShowMessageFace("",0,0,2,7)
ShowMessage("\\n<Luka>Wh-what...!?")
ShowMessageFace("",0,0,2,8)
ShowMessage("Tatsuko has small bulges for breasts...\nStill, I feel a dull sensation running through my penis.")
ShowMessageFace("",0,0,2,9)
ShowMessage("On top of that, her sailor uniform covers my penis giving of a unique pleasure. My penis grows bigger, more of it rubbing against Tatsuko's chest.")
ShowMessageFace("tatunoko_k_fc1",1,0,2,10)
ShowMessage("\\n<Tatsuko>I'll stimulate your penis.\nYour starting rank is determined by how much you can endure!")
ShowMessageFace("",0,0,2,11)
ShowMessage("\\n<Luka>N-no... Auuu!")
245(bytes(0x04,0x08,0x6f,0x3a,0x0d,0x52,0x50,0x47,0x3a,0x3a,0x42,0x47,0x53,0x08,0x3a,0x0a,0x40,0x6e,0x61,0x6d,0x65,0x49,0x22,0x17,0x6d,0x6f,0x6e,0x5f,0x68,0x73,0x65,0x61,0x6e,0x31,0x37,0x5f,0x73,0x69,0x67,0x6f,0x6b,0x69,0x06,0x3a,0x06,0x45,0x54,0x3a,0x0c,0x40,0x76,0x6f,0x6c,0x75,0x6d,0x65,0x69,0x55,0x3a,0x0b,0x40,0x70,0x69,0x74,0x63,0x68,0x69,0x69))
ShowMessageFace("",0,0,2,12)
ShowMessage("Tatsuko starts moving her body.\nShe rubs her small chest against my penis.")
ShowMessageFace("",0,0,2,13)
ShowMessage("Tatsuko's whole chest is very soft.\nUnlike an ordinary boobjob, the feeling of warmth and softness are out of this world.")
ShowMessageFace("",0,0,2,14)
ShowMessage("The sensation of her clothes rubbing against my glans brings with it a unique pleasure. I instinctively pull my waist back, trying to escape the pleasure...")
ShowMessageFace("tatunoko_k_fc1",1,0,2,15)
ShowMessage("\\n<Tatsuko>It's useless, I won't let you escape!\nThis is your enlistment endurance test.")
ShowMessageFace("",0,0,2,16)
ShowMessage("Tatsuko clings to my waist and keeps stimulating me.\nI can't escape and my penis is getting rubbed against her soft chest.")
ShowMessageFace("",0,0,2,17)
ShowMessage("I feel her soft chest rubbing against my glans.\nIt feels very different from normal sized breasts but it doesn't change the fact that it feels good.")
ShowMessageFace("",0,0,2,18)
ShowMessage("My glans is squeezed between her clothes and chest.\nMy waist trembles from the stimulus.")
ShowMessageFace("",0,0,2,19)
ShowMessage("\\n<Luka>Ah...! Auuu...")
ShowMessageFace("tatunoko_k_fc1",1,0,2,20)
ShowMessage("\\n<Tatsuko>Already moaning in such a pitiful voice.\nThis moaning shows a lack of endurance.")
ShowMessageFace("",0,0,2,21)
ShowMessage("\\n<Luka>Be-because...It feels good...Aaaah!")
ShowMessageFace("",0,0,2,22)
ShowMessage("Every time Tatsuko moves her body, her clothes rub against my glans and shaft. The fluffy feel of her clothes makes my penis tremble.")
ShowMessageFace("",0,0,2,23)
ShowMessage("The tickling feeling of her clothes and her soft chest pressing against my glans... Instinctively, all the power in my waist suddenly vanishes and I entrust myself to the gentle sensation of release.")
ShowMessageFace("",0,0,2,24)
ShowMessage("\\n<Luka>Aaau...I'll come...!")
ShowMessageFace("tatunoko_k_fc1",1,0,2,25)
ShowMessage("\\n<Tatsuko>Eh? Already?\nThat's too early...")
ShowMessageFace("",0,0,2,26)
ShowMessage("\\n<Luka>Ah, aaaaah...!!")
RunCommonEvent(104)
PictureDisplay(5,"ev_tatunoko_k_h2",0,0,0,0,100,100,255,0)
RunCommonEvent(105)
ShowMessageFace("",0,0,2,27)
ShowMessage("My penis starts pulsing miserably.\nWith each pulse, jets of my white semen run down Tatsuko's chest.")
ShowMessageFace("",0,0,2,28)
ShowMessage("\\n<Luka>Aaaaah...")
ShowMessageFace("",0,0,2,29)
ShowMessage("My semen hangs on her clothes and slowly drips down on her chest. It was a miserable sight, to witness the proof of my surrender on her chest and clothes...")
ShowMessageFace("tatunoko_k_fc1",2,0,2,30)
ShowMessage("\\n<Tatsuko>You let it out too early.\nThat makes you a private second class...")
ShowMessageFace("",0,0,2,31)
ShowMessage("\\n<Luka>........")
ShowMessageFace("tatunoko_k_fc1",1,0,2,32)
ShowMessage("\\n<Tatsuko>You came unbelievably fast, I have to test you again! Here I come!")
ShowMessageFace("",0,0,2,33)
ShowMessage("\\n<Luka>Eh, no... Aaaau!!")
ShowMessageFace("",0,0,2,34)
ShowMessage("Tatsuko pushes her chest hard against my penis.\nMy penis, sensitive after ejaculating, is pressed tightly against her soft chest.")
ShowMessageFace("",0,0,2,35)
ShowMessage("My glans pushes into her sailor suit and against her soft flesh... My waist starts trembling from the peculiar stimulation.")
ShowMessageFace("",0,0,2,36)
ShowMessage("\\n<Luka>This...stop it already...!")
ShowMessageFace("tatunoko_k_fc1",1,0,2,37)
ShowMessage("\\n<Tatsuko>I'll bully your penis and train your endurance. Ei, ei... Endure it.")
ShowMessageFace("",0,0,2,38)
ShowMessage("\\n<Luka>Aaah... Impossible...")
ShowMessageFace("",0,0,2,39)
ShowMessage("My glans is furiously rubbed. Her fluffy sailor outfit tickles my glans and the neck of my penis.")
ShowMessageFace("",0,0,2,40)
ShowMessage("Tatsuko's stimulation becomes so intense that she's practically hitting herself with my penis. Even though I came just a moment ago, my penis trembles in delight again...")
ShowMessageFace("",0,0,2,41)
ShowMessage("\\n<Luka>Ah... Aaaaaau!!")
RunCommonEvent(104)
PictureDisplay(5,"ev_tatunoko_k_h3",0,0,0,0,100,100,255,0)
RunCommonEvent(105)
ShowMessageFace("",0,0,2,42)
ShowMessage("And, in an instant I shoot out my semen.\nMy cloudiness stains her sailor suit...")
ShowMessageFace("",0,0,2,43)
ShowMessage("\\n<Luka>Fuaaa...I came again...")
ShowMessageFace("tatunoko_k_fc1",2,0,2,44)
ShowMessage("\\n<Tatsuko>Isn't it possible for you to not leak even for a bit...? Even I have completely stopped peeing.")
ShowMessageFace("tatunoko_k_fc1",1,0,2,45)
ShowMessage("\\n<Tatsuko>I'll give your miserable penis more stimulation!\nDo not come fast, this is training!")
ShowMessageFace("",0,0,2,46)
ShowMessage("\\n<Luka>Aaaaah!!")
ShowMessageFace("",0,0,2,47)
ShowMessage("Pleasure is forced into my penis right after I ejaculated.\nMy penis is tortured with pleasure in her sailor suit.")
ShowMessageFace("",0,0,2,48)
ShowMessage("My body trembles from the melting pleasure...\nI can't suppress the feeling of ejaculation welling up in my waist...")
RunCommonEvent(104)
PictureDisplay(5,"ev_tatunoko_k_h4",0,0,0,0,100,100,255,0)
RunCommonEvent(105)
246(2)
ShowMessageFace("",0,0,2,49)
ShowMessage("\\n<Luka>Aaaaah...")
ShowMessageFace("",0,0,2,50)
ShowMessage("And my semen shoots out again.\nTatsuko looks at my relaxed expression and sighs.")
ShowMessageFace("tatunoko_k_fc1",2,0,2,51)
ShowMessage("\\n<Tatsuko>You're totally hopeless...\nYou're worse than when we started.")
ShowMessageFace("tatunoko_k_fc1",1,0,2,52)
ShowMessage("\\n<Tatsuko>That's why I'm better than you!\nFrom now on, I'm going to wring you!")
ShowMessageFace("",0,0,2,53)
ShowMessage("\\n<Luka>N-no...")
ShowMessageFace("",0,0,2,54)
ShowMessage("Thus I was forced to enlist in the Navy.\nIn the end, even official documents were submitted and I started as a private second class...")
221()
PictureClear(5)
PictureClear(6)
ShowMessageFace("",0,0,2,55)
ShowMessage("......")
RunCommonEvent(3998)
0()