// EVENT 4111
Name "Dog Girl"

If(0,25,1)
 221()
 PictureClear(5)
 PictureClear(6)
 ShowMessageFace("",0,0,2,0)
 ShowMessage("......")
 242(2)
 Wait(120)
 241(bytes(0x04,0x08,0x6f,0x3a,0x0d,0x52,0x50,0x47,0x3a,0x3a,0x42,0x47,0x4d,0x08,0x3a,0x0a,0x40,0x6e,0x61,0x6d,0x65,0x49,0x22,0x0c,0x63,0x61,0x73,0x74,0x6c,0x65,0x36,0x06,0x3a,0x06,0x45,0x54,0x3a,0x0c,0x40,0x76,0x6f,0x6c,0x75,0x6d,0x65,0x69,0x69,0x3a,0x0b,0x40,0x70,0x69,0x74,0x63,0x68,0x69,0x69))
 EndEventProcessing()
 0()
EndIf()
PictureDisplay(5,"80_dog_st01",0,0,0,0,100,100,255,0)
ShowMessageFace("dog_fc1",0,0,2,1)
ShowMessage("\\n<Pochi>Woof woof...")
ShowMessageFace("",0,0,2,2)
ShowMessage("Upon seeing me, Pochi runs up with a happy smile on her face. I stick out my hand for her, which she nuzzles against and begins licking my fingers.")
ShowMessageFace("",0,0,2,3)
ShowMessage("\\n<Luka>Ahaha, that tickles.")
ShowMessageFace("dog_fc1",0,0,2,4)
ShowMessage("\\n<Pochi>*Lick* *lick* *slurp*")
ShowMessageFace("",0,0,2,5)
ShowMessage("She licks all over my fingers, covering them in drool. The feeling of her tongue is very tickling...")
ShowMessageFace("",0,0,2,6)
ShowMessage("\\n<Luka>......")
ShowMessageFace("",0,0,2,7)
ShowMessage("An evil thought suddenly comes to mind. If I expose myself to Pochi, will she lick my penis like she's licking my fingers?")
ShowMessageFace("",0,0,2,8)
ShowMessage("\\n<Luka>......")
ShowMessageFace("",0,0,2,9)
ShowMessage("I pull down my pants and flop my dick right in Pochi's face. She gives it a few tentative sniffs and then brings her face closer to my crotch...")
241(bytes(0x04,0x08,0x6f,0x3a,0x0d,0x52,0x50,0x47,0x3a,0x3a,0x42,0x47,0x4d,0x08,0x3a,0x0a,0x40,0x6e,0x61,0x6d,0x65,0x49,0x22,0x09,0x65,0x72,0x6f,0x31,0x06,0x3a,0x06,0x45,0x54,0x3a,0x0c,0x40,0x76,0x6f,0x6c,0x75,0x6d,0x65,0x69,0x69,0x3a,0x0b,0x40,0x70,0x69,0x74,0x63,0x68,0x69,0x69))
245(bytes(0x04,0x08,0x6f,0x3a,0x0d,0x52,0x50,0x47,0x3a,0x3a,0x42,0x47,0x53,0x08,0x3a,0x0a,0x40,0x6e,0x61,0x6d,0x65,0x49,0x22,0x10,0x6d,0x6f,0x6e,0x5f,0x68,0x76,0x6f,0x69,0x63,0x65,0x31,0x06,0x3a,0x06,0x45,0x54,0x3a,0x0c,0x40,0x76,0x6f,0x6c,0x75,0x6d,0x65,0x69,0x55,0x3a,0x0b,0x40,0x70,0x69,0x74,0x63,0x68,0x69,0x69))
PictureDisplay(5,"ev_dog_h2",0,0,0,0,100,100,0,0)
PictureMove(5,null,0,0,0,0,100,100,255,0,30,true)
ShowMessageFace("dog_fc1",1,0,2,10)
ShowMessage("\\n<Pochi>*Sniff* *sniff*...*lick*")
ShowMessageFace("",0,0,2,11)
ShowMessage("\\n<Luka>Ahhh!")
ShowMessageFace("",0,0,2,12)
ShowMessage("Pochi's rough tongue licks my glans and lightly brushes against the entrance to my urethra...")
ShowMessageFace("dog_fc1",1,0,2,13)
ShowMessage("\\n<Pochi>Mmmchp... *lick* *lick*")
ShowMessageFace("",0,0,2,14)
ShowMessage("Pochi keeps licking my glans even faster.\nEach time her tongue touches me, it tickles so much I squirm to get away.")
ShowMessageFace("",0,0,2,15)
ShowMessage("\\n<Luka>Ah, ahhh! Th-that tickles!")
ShowMessageFace("",0,0,2,16)
ShowMessage("Her rough tongue picks up more saliva, making it feel surprisingly slimy. With it tracing my sensitive glans, my waist trembles from the tickling.")
ShowMessageFace("",0,0,2,17)
ShowMessage("The tickling isn't the only thing I'm feeling though.\nThe sweet pleasure practically paralyzes my penis and takes over my body.")
ShowMessageFace("dog_fc1",1,0,2,18)
ShowMessage("\\n<Pochi>*Lick* *Lick* *Lick*")
ShowMessageFace("",0,0,2,19)
ShowMessage("Pochi's tongue speeds up more and more, licking all over my glans as if to make sure she savors every inch.")
ShowMessageFace("",0,0,2,20)
ShowMessage("She works her way downwards. As soon as her tongue touches my frenulum, my waist reflexively thrusts forward. She continues licking up from there, poking into my urethra.")
ShowMessageFace("",0,0,2,21)
ShowMessage("\\n<Luka>Hauuu...")
ShowMessageFace("dog_fc1",1,0,2,22)
ShowMessage("\\n<Pochi>You're dripping... *Lick*")
ShowMessageFace("",0,0,2,23)
ShowMessage("Precum oozes out of my urethral opening, which Pochi wastes no time in lapping up. The stimulation from that only makes me overflow with more...")
ShowMessageFace("dog_fc1",1,0,2,24)
ShowMessage("\\n<Pochi>*Lick*...*Lick* *Lick*")
ShowMessageFace("",0,0,2,25)
ShowMessage("\\n<Luka>Ah, hyaaaa!")
ShowMessageFace("",0,0,2,26)
ShowMessage("I'm already gushing with precum from her licking, which keeps the tip of her tongue on the attack.")
ShowMessageFace("",0,0,2,27)
ShowMessage("As a result, she focuses entirely on prodding the entrance to my urethra. I squirm under her diligent and relentless assault on that sensitive spot.")
ShowMessageFace("",0,0,2,28)
ShowMessage("\\n<Luka>Hyaaaaa!\nStop focusing only on that spot...")
ShowMessageFace("dog_fc1",1,0,2,29)
ShowMessage("\\n<Pochi>*Lick*...*Lick* *Lick*")
ShowMessageFace("",0,0,2,30)
ShowMessage("She doesn't listen though, continuing to lick at my urethra. In no time, my entire glans is coated in saliva.")
ShowMessageFace("",0,0,2,31)
ShowMessage("The sensation of her sticky spit adds to the stimulation of her tongue around my urethra. Concentrating on that feeling, my waist suddenly goes numb...")
ShowMessageFace("",0,0,2,32)
ShowMessage("\\n<Luka>Ah...! I'm going to come!")
ShowMessageFace("dog_fc1",1,0,2,33)
ShowMessage("\\n<Pochi>*Lick* *Lick* *Lick*")
ShowMessageFace("",0,0,2,34)
ShowMessage("Even though I warn her that I'm about to come, Pochi continues licking. I savor the feeling of her tongue and quickly reach a climax.")
ShowMessageFace("",0,0,2,35)
ShowMessage("\\n<Luka>Ah, aaaaaah!")
ShowMessageFace("dog_fc1",0,0,2,36)
ShowMessage("\\n<Pochi>Hya!")
246(1)
RunCommonEvent(104)
PictureDisplay(5,"ev_dog_h4",0,0,0,0,100,100,255,0)
RunCommonEvent(105)
ShowMessageFace("",0,0,2,37)
ShowMessage("My penis pulses, shooting out cloudy globs of semen that score direct hits on Pochi's face, painting the area around her mouth white.")
ShowMessageFace("",0,0,2,38)
ShowMessage("\\n<Luka>Hauu...")
ShowMessageFace("dog_fc1",1,0,2,39)
ShowMessage("\\n<Pochi>You scared me... but your white juice is delicious♪")
ShowMessageFace("",0,0,2,40)
ShowMessage("Pochi uses a finger to scoop up the semen that landed on her face, which she sucks off. For a while, she spends time cleaning herself...")
245(bytes(0x04,0x08,0x6f,0x3a,0x0d,0x52,0x50,0x47,0x3a,0x3a,0x42,0x47,0x53,0x08,0x3a,0x0a,0x40,0x6e,0x61,0x6d,0x65,0x49,0x22,0x10,0x6d,0x6f,0x6e,0x5f,0x68,0x76,0x6f,0x69,0x63,0x65,0x31,0x06,0x3a,0x06,0x45,0x54,0x3a,0x0c,0x40,0x76,0x6f,0x6c,0x75,0x6d,0x65,0x69,0x55,0x3a,0x0b,0x40,0x70,0x69,0x74,0x63,0x68,0x69,0x69))
PictureDisplay(5,"ev_dog_h5",0,0,0,0,100,100,255,0)
ShowMessageFace("dog_fc1",1,0,2,41)
ShowMessage("\\n<Pochi>...Hammngh♪")
ShowMessageFace("",0,0,2,42)
ShowMessage("What the-? She just took my glans into her mouth!\nIt's like she's begging to be fed...")
ShowMessageFace("",0,0,2,43)
ShowMessage("\\n<Luka>Aaah! Don't use your teeth!")
ShowMessageFace("dog_fc1",1,0,2,44)
ShowMessage("\\n<Pochi>I won't, don't worry...\nI want to taste more of you though♪")
ShowMessageFace("dog_fc1",1,0,2,45)
ShowMessage("\\n<Pochi>Mmmngh, sspsst... Chp...")
ShowMessageFace("",0,0,2,46)
ShowMessage("\\n<Luka>Ah... aaaah!!")
ShowMessageFace("",0,0,2,47)
ShowMessage("Pochi passionately sucks on my penis, which is still sensitive after just coming. Her mouth moves quickly, sucking on me with a lot of force.")
ShowMessageFace("",0,0,2,48)
ShowMessage("Her tongue moves vigorously around in her mouth, concentrating on licking underneath my head. I'm overwhelmed by her mouth working all over the end of my penis.")
PictureDisplay(5,"ev_dog_h6",0,0,0,0,100,100,255,0)
ShowMessageFace("dog_fc1",1,0,2,49)
ShowMessage("\\n<Pochi>Mmmn... Ssspst, chpp...")
ShowMessageFace("",0,0,2,50)
ShowMessage("\\n<Luka>Ah... hyaaa!!")
ShowMessageFace("",0,0,2,51)
ShowMessage("Pochi slurps my penis even more inside her mouth and then swallows it up to the base. She enthusiastically sucks me inside her as if she's savoring the way I taste.")
ShowMessageFace("",0,0,2,52)
ShowMessage("Her tongue creeps around my glans and also licks at my frenulum and urethral opening. In no time, I feel the warm sensation of her wet, sticky mouth all over me.")
ShowMessageFace("dog_fc1",1,0,2,53)
ShowMessage("\\n<Pochi>Sssspst... Mmmmpch, mmmchp...\nAaammngh, chmmmm...")
ShowMessageFace("",0,0,2,54)
ShowMessage("The mucous membranes in her mouth rub at the underside of my head, stimulating me with pleasure. At times, my penis sticks to them and peels off with a thrilling suction.")
ShowMessageFace("",0,0,2,55)
ShowMessage("Her sucking movements become instinctual as she tries to satisfy her desires. I struggle to even complain under the forceful stimulation.")
ShowMessageFace("",0,0,2,56)
ShowMessage("\\n<Luka>S-stop... I'm going to come again...")
ShowMessageFace("dog_fc1",1,0,2,57)
ShowMessage("\\n<Pochi>Aaammn, sspsst...\nChp... Mmmpch... Ssspst...")
ShowMessageFace("",0,0,2,58)
ShowMessage("Despite my begging, she relentlessly maintains the attack.\nIt looks like I can do nothing but give her my semen at this point.")
ShowMessageFace("",0,0,2,59)
ShowMessage("\\n<Luka>Ah...! Coming!")
ShowMessageFace("dog_fc1",1,0,2,60)
ShowMessage("\\n<Pochi>Sssspspt! Mmmpch!\nSspssst, sssspsspst!")
ShowMessageFace("",0,0,2,61)
ShowMessage("In reply to my warning of impending ejaculation, she sucks on me even more vigorously, demanding that I ejaculate for her.")
ShowMessageFace("",0,0,2,62)
ShowMessage("\\n<Luka>Ah, aaaaah!!")
RunCommonEvent(104)
PictureDisplay(5,"ev_dog_h7",0,0,0,0,100,100,255,0)
RunCommonEvent(105)
ShowMessageFace("",0,0,2,63)
ShowMessage("I finish between her lips as she sucks on me.\nSemen begins to gush out, pouring into Pochi's waiting mouth.")
ShowMessageFace("",0,0,2,64)
ShowMessage("\\n<Luka>Ah, aaaah...")
ShowMessageFace("dog_fc1",1,0,2,65)
ShowMessage("\\n<Pochi>Mmmngh... *Gulp* *Gulp*")
ShowMessageFace("",0,0,2,66)
ShowMessage("Pochi closes her eyes and greedily gulps down the semen I shot into her mouth. The stimulation from it feels like my soul itself is being sucked out...")
246(1)
PictureDisplay(5,"ev_dog_h8",0,0,0,0,100,100,255,0)
ShowMessageFace("dog_fc1",1,0,2,67)
ShowMessage("\\n<Pochi>...puhaaa.")
ShowMessageFace("",0,0,2,68)
ShowMessage("Finally she finishes drinking and takes my penis out of her")
ShowMessage("mouth, leaving a few strings of semen hanging between my")
ShowMessage("glans and her lips.")
ShowMessageFace("dog_fc1",1,0,2,69)
ShowMessage("\\n<Pochi>Hehehe, thanks for the treat.\nLet's do this again soon♪")
ShowMessageFace("",0,0,2,70)
ShowMessage("\\n<Luka>......")
ShowMessageFace("",0,0,2,71)
ShowMessage("I stumble away, unsteady on my feet after being forced to come twice in a row. All I wanted was just a little lick...")
221()
PictureClear(5)
PictureClear(6)
246(2)
ShowMessageFace("",0,0,2,72)
ShowMessage("......")
242(2)
Wait(120)
241(bytes(0x04,0x08,0x6f,0x3a,0x0d,0x52,0x50,0x47,0x3a,0x3a,0x42,0x47,0x4d,0x08,0x3a,0x0a,0x40,0x6e,0x61,0x6d,0x65,0x49,0x22,0x0c,0x63,0x61,0x73,0x74,0x6c,0x65,0x36,0x06,0x3a,0x06,0x45,0x54,0x3a,0x0c,0x40,0x76,0x6f,0x6c,0x75,0x6d,0x65,0x69,0x69,0x3a,0x0b,0x40,0x70,0x69,0x74,0x63,0x68,0x69,0x69))
0()
