﻿// EVENT 2053
Name "Seduction: Shellfish Girl"

If(0,25,1)
 EndEventProcessing()
 0()
EndIf()
355("$game_troop.lose_event_id = 3053")
ChangeVariable(26,26,0,3,3,1,4)
ChangeVariable(26,26,4,0,10)
ShowMessageFace("kai_fc1",0,0,2,1)
ShowMessage("\\n<Shellfish Girl>Ah, you're such a strong gentleman...\nYou're exactly my type of man...♪")
ShowMessageFace("kai_fc1",0,0,2,2)
ShowMessage("\\n<Shellfish Girl>Please, come stay inside my shell.\nI'll dedicate my services as your wife as much as you want...")
ShowMessageFace("",0,0,2,3)
ShowMessage("The Shellfish Girl opens her shell wide, inviting Luka.")
ChangeSwitch(98,98,0)
ChangeSwitch(96,96,0)
ShowChoices(strings("Ignore her","Give in to temptation"),1)
IfPlayerPicksChoice(0,"Ignore her")
 ShowMessageFace("",0,0,2,4)
 ShowMessage("Luka resists her temptation!")
 RunCommonEvent(1999)
 EndEventProcessing()
 0()
IfPlayerPicksChoice(1,"Give in to temptation")
 0()
404()
ShowMessageFace("",0,0,2,5)
ShowMessage("Luka steps into her open shell...")
ShowMessageFace("kai_fc1",0,0,2,6)
ShowMessage("\\n<Shellfish Girl>Fufu, welcome♪\nNow then, I'll show my darling heaven♪")
355("battler_graphic_hide")
PictureDisplay(1,"ev_kai_h1",0,0,0,0,100,100,255,0)
ShowMessageFace("",0,0,2,7)
ShowMessage("The Shellfish Girl clamps her shell down on Luka!\nLuka's body is trapped inside her shell!")
ShowMessageFace("kai_fc1",0,0,2,8)
ShowMessage("\\n<Shellfish Girl>Like this, I'll squeeze out your sperm.\nI'll make your penis feel plenty of comfort...")
ChangeVariable(26,26,3,0,2)
250(bytes(0x04,0x08,0x6f,0x3a,0x0c,0x52,0x50,0x47,0x3a,0x3a,0x53,0x45,0x08,0x3a,0x0a,0x40,0x6e,0x61,0x6d,0x65,0x49,0x22,0x12,0x6d,0x6f,0x6e,0x5f,0x65,0x72,0x6f,0x5f,0x6b,0x6f,0x6b,0x69,0x31,0x06,0x3a,0x06,0x45,0x54,0x3a,0x0b,0x40,0x70,0x69,0x74,0x63,0x68,0x69,0x69,0x3a,0x0c,0x40,0x76,0x6f,0x6c,0x75,0x6d,0x65,0x69,0x69))
311(0,1,1,1,26,true)
ShowMessageFace("",0,0,2,9)
ShowMessage("The Shellfish Girl holds Luka's penis, carefully stroking it!\\D")
ShowMessage("Luka takes \\V[26] damage!")
ChangeVariable(27,27,0,3,3,1,2)
If(1,27,0,0,0)
 JumpToLabel("射精1")
 0()
EndIf()
ShowMessageFace("kai_fc1",0,0,2,10)
ShowMessage("\\n<Shellfish Girl>Ufufu...\nIt got so big inside my hand...")
250(bytes(0x04,0x08,0x6f,0x3a,0x0c,0x52,0x50,0x47,0x3a,0x3a,0x53,0x45,0x08,0x3a,0x0a,0x40,0x6e,0x61,0x6d,0x65,0x49,0x22,0x12,0x6d,0x6f,0x6e,0x5f,0x65,0x72,0x6f,0x5f,0x6b,0x6f,0x6b,0x69,0x31,0x06,0x3a,0x06,0x45,0x54,0x3a,0x0b,0x40,0x70,0x69,0x74,0x63,0x68,0x69,0x69,0x3a,0x0c,0x40,0x76,0x6f,0x6c,0x75,0x6d,0x65,0x69,0x69))
311(0,1,1,1,26,true)
ShowMessageFace("",0,0,2,11)
ShowMessage("The Shellfish Girl handles Luka's penis with both of her palms, and affectionately plays with it!\\D")
ShowMessage("Luka takes \\V[26] damage!")
ChangeVariable(27,27,0,3,3,1,2)
If(1,27,0,0,0)
 JumpToLabel("射精1")
 0()
EndIf()
ShowMessageFace("kai_fc1",0,0,2,12)
ShowMessage("\\n<Shellfish Girl>Squeezing out my darling's sperm with my hands...\nUfufu, I'm getting excited...")
250(bytes(0x04,0x08,0x6f,0x3a,0x0c,0x52,0x50,0x47,0x3a,0x3a,0x53,0x45,0x08,0x3a,0x0a,0x40,0x6e,0x61,0x6d,0x65,0x49,0x22,0x12,0x6d,0x6f,0x6e,0x5f,0x65,0x72,0x6f,0x5f,0x6b,0x6f,0x6b,0x69,0x31,0x06,0x3a,0x06,0x45,0x54,0x3a,0x0b,0x40,0x70,0x69,0x74,0x63,0x68,0x69,0x69,0x3a,0x0c,0x40,0x76,0x6f,0x6c,0x75,0x6d,0x65,0x69,0x69))
311(0,1,1,1,26,true)
ShowMessageFace("",0,0,2,13)
ShowMessage("The Shellfish Girl grips Luka's penis, squeezing it with pressure!\\D")
ShowMessage("Luka takes \\V[26] damage!")
ChangeVariable(27,27,0,3,3,1,2)
If(1,27,0,0,0)
 JumpToLabel("射精1")
 0()
EndIf()
ShowMessageFace("kai_fc1",0,0,2,14)
ShowMessage("\\n<Shellfish Girl>Darling's tip is so cute...♪\nI'll massage you carefully...")
250(bytes(0x04,0x08,0x6f,0x3a,0x0c,0x52,0x50,0x47,0x3a,0x3a,0x53,0x45,0x08,0x3a,0x0a,0x40,0x6e,0x61,0x6d,0x65,0x49,0x22,0x12,0x6d,0x6f,0x6e,0x5f,0x65,0x72,0x6f,0x5f,0x6b,0x6f,0x6b,0x69,0x31,0x06,0x3a,0x06,0x45,0x54,0x3a,0x0b,0x40,0x70,0x69,0x74,0x63,0x68,0x69,0x69,0x3a,0x0c,0x40,0x76,0x6f,0x6c,0x75,0x6d,0x65,0x69,0x69))
311(0,1,1,1,26,true)
ShowMessageFace("",0,0,2,15)
ShowMessage("The Shellfish Girl holds onto the glans, and gently massages it!\\D")
ShowMessage("Luka takes \\V[26] damage!")
ChangeVariable(27,27,0,3,3,1,2)
If(1,27,0,0,0)
 JumpToLabel("射精1")
 0()
EndIf()
ShowMessageFace("kai_fc1",0,0,2,16)
ShowMessage("\\n<Shellfish Girl>Ufufu...is it almost time?\nIn that case, I'll let you ejaculate inside my hands...")
250(bytes(0x04,0x08,0x6f,0x3a,0x0c,0x52,0x50,0x47,0x3a,0x3a,0x53,0x45,0x08,0x3a,0x0a,0x40,0x6e,0x61,0x6d,0x65,0x49,0x22,0x12,0x6d,0x6f,0x6e,0x5f,0x65,0x72,0x6f,0x5f,0x6b,0x6f,0x6b,0x69,0x31,0x06,0x3a,0x06,0x45,0x54,0x3a,0x0b,0x40,0x70,0x69,0x74,0x63,0x68,0x69,0x69,0x3a,0x0c,0x40,0x76,0x6f,0x6c,0x75,0x6d,0x65,0x69,0x69))
311(0,1,1,1,26,true)
ShowMessageFace("",0,0,2,17)
ShowMessage("The Shellfish Girl squeezes Luka's penis, as she skillfully massages it thoroughly! She meticulously plays with it using her soft palms, pushing him towards an ejaculation!\\D")
ShowMessage("Luka takes \\V[26] damage!")
ChangeVariable(27,27,0,3,3,1,2)
If(1,27,0,0,0)
 JumpToLabel("射精1")
 0()
EndIf()
DefineLabel("射精1")
ShowMessageFace("",0,0,2,18)
ShowMessage("\\n<Luka>Ah, I'm coming... Aaaah...")
RunCommonEvent(104)
RunCommonEvent(105)
ShowMessageFace("",0,0,2,19)
ShowMessage("As I'm wrapped in the soft palms of the Shellfish Girl, I come. A stimulation is given to my penis as I'm compeltely squeezed out.")
ShowMessageFace("kai_fc1",0,0,2,20)
ShowMessage("\\n<Shellfish Girl>Darling came inside my hands...")
ShowMessageFace("kai_fc1",0,0,2,21)
ShowMessage("\\n<Shellfish Girl>Did it feel so good you couldn't bear it?\nI'm delighted, ufufu...♪")
RunCommonEvent(2000)
EndEventProcessing()
0()
