// EVENT 5436
Name "Mermaid Knight"

PictureDisplay(5,"80_knight_mermaid_st02",0,0,0,0,100,100,0,0)
PictureMove(5,null,0,0,0,0,100,100,255,0,30,true)
ShowMessageFace("knight_mermaid_fc1",0,0,2,1)
ShowMessage("\\n<Meryl>")
ShowMessage("You want to do lewd things with me...?")
ShowMessageFace("",0,0,2,2)
ShowMessage("\\n<Luka>P-Please...")
ShowMessageFace("knight_mermaid_fc1",0,0,2,3)
ShowMessage("\\n<Meryl>")
ShowMessage("Sheesh, how wretched.")
ShowMessage("Now then, I shall shame you...")
241(bytes(0x04,0x08,0x6f,0x3a,0x0d,0x52,0x50,0x47,0x3a,0x3a,0x42,0x47,0x4d,0x08,0x3a,0x0a,0x40,0x6e,0x61,0x6d,0x65,0x49,0x22,0x09,0x65,0x72,0x6f,0x31,0x06,0x3a,0x06,0x45,0x54,0x3a,0x0c,0x40,0x76,0x6f,0x6c,0x75,0x6d,0x65,0x69,0x69,0x3a,0x0b,0x40,0x70,0x69,0x74,0x63,0x68,0x69,0x69))
245(bytes(0x04,0x08,0x6f,0x3a,0x0d,0x52,0x50,0x47,0x3a,0x3a,0x42,0x47,0x53,0x08,0x3a,0x0a,0x40,0x6e,0x61,0x6d,0x65,0x49,0x22,0x10,0x6d,0x6f,0x6e,0x5f,0x68,0x76,0x6f,0x69,0x63,0x65,0x31,0x06,0x3a,0x06,0x45,0x54,0x3a,0x0c,0x40,0x76,0x6f,0x6c,0x75,0x6d,0x65,0x69,0x55,0x3a,0x0b,0x40,0x70,0x69,0x74,0x63,0x68,0x69,0x69))
PictureDisplay(5,"ev_knight_mermaid_ha01",0,0,0,0,100,100,0,0)
PictureMove(5,null,0,0,0,0,100,100,255,0,30,true)
ShowMessageFace("",0,0,2,4)
ShowMessage("Meryl removes my clothes, and bends over me.")
ShowMessage("She gazes at my exposed penis.")
ShowMessageFace("knight_mermaid_fc1",1,0,2,5)
ShowMessage("\\n<Meryl>")
ShowMessage("I shall toy with this penis now.")
ShowMessage("Fufu... How should I do it?")
ShowMessageFace("",0,0,2,6)
ShowMessage("\\n<Luka>D-don't...! Not that...!")
ShowMessageFace("knight_mermaid_fc1",1,0,2,7)
ShowMessage("\\n<Meryl>")
ShowMessage("...If you struggle, I'll cut it off.")
ShowMessageFace("",0,0,2,8)
ShowMessage("\\n<Luka>Hiiiii!!")
ShowMessageFace("",0,0,2,9)
ShowMessage("If she's going that far, I can't resist.")
ShowMessage("My shock at her threat causes my penis to wilt.")
ShowMessageFace("knight_mermaid_fc1",1,0,2,10)
ShowMessage("\\n<Meryl>")
ShowMessage("What, it grew smaller... Are you scared?")
ShowMessage("Then I must make it big again.")
ShowMessageFace("knight_mermaid_fc1",1,0,2,11)
ShowMessage("\\n<Meryl>")
ShowMessage("First I'll cover it with some saliva...")
ShowMessage("Nnnn... *Lick*")
PictureDisplay(5,"ev_knight_mermaid_ha02",0,0,0,0,100,100,255,0)
ShowMessageFace("",0,0,2,12)
ShowMessage("Meryl opens her mouth, drooling.")
ShowMessage("Her saliva drips down onto my penis.")
ShowMessageFace("knight_mermaid_fc1",0,0,2,13)
ShowMessage("\\n<Meryl>")
ShowMessage("Nnnn...")
ShowMessageFace("",0,0,2,14)
ShowMessage("\\n<Luka>Ahhh...")
PictureDisplay(5,"ev_knight_mermaid_ha03",0,0,0,0,100,100,255,0)
ShowMessageFace("",0,0,2,15)
ShowMessage("My penis is covered in her warm saliva.")
ShowMessage("The distinctive, wet feeling runs down my shaft from the tip.")
ShowMessageFace("knight_mermaid_fc1",0,0,2,16)
ShowMessage("\\n<Meryl>")
ShowMessage("*Drool*")
ShowMessageFace("",0,0,2,17)
ShowMessage("\\n<Luka>U-Urhg...")
ShowMessageFace("",0,0,2,18)
ShowMessage("The feeling of her spit running down my penis...")
ShowMessage("Despite feeling dirtied and humiliated, I don't dare resist.")
ShowMessageFace("knight_mermaid_fc1",0,0,2,19)
ShowMessage("\\n<Meryl>")
ShowMessage("Does it excite you, to have your penis spit on?")
ShowMessage("Then perhaps I'll lick it... Just a little.")
PictureDisplay(5,"ev_knight_mermaid_ha05",0,0,0,0,100,100,255,0)
ShowMessageFace("knight_mermaid_fc1",1,0,2,20)
ShowMessage("\\n<Meryl>")
ShowMessage("Nnnn...")
ShowMessageFace("",0,0,2,21)
ShowMessage("Meryl's small tongue reaches out, and brushes against my tip.")
ShowMessage("It's a gentle, slow lick.")
ShowMessageFace("",0,0,2,22)
ShowMessage("\\n<Luka>Hauu...")
ShowMessageFace("",0,0,2,23)
ShowMessage("I struggle in that light ticklish lick.")
ShowMessage("Reacting to that ticklish feeling, I feel myself getting hard again.")
PictureDisplay(5,"ev_knight_mermaid_ha06",0,0,0,0,100,100,255,0)
ShowMessageFace("knight_mermaid_fc1",1,0,2,24)
ShowMessage("\\n<Meryl>")
ShowMessage("Ahaha, you want to be licked more?")
ShowMessage("What shall I do~?")
ShowMessageFace("",0,0,2,25)
ShowMessage("Meryl pulls back, grinning.")
ShowMessage("Then, turning her eyes upward and watching me...")
PictureDisplay(5,"ev_knight_mermaid_ha05",0,0,0,0,100,100,255,0)
ShowMessageFace("knight_mermaid_fc1",1,0,2,26)
ShowMessage("\\n<Meryl>")
ShowMessage("Nnn... *Lick*")
ShowMessageFace("",0,0,2,27)
ShowMessage("Once again her tongue reaches out and licks my tip.")
ShowMessage("A frustratingly light, ticklish lick...")
ShowMessageFace("",0,0,2,28)
ShowMessage("\\n<Luka>This is... Ahhh...")
ShowMessageFace("",0,0,2,29)
ShowMessage("Her tongue slowly licks around the neck of my penis.")
ShowMessage("As if tasting my whole tip, she trails slowly around my glans...")
PictureDisplay(5,"ev_knight_mermaid_ha08",0,0,0,0,100,100,255,0)
ShowMessageFace("",0,0,2,30)
ShowMessage("\\n<Luka>Auuu...")
ShowMessageFace("",0,0,2,31)
ShowMessage("Until, unable to endure it, my penis is fully erect.")
ShowMessage("Covered in her saliva it's as large and stiff as possible.")
ShowMessageFace("knight_mermaid_fc1",0,0,2,32)
ShowMessage("\\n<Meryl>")
ShowMessage("Aha, it grew...♪")
ShowMessage("Even though I was just playing with it, you got like this...")
ShowMessageFace("",0,0,2,33)
ShowMessage("Her eyes narrow as she gazes at my penis.")
PictureDisplay(5,"ev_knight_mermaid_ha09",0,0,0,0,100,100,255,0)
ShowMessageFace("knight_mermaid_fc1",0,0,2,34)
ShowMessage("\\n<Meryl>")
ShowMessage("Nnn... *Suck*")
ShowMessageFace("",0,0,2,35)
ShowMessage("She brings her lips against my glans.")
ShowMessage("A gentle feeling of irritation as she touches a man's most sensitive place.")
ShowMessageFace("",0,0,2,36)
ShowMessage("\\n<Luka>Ah... Hauuu...")
ShowMessageFace("",0,0,2,37)
ShowMessage("My hips shake at the feel of her soft lips.")
ShowMessage("Without releasing me, she softly sucks on my tip.")
PictureDisplay(5,"ev_knight_mermaid_ha10",0,0,0,0,100,100,255,0)
ShowMessageFace("knight_mermaid_fc1",0,0,2,38)
ShowMessage("\\n<Meryl>")
ShowMessage("Nnn... *Suck*")
ShowMessage("Fufu... Are you enjoying this...?")
ShowMessageFace("",0,0,2,39)
ShowMessage("While sucking on my tip, she looks up at me.")
ShowMessage("Gently sucking on me, she asks how it feels.")
ShowMessageFace("",0,0,2,40)
ShowMessage("\\n<Luka>I-it feels good... Hauu...")
ShowMessageFace("",0,0,2,41)
ShowMessage("While watching my reactions, she sucks on my tip.")
ShowMessage("Inside her mouth, her tongue gently rubs against my hole.")
ShowMessageFace("",0,0,2,42)
ShowMessage("My body shakes as the ticklish sensation comes over me.")
ShowMessage("The sweet feeling of her slow blowjob sends a shiver up my spine.")
ShowMessageFace("knight_mermaid_fc1",0,0,2,43)
ShowMessage("\\n<Meryl>")
ShowMessage("Nnn... *Lick* *Suck*")
ShowMessageFace("",0,0,2,44)
ShowMessage("Her small mouth, sucking on my glans...")
ShowMessage("And inside, her tongue licking my urethral opening...")
ShowMessageFace("",0,0,2,45)
ShowMessage("I tremble, completely at her mercy.")
ShowMessage("As the pleasure fills me, my mind starts to go blank.")
ShowMessageFace("knight_mermaid_fc1",0,0,2,46)
ShowMessage("\\n<Meryl>")
ShowMessage("*Lick* *Lick* *Lick* *Suck*")
ShowMessageFace("",0,0,2,47)
ShowMessage("\\n<Luka>Ah... Hauuu...")
ShowMessageFace("",0,0,2,48)
ShowMessage("Going weak, I surrender to her sweet mouth.")
ShowMessage("The tingling feeling reaches my waist as I give in.")
ShowMessageFace("",0,0,2,49)
ShowMessage("\\n<Luka>N-no... Ahhh!!")
RunCommonEvent(104)
PictureDisplay(5,"ev_knight_mermaid_ha11",0,0,0,0,100,100,255,0)
RunCommonEvent(105)
ShowMessageFace("",0,0,2,50)
ShowMessage("My penis pulses in her mouth as I climax.")
ShowMessage("A huge amount of semen bursts out into her.")
ShowMessageFace("knight_mermaid_fc1",1,0,2,51)
ShowMessage("\\n<Meryl>")
ShowMessage("Hya!?")
ShowMessageFace("",0,0,2,52)
ShowMessage("Her eyes go wide in surprise as I come inside her mouth.")
ShowMessage("But she doesn't pull back, and instead tries to catch all of my semen.")
ShowMessageFace("",0,0,2,53)
ShowMessage("The semen she can't swallow in time spreads around her lips.")
ShowMessage("But all during my orgasm, she keeps sucking and swallowing it...")
ShowMessageFace("",0,0,2,54)
ShowMessage("\\n<Luka>Haauu...")
ShowMessageFace("",0,0,2,55)
ShowMessage("While tasting her soft lips, I'm able to ejaculate with everything I had.")
PictureDisplay(5,"ev_knight_mermaid_ha12",0,0,0,0,100,100,255,0)
ShowMessageFace("knight_mermaid_fc1",1,0,2,56)
ShowMessage("\\n<Meryl>")
ShowMessage("Geez... Why did you come without saying anything...")
ShowMessage("You're the worst...")
ShowMessageFace("",0,0,2,57)
ShowMessage("Looking sullen, Meryl continues to suck on my tip.")
ShowMessage("Lapping up all the semen I shot, she gulps it down.")
ShowMessageFace("knight_mermaid_fc1",1,0,2,58)
ShowMessage("\\n<Meryl>")
ShowMessage("Punishment is needed for such a bad penis.")
ShowMessage("I'll suck it as hard as I can.")
ShowMessageFace("",0,0,2,59)
ShowMessage("\\n<Luka>N-no way...")
PictureDisplay(5,"ev_knight_mermaid_ha15",0,0,0,0,100,100,255,0)
ShowMessageFace("knight_mermaid_fc1",1,0,2,60)
ShowMessage("\\n<Meryl>")
ShowMessage("*Suck* *Suuuuuck*")
ShowMessageFace("",0,0,2,61)
ShowMessage("Bending forward, Meryl sucks in my penis as deep as she can.")
ShowMessage("Like that, she starts to violently suck.")
ShowMessageFace("",0,0,2,62)
ShowMessage("My penis is rubbing against her cheeks, and the back of her throat.")
ShowMessage("At the same time, her wet tongue is rubbing and coiling around my penis.")
ShowMessageFace("",0,0,2,63)
ShowMessage("If she sucks on me like this...")
ShowMessage("I'll go mad with pleasure in no time at all.")
ShowMessageFace("",0,0,2,64)
ShowMessage("\\n<Luka>Hauu... A-Ahhh...")
PictureDisplay(5,"ev_knight_mermaid_ha14",0,0,0,0,100,100,255,0)
ShowMessageFace("knight_mermaid_fc1",1,0,2,65)
ShowMessage("\\n<Meryl>")
ShowMessage("Hora, hurry up and come.")
ShowMessage("I'll suck it out like this!")
ShowMessageFace("knight_mermaid_fc1",1,0,2,66)
ShowMessage("\\n<Meryl>")
ShowMessage("*Suck* *Suuuuuck*")
ShowMessageFace("",0,0,2,67)
ShowMessage("\\n<Luka>Hyaaaa~!!")
ShowMessageFace("",0,0,2,68)
ShowMessage("My hips tremble under her intense suction.")
ShowMessage("My body trembles in sweet ecstasy as I surrender myself to her.")
RunCommonEvent(104)
PictureDisplay(5,"ev_knight_mermaid_ha16",0,0,0,0,100,100,255,0)
RunCommonEvent(105)
ShowMessageFace("",0,0,2,69)
ShowMessage("\\n<Luka>Ahhhh...")
ShowMessageFace("",0,0,2,70)
ShowMessage("My body goes weak as I come inside her mouth.")
ShowMessage("Meryl's mouth is full of my semen, overflowing...")
PictureDisplay(5,"ev_knight_mermaid_ha17",0,0,0,0,100,100,255,0)
ShowMessageFace("knight_mermaid_fc1",1,0,2,71)
ShowMessage("\\n<Meryl>")
ShowMessage("Nnnn... That was a lot.")
ShowMessage("Truly an honorless penis...")
ShowMessageFace("",0,0,2,72)
ShowMessage("\\n<Luka>Haauu...")
ShowMessageFace("",0,0,2,73)
ShowMessage("Like that, she keeps sucking on me.")
ShowMessage("Completely exhausted, I'm left too weak to move...")
221()
PictureClear(5)
PictureClear(6)
246(2)
ShowMessageFace("",0,0,2,74)
ShowMessage("......")
RunCommonEvent(3998)
0()
