﻿// EVENT 2061
Name "Seduction: Sea Anemone Girl"

If(0,25,1)
 EndEventProcessing()
 0()
EndIf()
355("$game_troop.lose_event_id = 3061")
ChangeVariable(26,26,0,3,3,1,4)
ChangeVariable(26,26,4,0,10)
ShowMessageFace("iso_fc1",0,0,2,1)
ShowMessage("\\n<Sea Anemone Girl>As things are now, I'm at a disadvantage...\nI'll eat you here right away...!")
250(bytes(0x04,0x08,0x6f,0x3a,0x0c,0x52,0x50,0x47,0x3a,0x3a,0x53,0x45,0x08,0x3a,0x0a,0x40,0x6e,0x61,0x6d,0x65,0x49,0x22,0x16,0x6d,0x6f,0x6e,0x5f,0x65,0x72,0x6f,0x5f,0x6d,0x61,0x6b,0x69,0x74,0x75,0x6b,0x69,0x33,0x06,0x3a,0x06,0x45,0x54,0x3a,0x0b,0x40,0x70,0x69,0x74,0x63,0x68,0x69,0x69,0x3a,0x0c,0x40,0x76,0x6f,0x6c,0x75,0x6d,0x65,0x69,0x69))
ShowMessageFace("",0,0,2,2)
ShowMessage("The Sea Anemone Girl's tentacles coil around Luka's body! Like that, they gradually pull him towards her mouth...!\nLuka has been bound!")
ShowMessageFace("",0,0,2,3)
ShowMessage("\\n<Luka>Ugh...Guh...!")
ShowMessageFace("",0,0,2,4)
ShowMessage("In front of me, the mouth of the Sea Anemone Girl drew closer.")
ShowMessageFace("",0,0,2,5)
ShowMessage("Her gaping mouth opens, revealing a cavity of lewd, pink-colored flesh. The inner walls squirm and swell invitingly.")
ShowMessageFace("",0,0,2,6)
ShowMessage("An expected desire to be wrapped inside there rises up inside me. To have my semen squeezed as my lower body is held in her mouth...")
ChangeSwitch(98,98,0)
ChangeSwitch(96,96,0)
ShowChoices(strings("Struggle","Give in to temptation"),1)
IfPlayerPicksChoice(0,"Struggle")
 ShowMessageFace("",0,0,2,7)
 ShowMessage("Luka struggles violently, and escapes from the Sea Anemone Girl's tentacles!")
 RunCommonEvent(1999)
 EndEventProcessing()
 0()
IfPlayerPicksChoice(1,"Give in to temptation")
 0()
404()
ShowMessageFace("iso_fc1",1,0,2,8)
ShowMessage("\\n<Sea Anemone Girl>Fufu, you've resigned yourself...\nIn that case, experience the pleasure of being eaten...")
ChangeVariable(26,26,3,0,2)
250(bytes(0x04,0x08,0x6f,0x3a,0x0c,0x52,0x50,0x47,0x3a,0x3a,0x53,0x45,0x08,0x3a,0x0a,0x40,0x6e,0x61,0x6d,0x65,0x49,0x22,0x12,0x6d,0x6f,0x6e,0x5f,0x65,0x72,0x6f,0x5f,0x6e,0x61,0x6d,0x65,0x31,0x06,0x3a,0x06,0x45,0x54,0x3a,0x0b,0x40,0x70,0x69,0x74,0x63,0x68,0x69,0x69,0x3a,0x0c,0x40,0x76,0x6f,0x6c,0x75,0x6d,0x65,0x69,0x69))
355("battler_graphic_hide")
PictureDisplay(5,"ev_iso_h1",0,0,0,0,100,100,255,0)
PictureDisplay(6,"ev_iso_ct01",0,0,0,0,100,100,255,0)
311(0,1,1,1,26,true)
ShowMessageFace("",0,0,2,9)
ShowMessage("The lower half of Luka's body is pulled into her mouth!\nA soft, swelling feeling wraps around his lower body!\\D")
ShowMessage("Luka takes \\V[26] damage!")
ChangeVariable(27,27,0,3,3,1,2)
If(1,27,0,0,0)
 JumpToLabel("射精1")
 0()
EndIf()
ShowMessageFace("",0,0,2,10)
ShowMessage("\\n<Luka>Aaaaaaa...!")
ShowMessageFace("",0,0,2,11)
ShowMessage("It is very soft inside as her inner walls shrink around me. Tightly enveloping my lower body, it gives me a strange wriggling sensation.")
ShowMessageFace("iso_fc1",1,0,2,12)
ShowMessage("\\n<Sea Anemone Girl>I'll give you plenty of comfort like this...")
250(bytes(0x04,0x08,0x6f,0x3a,0x0c,0x52,0x50,0x47,0x3a,0x3a,0x53,0x45,0x08,0x3a,0x0a,0x40,0x6e,0x61,0x6d,0x65,0x49,0x22,0x12,0x6d,0x6f,0x6e,0x5f,0x65,0x72,0x6f,0x5f,0x6e,0x61,0x6d,0x65,0x32,0x06,0x3a,0x06,0x45,0x54,0x3a,0x0b,0x40,0x70,0x69,0x74,0x63,0x68,0x69,0x69,0x3a,0x0c,0x40,0x76,0x6f,0x6c,0x75,0x6d,0x65,0x69,0x69))
311(0,1,1,1,26,true)
ShowMessageFace("",0,0,2,13)
ShowMessage("The inside of her mouth wriggles, giving a strange pleasure!\\D")
ShowMessage("Luka takes \\V[26] damage!")
ChangeVariable(27,27,0,3,3,1,2)
If(1,27,0,0,0)
 JumpToLabel("射精1")
 0()
EndIf()
ShowMessageFace("iso_fc1",1,0,2,14)
ShowMessage("\\n<Sea Anemone Girl>Isn't it heavenly? Fufufu...\nJust this once, I'll give it to you like this...")
250(bytes(0x04,0x08,0x6f,0x3a,0x0c,0x52,0x50,0x47,0x3a,0x3a,0x53,0x45,0x08,0x3a,0x0a,0x40,0x6e,0x61,0x6d,0x65,0x49,0x22,0x12,0x6d,0x6f,0x6e,0x5f,0x65,0x72,0x6f,0x5f,0x6e,0x61,0x6d,0x65,0x32,0x06,0x3a,0x06,0x45,0x54,0x3a,0x0b,0x40,0x70,0x69,0x74,0x63,0x68,0x69,0x69,0x3a,0x0c,0x40,0x76,0x6f,0x6c,0x75,0x6d,0x65,0x69,0x69))
311(0,1,1,1,26,true)
ShowMessageFace("",0,0,2,15)
ShowMessage("The inside of her mouth tightens, squeezing Luka's lower body! Her soft flesh walls squirm as if sucking on him!\\D")
ShowMessage("Luka takes \\V[26] damage!")
ChangeVariable(27,27,0,3,3,1,2)
If(1,27,0,0,0)
 JumpToLabel("射精1")
 0()
EndIf()
ShowMessageFace("iso_fc1",1,0,2,16)
ShowMessage("\\n<Sea Anemone Girl>I wonder if your penis can't resist when I do this? Hoora, savor the happiness of a man...")
250(bytes(0x04,0x08,0x6f,0x3a,0x0c,0x52,0x50,0x47,0x3a,0x3a,0x53,0x45,0x08,0x3a,0x0a,0x40,0x6e,0x61,0x6d,0x65,0x49,0x22,0x12,0x6d,0x6f,0x6e,0x5f,0x65,0x72,0x6f,0x5f,0x6e,0x61,0x6d,0x65,0x32,0x06,0x3a,0x06,0x45,0x54,0x3a,0x0b,0x40,0x70,0x69,0x74,0x63,0x68,0x69,0x69,0x3a,0x0c,0x40,0x76,0x6f,0x6c,0x75,0x6d,0x65,0x69,0x69))
311(0,1,1,1,26,true)
ShowMessageFace("",0,0,2,17)
ShowMessage("The strange swelling inside her mouth gives a comfortable pleasure to Luka's penis!\nHer flesh walls thoroughly massage his lower body!\\D")
ShowMessage("Luka takes \\V[26] damage!")
ChangeVariable(27,27,0,3,3,1,2)
If(1,27,0,0,0)
 JumpToLabel("射精1")
 0()
EndIf()
ShowMessageFace("iso_fc1",1,0,2,18)
ShowMessage("\\n<Sea Anemone Girl>Hora, can you take it any more?\nI'll finish you quickly now...")
250(bytes(0x04,0x08,0x6f,0x3a,0x0c,0x52,0x50,0x47,0x3a,0x3a,0x53,0x45,0x08,0x3a,0x0a,0x40,0x6e,0x61,0x6d,0x65,0x49,0x22,0x12,0x6d,0x6f,0x6e,0x5f,0x65,0x72,0x6f,0x5f,0x6e,0x61,0x6d,0x65,0x32,0x06,0x3a,0x06,0x45,0x54,0x3a,0x0b,0x40,0x70,0x69,0x74,0x63,0x68,0x69,0x69,0x3a,0x0c,0x40,0x76,0x6f,0x6c,0x75,0x6d,0x65,0x69,0x69))
311(0,1,1,1,26,true)
ShowMessageFace("",0,0,2,19)
ShowMessage("The inside of her mouth loosens and tightens, her rubbing concentrated on Luka's penis!\nHer slimy inner walls wrap around, giving melty pleasure!\\D")
ShowMessage("Luka takes \\V[26] damage!")
ChangeVariable(27,27,0,3,3,1,2)
If(1,27,0,0,0)
 JumpToLabel("射精1")
 0()
EndIf()
DefineLabel("射精1")
ShowMessageFace("",0,0,2,20)
ShowMessage("\\n<Luka>Faaaa... So good...")
RunCommonEvent(104)
PictureDisplay(5,"ev_iso_h2",0,0,0,0,100,100,255,0)
PictureDisplay(6,"ev_iso_ct02",0,0,0,0,100,100,255,0)
RunCommonEvent(105)
ShowMessageFace("",0,0,2,21)
ShowMessage("Within her lewd wriggling mouth, my semen is forcibly squeezed out. I could not bear the overwhelming pleasure.")
ShowMessageFace("iso_fc1",1,0,2,22)
ShowMessage("\\n<Sea Anemone Girl>My mouth was amazing, wasn't it...?\nI'll devour you as I squeeze more...")
RunCommonEvent(2000)
EndEventProcessing()
0()
