// EVENT 3349
Name "Black Alice 2"

PictureDisplay(5,"80_alice8th2_st02",0,0,0,0,100,100,0,0)
PictureMove(5,null,0,0,0,0,100,100,255,0,30,true)
241(bytes(0x04,0x08,0x6f,0x3a,0x0d,0x52,0x50,0x47,0x3a,0x3a,0x42,0x47,0x4d,0x08,0x3a,0x0a,0x40,0x6e,0x61,0x6d,0x65,0x49,0x22,0x09,0x65,0x72,0x6f,0x31,0x06,0x3a,0x06,0x45,0x54,0x3a,0x0c,0x40,0x76,0x6f,0x6c,0x75,0x6d,0x65,0x69,0x69,0x3a,0x0b,0x40,0x70,0x69,0x74,0x63,0x68,0x69,0x69))
ShowMessageFace("",0,0,2,1)
ShowMessage("\\n<Luka>Ahh...")
PictureDisplay(5,"80_alice8th2_st11",0,0,0,0,100,100,255,0)
ShowMessageFace("",0,0,2,2)
ShowMessage("Tentacles coil around my body, and pull me closer to her.")
ShowMessage("Black Alice pulls up her skirt, and shows herself off...")
ShowMessageFace("alice8th_fc1",5,0,2,3)
ShowMessage("\\n<Black Alice>Now, let's mate.")
ShowMessage("We'll show each other our love for a good, long time...")
ShowMessageFace("",0,0,2,4)
ShowMessage("\\n<Luka>H...Hyaa!")
ShowMessageFace("",0,0,2,5)
ShowMessage("My body is slowly drawn towards that open hole...")
250(bytes(0x04,0x08,0x6f,0x3a,0x0c,0x52,0x50,0x47,0x3a,0x3a,0x53,0x45,0x08,0x3a,0x0a,0x40,0x6e,0x61,0x6d,0x65,0x49,0x22,0x16,0x6d,0x6f,0x6e,0x5f,0x65,0x72,0x6f,0x5f,0x6d,0x61,0x6b,0x69,0x74,0x75,0x6b,0x69,0x33,0x06,0x3a,0x06,0x45,0x54,0x3a,0x0b,0x40,0x70,0x69,0x74,0x63,0x68,0x69,0x69,0x3a,0x0c,0x40,0x76,0x6f,0x6c,0x75,0x6d,0x65,0x69,0x69))
245(bytes(0x04,0x08,0x6f,0x3a,0x0d,0x52,0x50,0x47,0x3a,0x3a,0x42,0x47,0x53,0x08,0x3a,0x0a,0x40,0x6e,0x61,0x6d,0x65,0x49,0x22,0x1e,0x6d,0x6f,0x6e,0x5f,0x68,0x73,0x65,0x61,0x6e,0x31,0x32,0x5f,0x69,0x6e,0x6e,0x65,0x72,0x77,0x6f,0x72,0x6b,0x73,0x5f,0x63,0x32,0x06,0x3a,0x06,0x45,0x54,0x3a,0x0c,0x40,0x76,0x6f,0x6c,0x75,0x6d,0x65,0x69,0x55,0x3a,0x0b,0x40,0x70,0x69,0x74,0x63,0x68,0x69,0x69))
PictureDisplay(5,"ev_alice8th2_h1",0,0,0,0,100,100,255,0)
ShowMessageFace("",0,0,2,6)
ShowMessage("My body is slowly drawn towards that open hole... And forced into her vagina!")
ShowMessage("My lower body is sucked inside, all the way up to my shoulders!")
ShowMessageFace("",0,0,2,7)
ShowMessage("\\n<Luka>Ahhh!")
ShowMessageFace("",0,0,2,8)
ShowMessage("Something that feels like tentacles reaches up from inside her body, and wraps around my own.")
ShowMessage("At the same time, her vaginal flesh starts to squeeze down on my body even tighter.")
ShowMessageFace("",0,0,2,9)
ShowMessage("Is this really her vagina...?")
ShowMessage("Or is it just a mouth she uses to feed with...?")
ShowMessageFace("",0,0,2,10)
ShowMessage("\\n<Luka>H...Help me...Ah...")
ShowMessageFace("alice8th_fc1",5,0,2,11)
ShowMessage("\\n<Black Alice>Oh my, my... Even though we're mating, you're trying to escape?")
ShowMessage("What a rude man... Should I just crush you, then?")
ShowMessageFace("",0,0,2,12)
ShowMessage("Black Alice's eyes narrow as she giggles.")
ShowMessageFace("alice8th_fc1",5,0,2,13)
ShowMessage("\\n<Black Alice>Or... Will you just give in to the pleasure?")
ShowMessageFace("",0,0,2,14)
ShowMessage("\\n<Luka>Ah...Hyaa!")
ShowMessageFace("",0,0,2,15)
ShowMessage("Inside, her flesh starts to press hard against my penis.")
ShowMessage("Despite the tightness of the flesh around me, she's putting extra focus on my weakest point...")
ShowMessageFace("",0,0,2,16)
ShowMessage("Even though this mouth is big enough to swallow a human, she's still able to stimulate me like this...")
ShowMessage("My body shakes in surprise at the sudden intense stimulation.")
ShowMessageFace("",0,0,2,17)
ShowMessage("\\n<Luka>Ahh...I...It feels good...")
ShowMessageFace("alice8th_fc1",5,0,2,18)
ShowMessage("\\n<Black Alice>Hehe... Well? It's good, isn't it?")
ShowMessage("I can make your little penis feel good, just like this...")
ShowMessageFace("alice8th_fc1",5,0,2,19)
ShowMessage("\\n<Black Alice>Please, try to endure as long as possible...")
ShowMessage("Because I want to enjoy this for a long time...")
ShowMessageFace("",0,0,2,20)
ShowMessage("\\n<Luka>It's...moving inside ...Ah...Amazing...")
ShowMessageFace("",0,0,2,21)
ShowMessage("The flesh lets my penis sink in, rubbing and vibrating as it does.")
ShowMessageFace("",0,0,2,22)
ShowMessage("I can feel the little bumps and projections rubbing against my penis, from root to tip.")
ShowMessageFace("",0,0,2,23)
ShowMessage("\\n<Luka>Haa...It feels so good...")
ShowMessage("You're going to make me come...")
ShowMessageFace("alice8th_fc1",5,0,2,24)
ShowMessage("\\n<Black Alice>...Oh my, already?")
ShowMessage("I didn't think a little toying would make you come that fast.")
ShowMessageFace("alice8th_fc1",5,0,2,25)
ShowMessage("\\n<Black Alice>So you're even more pitiful than you look...")
ShowMessage("I can't enjoy it like this.")
ShowMessageFace("",0,0,2,26)
ShowMessage("Black Alice's ruthless gaze pierces into me as she giggles.")
ShowMessageFace("alice8th_fc1",5,0,2,27)
ShowMessage("\\n<Black Alice>If you can't amuse me, then you'll need to please me in some other way.")
ShowMessage("Perhaps I'll just swallow you whole, and enjoy your taste...")
ShowMessageFace("",0,0,2,28)
ShowMessage("\\n<Luka>Hya... N...no...")
ShowMessageFace("",0,0,2,29)
ShowMessage("She isn't joking...")
ShowMessage("If I come, she's going to swallow me!")
ShowMessageFace("alice8th_fc1",5,0,2,30)
ShowMessage("\\n<Black Alice>If you don't want that, then you better amuse me.")
ShowMessage("Your life will continue if you please me...")
ShowMessageFace("",0,0,2,31)
ShowMessage("\\n<Luka>Urhg...")
ShowMessageFace("",0,0,2,32)
ShowMessage("Driven by fear, I try to push the stimulation out of my mind.")
ShowMessage("But her flesh feels so good... I don't think I can do this.")
ShowMessageFace("",0,0,2,33)
ShowMessage("The feel of her folds as she rubs against my penis...")
ShowMessageFace("",0,0,2,34)
ShowMessage("And the squirming, vibrating wet walls against me...")
ShowMessage("There's no way I can endure.")
ShowMessageFace("",0,0,2,35)
ShowMessage("\\n<Luka>No...I can't take this...")
ShowMessageFace("",0,0,2,36)
ShowMessage("It's as if my body is melting in pleasure...")
ShowMessage("With the digestive juices, that may not be too far from the truth, too.")
ShowMessageFace("",0,0,2,37)
ShowMessage("My male body is screaming with desire to release.")
ShowMessage("Losing my reason, I can't hold it back any longer.")
ShowMessageFace("",0,0,2,38)
ShowMessage("\\n<Luka>Ahh...No... Even though I can't come...!")
ShowMessageFace("",0,0,2,39)
ShowMessage("Finally, my penis starts to pulse in pleasure...")
RunCommonEvent(104)
PictureDisplay(5,"ev_alice8th2_h2",0,0,0,0,100,100,255,0)
RunCommonEvent(105)
ShowMessageFace("",0,0,2,40)
ShowMessage("\\n<Luka>Haa...")
ShowMessageFace("",0,0,2,41)
ShowMessage("My whole body melts with ecstasy, as I come inside her mouth.")
ShowMessageFace("",0,0,2,42)
ShowMessage("Black Alice watches me as I come, her ruthless gaze not moving until I'm finished.")
ShowMessageFace("alice8th_fc1",5,0,2,43)
ShowMessage("\\n<Black Alice>...Oh my, my... Too bad.")
ShowMessage("You decided to give up your life.")
ShowMessageFace("",0,0,2,44)
ShowMessage("\\n<Luka>Hyaa... S...Stop... No!")
245(bytes(0x04,0x08,0x6f,0x3a,0x0d,0x52,0x50,0x47,0x3a,0x3a,0x42,0x47,0x53,0x08,0x3a,0x0a,0x40,0x6e,0x61,0x6d,0x65,0x49,0x22,0x1e,0x6d,0x6f,0x6e,0x5f,0x68,0x73,0x65,0x61,0x6e,0x31,0x33,0x5f,0x69,0x6e,0x6e,0x65,0x72,0x77,0x6f,0x72,0x6b,0x73,0x5f,0x63,0x33,0x06,0x3a,0x06,0x45,0x54,0x3a,0x0c,0x40,0x76,0x6f,0x6c,0x75,0x6d,0x65,0x69,0x55,0x3a,0x0b,0x40,0x70,0x69,0x74,0x63,0x68,0x69,0x69))
ShowMessageFace("",0,0,2,45)
ShowMessage("As soon as my orgasm is over, Black Alice puts her threat into action.")
ShowMessage("A tentacle grabs hold of me, and pulls me inside her mouth!")
PictureDisplay(5,"ev_alice8th2_h3",0,0,0,0,100,100,255,0)
ShowMessageFace("",0,0,2,46)
ShowMessage("In only a second, I'm sucked in up to past my shoulders, my entire lower body squeezed by her flesh.")
ShowMessageFace("alice8th_fc1",5,0,2,47)
ShowMessage("\\n<Black Alice>Hehehe... I'll digest you alive as I squeeze you.")
ShowMessageFace("alice8th_fc1",5,0,2,48)
ShowMessage("\\n<Black Alice>Mating with you wasn't amusing at all.")
ShowMessage("So at least, delight me with your screams...")
ShowMessageFace("",0,0,2,49)
ShowMessage("\\n<Luka>Ah...Ahhh!!!")
ShowMessageFace("",0,0,2,50)
ShowMessage("My body is completely wrapped up in her flesh...")
ShowMessage("The pulling motion is clearly a digestive one.")
ShowMessageFace("",0,0,2,51)
ShowMessage("She's going to digest me alive...")
ShowMessage("The horror of that realization causes me to scream in fear.")
ShowMessageFace("alice8th_fc1",5,0,2,52)
ShowMessage("\\n<Black Alice>Hehe, that's a nice scream...")
ShowMessageFace("alice8th_fc1",5,0,2,53)
ShowMessage("\\n<Black Alice>But it's no different from any other man's scream.")
ShowMessage("You can't satisfy me with just that...")
ShowMessageFace("",0,0,2,54)
ShowMessage("\\n<Luka>Ahh...Stop...Help...")
PictureDisplay(5,"ev_alice8th2_h4",0,0,0,0,100,100,255,0)
ShowMessageFace("",0,0,2,55)
ShowMessage("Sucked deeper inside, now only my head is outside of her mouth.")
ShowMessageFace("",0,0,2,56)
ShowMessage("I can hear the wet, slurping noises as her digestive juices already start to dissolve away my body.")
ShowMessageFace("",0,0,2,57)
ShowMessage("\\n<Luka>Hyaa! Ahhh!")
ShowMessageFace("",0,0,2,58)
ShowMessage("The fear of being eaten alive...")
ShowMessage("And the pleasure being forced into me from that action.")
ShowMessageFace("",0,0,2,59)
ShowMessage("I scream and moan as the two emotions mix inside me, all while Black Alice watches with amusement.")
ShowMessageFace("",0,0,2,60)
ShowMessage("\\n<Luka>Ahh...Hyaa!")
ShowMessageFace("",0,0,2,61)
ShowMessage("But over time, the fear gradually fades as it's replaced by pure pleasure.")
ShowMessageFace("",0,0,2,62)
ShowMessage("In the end, my male desire for pleasure won out over my fear of being digested...")
ShowMessageFace("",0,0,2,63)
ShowMessage("\\n<Luka>Haa...Ah...")
ShowMessageFace("alice8th_fc1",5,0,2,64)
ShowMessage("\\n<Black Alice>Oh my, my... You aren't even screaming anymore.")
ShowMessage("Well then... Goodbye.")
ShowMessageFace("",0,0,2,65)
ShowMessage("\\n<Luka>Ah...")
PictureDisplay(5,"ev_alice8th2_h5",0,0,0,0,100,100,255,0)
ShowMessageFace("",0,0,2,66)
ShowMessage("And...")
ShowMessage("I'm completely swallowed, at last.")
ShowMessageFace("",0,0,2,67)
ShowMessage("\\n<Luka>Ahh...")
ShowMessageFace("",0,0,2,68)
ShowMessage("Her tentacles and stomach lining press against my body from every direction, as I'm immersed in digestive juices.")
ShowMessageFace("",0,0,2,69)
ShowMessage("The squirming walls push and press against me, as she works to digest me away...")
ShowMessageFace("",0,0,2,70)
ShowMessage("\\n<Luka>Ah...a...")
ShowMessageFace("",0,0,2,71)
ShowMessage("In a trance of pleasure, I can barely even moan as I melt away.")
ShowMessage("After a while, my consciousness starts to fade...")
ShowMessageFace("",0,0,2,72)
ShowMessage("\\n<Luka>........")
ShowMessageFace("",0,0,2,73)
ShowMessage("Immersed in pure ecstasy, I meet my end, eaten by Black Alice...")
221()
PictureClear(5)
PictureClear(6)
246(2)
ShowMessageFace("",0,0,2,74)
ShowMessage("......")
221()
242(1)
Wait(120)
355("memory_interruption")
ShowMessageFace("",0,0,2,75)
ShowMessage("You hear Ilias' voice calling out to you...")
ShowMessage("Receive her evaluation?")
ShowChoices(strings("Receive evaluation","Change difficulty","Reincarnate"),3)
IfPlayerPicksChoice(0,"反省会に出る")
 241(bytes(0x04,0x08,0x6f,0x3a,0x0d,0x52,0x50,0x47,0x3a,0x3a,0x42,0x47,0x4d,0x08,0x3a,0x0a,0x40,0x6e,0x61,0x6d,0x65,0x49,0x22,0x0a,0x69,0x72,0x69,0x61,0x73,0x06,0x3a,0x06,0x45,0x54,0x3a,0x0c,0x40,0x76,0x6f,0x6c,0x75,0x6d,0x65,0x69,0x5f,0x3a,0x0b,0x40,0x70,0x69,0x74,0x63,0x68,0x69,0x6e))
 PictureDisplay(1,"bg001",0,0,0,0,100,100,255,0)
 222()
 PictureDisplay(5,"80_iriasu_st04",0,0,0,0,100,100,0,0)
 PictureMove(5,null,0,0,0,0,100,100,255,0,30,true)
 ShowMessageFace("iriasu_fc1",3,0,2,76)
 ShowMessage("\\n<Ilias>So you were defeated by Black Alice, and came here...")
 ShowMessage("For some reason, I'm starting to get nostalgic about Heinrich's time...")
 PictureDisplay(5,"80_iriasu_st01",0,0,0,0,100,100,255,0)
 ShowMessageFace("iriasu_fc1",0,0,2,77)
 ShowMessage("\\n<Ilias>In this form, she uses tentacle skills in addition to her elemental magic.")
 ShowMessage("Her Dark skills are also powerful, so winning against her will be difficult.")
 ShowMessageFace("iriasu_fc1",0,0,2,78)
 ShowMessage("\\n<Ilias>She's strong against fire, ice, lightning and has no weakness.")
 ShowMessage("It's next to impossible to inflict status ailments on her so you'll have to fight without them.")
 PictureDisplay(5,"80_iriasu_st02",0,0,0,0,100,100,255,0)
 ShowMessageFace("iriasu_fc1",1,0,2,79)
 ShowMessage("\\n<Ilias>Now go, oh brave Heinr... I mean, Luka.")
 ShowMessage("Like the ancient legendary hero, you should be able to win as well.")
 242(1)
 221()
 PictureClear(5)
 PictureClear(1)
 Wait(60)
 0()
IfPlayerPicksChoice(1,"Change difficulty")
 ShowMessageFace("",0,0,2,80)
 ShowMessage("Please choose a difficulty level.")
 RunCommonEvent(110)
 0()
IfPlayerPicksChoice(2,"Reincarnate")
 0()
404()
RunCommonEvent(3000)
0()
