﻿// EVENT 0507
Name "コラボC3：洞窟の冒険者"

205(13,bytes(0x04,0x08,0x6f,0x3a,0x13,0x52,0x50,0x47,0x3a,0x3a,0x4d,0x6f,0x76,0x65,0x52,0x6f,0x75,0x74,0x65,0x09,0x3a,0x0c,0x40,0x72,0x65,0x70,0x65,0x61,0x74,0x46,0x3a,0x0f,0x40,0x73,0x6b,0x69,0x70,0x70,0x61,0x62,0x6c,0x65,0x46,0x3a,0x0a,0x40,0x77,0x61,0x69,0x74,0x54,0x3a,0x0a,0x40,0x6c,0x69,0x73,0x74,0x5b,0x07,0x6f,0x3a,0x15,0x52,0x50,0x47,0x3a,0x3a,0x4d,0x6f,0x76,0x65,0x43,0x6f,0x6d,0x6d,0x61,0x6e,0x64,0x07,0x3a,0x0a,0x40,0x63,0x6f,0x64,0x65,0x69,0x1e,0x3a,0x10,0x40,0x70,0x61,0x72,0x61,0x6d,0x65,0x74,0x65,0x72,0x73,0x5b,0x00,0x6f,0x3b,0x0a,0x07,0x3b,0x0b,0x69,0x00,0x3b,0x0c,0x5b,0x00))
205(14,bytes(0x04,0x08,0x6f,0x3a,0x13,0x52,0x50,0x47,0x3a,0x3a,0x4d,0x6f,0x76,0x65,0x52,0x6f,0x75,0x74,0x65,0x09,0x3a,0x0c,0x40,0x72,0x65,0x70,0x65,0x61,0x74,0x46,0x3a,0x0f,0x40,0x73,0x6b,0x69,0x70,0x70,0x61,0x62,0x6c,0x65,0x46,0x3a,0x0a,0x40,0x77,0x61,0x69,0x74,0x54,0x3a,0x0a,0x40,0x6c,0x69,0x73,0x74,0x5b,0x07,0x6f,0x3a,0x15,0x52,0x50,0x47,0x3a,0x3a,0x4d,0x6f,0x76,0x65,0x43,0x6f,0x6d,0x6d,0x61,0x6e,0x64,0x07,0x3a,0x0a,0x40,0x63,0x6f,0x64,0x65,0x69,0x1e,0x3a,0x10,0x40,0x70,0x61,0x72,0x61,0x6d,0x65,0x74,0x65,0x72,0x73,0x5b,0x00,0x6f,0x3b,0x0a,0x07,0x3b,0x0b,0x69,0x00,0x3b,0x0c,0x5b,0x00))
ShowMessageFace("",0,0,2,1)
ShowMessage("\\n<Adventurer A>Bringing a woman with you in a cave like this?\nYou're young, but you're quite bold.")
ShowMessageFace("",0,0,2,2)
ShowMessage("\\n<Adventurer B>Oh well, come and warm yourself by the fire.\nIt's getting late, why don't you take a rest...?")
ShowMessageFace("rest_fc1",0,0,2,3)
ShowMessage("\\n<Lest>...We'll take you up on your offer.")
ShowMessageFace("",0,0,2,4)
ShowMessage("Aside from me, there is also Tarsa.\nTaking a break would be for the best...")
242(1)
221()
216(1)
ChangeSwitch(32,32,0)
205(13,bytes(0x04,0x08,0x6f,0x3a,0x13,0x52,0x50,0x47,0x3a,0x3a,0x4d,0x6f,0x76,0x65,0x52,0x6f,0x75,0x74,0x65,0x09,0x3a,0x0c,0x40,0x72,0x65,0x70,0x65,0x61,0x74,0x46,0x3a,0x0f,0x40,0x73,0x6b,0x69,0x70,0x70,0x61,0x62,0x6c,0x65,0x46,0x3a,0x0a,0x40,0x77,0x61,0x69,0x74,0x54,0x3a,0x0a,0x40,0x6c,0x69,0x73,0x74,0x5b,0x07,0x6f,0x3a,0x15,0x52,0x50,0x47,0x3a,0x3a,0x4d,0x6f,0x76,0x65,0x43,0x6f,0x6d,0x6d,0x61,0x6e,0x64,0x07,0x3a,0x0a,0x40,0x63,0x6f,0x64,0x65,0x69,0x15,0x3a,0x10,0x40,0x70,0x61,0x72,0x61,0x6d,0x65,0x74,0x65,0x72,0x73,0x5b,0x00,0x6f,0x3b,0x0a,0x07,0x3b,0x0b,0x69,0x00,0x3b,0x0c,0x5b,0x00))
205(14,bytes(0x04,0x08,0x6f,0x3a,0x13,0x52,0x50,0x47,0x3a,0x3a,0x4d,0x6f,0x76,0x65,0x52,0x6f,0x75,0x74,0x65,0x09,0x3a,0x0c,0x40,0x72,0x65,0x70,0x65,0x61,0x74,0x46,0x3a,0x0f,0x40,0x73,0x6b,0x69,0x70,0x70,0x61,0x62,0x6c,0x65,0x46,0x3a,0x0a,0x40,0x77,0x61,0x69,0x74,0x54,0x3a,0x0a,0x40,0x6c,0x69,0x73,0x74,0x5b,0x07,0x6f,0x3a,0x15,0x52,0x50,0x47,0x3a,0x3a,0x4d,0x6f,0x76,0x65,0x43,0x6f,0x6d,0x6d,0x61,0x6e,0x64,0x07,0x3a,0x0a,0x40,0x63,0x6f,0x64,0x65,0x69,0x16,0x3a,0x10,0x40,0x70,0x61,0x72,0x61,0x6d,0x65,0x74,0x65,0x72,0x73,0x5b,0x00,0x6f,0x3b,0x0a,0x07,0x3b,0x0b,0x69,0x00,0x3b,0x0c,0x5b,0x00))
TeleportPlayer(0,848,42,34,8,2)
Wait(60)
222()
241(bytes(0x04,0x08,0x6f,0x3a,0x0d,0x52,0x50,0x47,0x3a,0x3a,0x42,0x47,0x4d,0x08,0x3a,0x0a,0x40,0x6e,0x61,0x6d,0x65,0x49,0x22,0x09,0x79,0x61,0x65,0x69,0x06,0x3a,0x06,0x45,0x54,0x3a,0x0c,0x40,0x76,0x6f,0x6c,0x75,0x6d,0x65,0x69,0x69,0x3a,0x0b,0x40,0x70,0x69,0x74,0x63,0x68,0x69,0x69))
ShowMessageFace("tarsa_fc1",0,0,2,5)
ShowMessage("\\n<Tarsa>Thank you very much.\nYou even shared your food with us...")
ShowMessageFace("",0,0,2,6)
ShowMessage("\\n<Adventurer A>Don't worry about that.\nWe're all in the same boat when we're in trouble.")
ShowMessageFace("rest_fc1",0,0,2,7)
ShowMessage("\\n<Lest>Um... I would like to ask you something.\nIs it true that you can find a city after passing through here?")
ShowMessageFace("",0,0,2,8)
ShowMessage("\\n<Adventurer B>Hm? You're asking for something obvious.\nThis cave is big, but Grand Noah is very close once you get out of it.")
ShowMessageFace("tarsa_fc1",0,0,2,9)
ShowMessage("\\n<Tarsa>Grand Noah... Is it a big city?")
ShowMessageFace("",0,0,2,10)
ShowMessage("\\n<Adventurer A>Come on, are you country bumpkins or something?\nGrand Noah is one of the four most powerful nations.")
ShowMessageFace("",0,0,2,11)
ShowMessage("\\n<Adventurer B>You didn't even know that...\nDo you guys come from another world?")
ShowMessageFace("rest_fc1",0,0,2,12)
ShowMessage("\\n<Lest>...!?")
ShowMessageFace("tarsa_fc1",0,0,2,13)
ShowMessage("\\n<Tarsa>Another world?")
ShowMessageFace("",0,0,2,14)
ShowMessage("\\n<Adventurer B>It's just a joke.\nThe proclamation about parallel worlds has become a hot topic these days.")
ShowMessageFace("",0,0,2,15)
ShowMessage("\\n<Adventurer A>A few days ago, the queen of Grand Noah issued a proclamation. She said she would offer a substantial reward to those who bring her important information regarding parallel worlds.")
ShowMessageFace("rest_fc1",0,0,2,16)
ShowMessage("\\n<Lest>Important information regarding parallel worlds...")
ShowMessageFace("",0,0,2,17)
ShowMessage("Tarsa and I looked at each other.\nThe head of a major nation knows about the existence of parallel worlds.")
ShowMessageFace("",0,0,2,18)
ShowMessage("\\n<Adventurer A>And now, Grand Noah's government office is in an incredible mess.\nInformants are rushing in from all over the city.")
ShowMessageFace("",0,0,2,19)
ShowMessage("\\n<Adventurer A>Some say they know things about parallel worlds...\nAnd among them, some even claim to be from parallel worlds...")
ShowMessageFace("tarsa_fc1",0,0,2,20)
ShowMessage("\\n<Tarsa>...")
ShowMessageFace("",0,0,2,21)
ShowMessage("\\n<Adventurer B>Oh well...\nAll of them must be either swindlers or lunatics.")
ShowMessageFace("",0,0,2,22)
ShowMessage("\\n<Adventurer B>People say that the queen is the craziest of them all.\nRecently, the queen's behavior has been getting weirder and weirder.")
ShowMessageFace("rest_fc1",0,0,2,23)
ShowMessage("\\n<Lest>I see...")
ShowMessageFace("",0,0,2,24)
ShowMessage("The Queen of Grand Noah wants information about parallel worlds...\nWe should seek an audience.")
ShowMessageFace("",0,0,2,25)
ShowMessage("If she went as far as issuing a proclamation, maybe she knows about the seven heroes.\nAnd about the threat calling herself the Queen of Dreams...")
ShowMessageFace("",0,0,2,26)
ShowMessage("\\n<Adventurer A>It's time to sleep...\nWe have extra sleeping bags, wanna use them?")
ShowMessageFace("tarsa_fc1",1,0,2,27)
ShowMessage("\\n<Tarsa>Thank you, we'll use them♪")
ShowMessageFace("",0,0,2,28)
ShowMessage("\\n<Adventurer B>Don't worry. When we're in trouble, we're all in the same boat.\nUhihihihi...")
ShowMessageFace("",0,0,2,29)
ShowMessage("\\n<Adventurer A>Fuehehehe...")
ShowMessageFace("rest_fc1",0,0,2,30)
ShowMessage("\\n<Lest>...")
ShowMessageFace("",0,0,2,31)
ShowMessage("And so we went to sleep.\nWith the utmost caution, of course...")
221()
249(bytes(0x04,0x08,0x6f,0x3a,0x0c,0x52,0x50,0x47,0x3a,0x3a,0x4d,0x45,0x08,0x3a,0x0a,0x40,0x6e,0x61,0x6d,0x65,0x49,0x22,0x08,0x49,0x6e,0x6e,0x06,0x3a,0x06,0x45,0x54,0x3a,0x0b,0x40,0x70,0x69,0x74,0x63,0x68,0x69,0x69,0x3a,0x0c,0x40,0x76,0x6f,0x6c,0x75,0x6d,0x65,0x69,0x69))
Wait(150)
314(0,0)
ChangeVariable(1203,1203,0,0,6)
222()
241(bytes(0x04,0x08,0x6f,0x3a,0x0d,0x52,0x50,0x47,0x3a,0x3a,0x42,0x47,0x4d,0x08,0x3a,0x0a,0x40,0x6e,0x61,0x6d,0x65,0x49,0x22,0x0d,0x64,0x75,0x6e,0x67,0x65,0x6f,0x6e,0x31,0x06,0x3a,0x06,0x45,0x54,0x3a,0x0c,0x40,0x76,0x6f,0x6c,0x75,0x6d,0x65,0x69,0x69,0x3a,0x0b,0x40,0x70,0x69,0x74,0x63,0x68,0x69,0x69))
ShowMessageFace("rest_fc1",0,0,2,32)
ShowMessage("\\n<Lest>Huh...? Nothing happened...")
ShowMessageFace("",0,0,2,33)
ShowMessage("In the end, nothing happened until morning.\nI thought those two adventurers would be up to no good...")
ShowMessageFace("rest_fc1",0,0,2,34)
ShowMessage("\\n<Lest>Hm...? Where are they...?")
ShowMessageFace("",0,0,2,35)
ShowMessage("When I looked at the beds they used to sleep, I found them completely empty.\nThey are nowhere to be found...")
PictureDisplay(5,"80_tarsa_st01",0,0,0,0,100,100,0,0)
PictureMove(5,null,0,0,0,0,100,100,255,0,30,true)
ShowMessageFace("tarsa_fc1",0,0,2,36)
ShowMessage("\\n<Tarsa>They woke up before dawn.")
ShowMessageFace("rest_fc1",0,0,2,37)
ShowMessage("\\n<Lest>Before dawn...?\nThey must have been in quite the hurry.")
ShowMessageFace("",0,0,2,38)
ShowMessage("That said, we can't take it too slow either.\nWe have to get out of this cave and go to Grand Noah.")
ShowMessageFace("",0,0,2,39)
ShowMessage("The queen wants information about parallel worlds.\nIf that's how it is, then we have to hurry and go to her.")
ShowMessageFace("",0,0,2,40)
ShowMessage("This way, we should be able to get the backing of a major nation.\nIf we succeed, it will be easier to move in this world...")
ShowMessageFace("tarsa_fc1",0,0,2,41)
ShowMessage("\\n<Tarsa>I've already eaten, but...\nDo you want to have breakfast, Lest?")
ShowMessageFace("rest_fc1",0,0,2,42)
ShowMessage("\\n<Lest>I'll nibble on dried meat as we walk.\nCome on, let's go!")
PictureClear(5)
ShowMessageFace("",0,0,2,43)
ShowMessage("It might be ill-mannered, but I want us to get there as soon as possible.\nNow, we're on our way to Grand Noah...")
221()
216(0)
ChangeSwitch(32,32,1)
TeleportPlayer(0,848,40,33,4,2)
Wait(60)
222()
EndEventProcessing()
0()
