// EVENT 4286
Name "Catfish Girl"

If(0,25,1)
 221()
 PictureClear(5)
 PictureClear(6)
 ShowMessageFace("",0,0,2,0)
 ShowMessage("......")
 242(2)
 Wait(120)
 241(bytes(0x04,0x08,0x6f,0x3a,0x0d,0x52,0x50,0x47,0x3a,0x3a,0x42,0x47,0x4d,0x08,0x3a,0x0a,0x40,0x6e,0x61,0x6d,0x65,0x49,0x22,0x0c,0x63,0x61,0x73,0x74,0x6c,0x65,0x36,0x06,0x3a,0x06,0x45,0x54,0x3a,0x0c,0x40,0x76,0x6f,0x6c,0x75,0x6d,0x65,0x69,0x69,0x3a,0x0b,0x40,0x70,0x69,0x74,0x63,0x68,0x69,0x69))
 EndEventProcessing()
 0()
EndIf()
PictureDisplay(5,"80_namazu_st01",0,0,0,0,100,100,255,0)
ShowMessageFace("namazu_fc1",0,0,2,1)
ShowMessage("\\n<Gigi>Truly? You wish for me to suck out your semen?")
ShowMessageFace("",0,0,2,2)
ShowMessage("\\n<Luka>P-please...")
PictureDisplay(5,"80_namazu_st02",0,0,0,0,100,100,255,0)
ShowMessageFace("namazu_fc1",1,0,2,3)
ShowMessage("\\n<Gigi>You have no shame, if you're asking your allies for such things.\nShall I teach you why you should be afraid of asking for such things?")
ShowMessageFace("",0,0,2,4)
ShowMessage("\\n<Luka>A-Afraid...?")
ShowMessageFace("",0,0,2,5)
ShowMessage("Gigi moves toward me, and presses herself against me.")
ShowMessage("I feel a thin slimy film all over her wet body.")
ShowMessageFace("namazu_fc1",1,0,2,6)
ShowMessage("\\n<Gigi>I'll squeeze you with my breasts, until you can't even stand.\nRealize what your foolish desires have brought upon yourself...")
241(bytes(0x04,0x08,0x6f,0x3a,0x0d,0x52,0x50,0x47,0x3a,0x3a,0x42,0x47,0x4d,0x08,0x3a,0x0a,0x40,0x6e,0x61,0x6d,0x65,0x49,0x22,0x09,0x65,0x72,0x6f,0x31,0x06,0x3a,0x06,0x45,0x54,0x3a,0x0c,0x40,0x76,0x6f,0x6c,0x75,0x6d,0x65,0x69,0x69,0x3a,0x0b,0x40,0x70,0x69,0x74,0x63,0x68,0x69,0x69))
245(bytes(0x04,0x08,0x6f,0x3a,0x0d,0x52,0x50,0x47,0x3a,0x3a,0x42,0x47,0x53,0x08,0x3a,0x0a,0x40,0x6e,0x61,0x6d,0x65,0x49,0x22,0x17,0x6d,0x6f,0x6e,0x5f,0x68,0x73,0x65,0x61,0x6e,0x31,0x37,0x5f,0x73,0x69,0x67,0x6f,0x6b,0x69,0x06,0x3a,0x06,0x45,0x54,0x3a,0x0c,0x40,0x76,0x6f,0x6c,0x75,0x6d,0x65,0x69,0x55,0x3a,0x0b,0x40,0x70,0x69,0x74,0x63,0x68,0x69,0x69))
PictureDisplay(5,"ev_namazu_h1",0,0,0,0,100,100,0,0)
PictureMove(5,null,0,0,0,0,100,100,255,0,30,true)
ShowMessageFace("",0,0,2,7)
ShowMessage("Her soft breasts press against my penis.")
ShowMessage("The elastic feeling of them press against me.")
ShowMessageFace("",0,0,2,8)
ShowMessage("The warmth and softness of them give me a tingling of pleasure.")
ShowMessage("Surprised at the touch, a moan leaks from me.")
ShowMessageFace("",0,0,2,9)
ShowMessage("\\n<Luka>Ah... Ugh...!")
ShowMessageFace("namazu_fc1",1,0,2,10)
ShowMessage("\\n<Gigi>Fufu, are my breasts comfortable?\nThey're about to make you feel even better...")
ShowMessageFace("",0,0,2,11)
ShowMessage("Using her hands, Gigi presses her breasts together.")
ShowMessage("My penis is squeezed between her soft tits.")
ShowMessageFace("",0,0,2,12)
ShowMessage("This tight feeling...")
ShowMessage("Sighing at the touch, power fades from my body.")
ShowMessageFace("",0,0,2,13)
ShowMessage("\\n<Luka>Nnngh...")
ShowMessageFace("namazu_fc1",1,0,2,14)
ShowMessage("\\n<Gigi>Sheesh, are you already melting in bliss?\nYour precome is already leaking, too.")
PictureDisplay(5,"ev_namazu_h2",0,0,0,0,100,100,255,0)
ShowMessageFace("namazu_fc1",1,0,2,15)
ShowMessage("\\n<Gigi>Nnnn... *Suck*")
ShowMessageFace("",0,0,2,16)
ShowMessage("\\n<Luka>Ah... Hyaa!")
ShowMessageFace("",0,0,2,17)
ShowMessage("Gigi's lips close around the tip of my penis.")
ShowMessage("Lightly sucking on my tip, she swallows my precome.")
ShowMessageFace("",0,0,2,17)
ShowMessage("Gigi takes my glans deeper into her mouth...")
245(bytes(0x04,0x08,0x6f,0x3a,0x0d,0x52,0x50,0x47,0x3a,0x3a,0x42,0x47,0x53,0x08,0x3a,0x0a,0x40,0x6e,0x61,0x6d,0x65,0x49,0x22,0x10,0x6d,0x6f,0x6e,0x5f,0x68,0x76,0x6f,0x69,0x63,0x65,0x31,0x06,0x3a,0x06,0x45,0x54,0x3a,0x0c,0x40,0x76,0x6f,0x6c,0x75,0x6d,0x65,0x69,0x55,0x3a,0x0b,0x40,0x70,0x69,0x74,0x63,0x68,0x69,0x69))
ShowMessageFace("namazu_fc1",1,0,2,19)
ShowMessage("\\n<Gigi>*Lick* *Lick*")
ShowMessageFace("",0,0,2,20)
ShowMessage("Her tongue starts to run all over my urethral opening!")
ShowMessageFace("",0,0,2,21)
ShowMessage("\\n<Luka>Unnngh... Aaah!")
ShowMessageFace("",0,0,2,22)
ShowMessage("Her quick tongue movements are almost ticklish.")
ShowMessage("Overwhelmed at the stimulation, my body squirms and struggles.")
ShowMessageFace("namazu_fc1",2,0,2,23)
ShowMessage("\\n<Gigi>Hrmph... Hey! Stop moving!")
ShowMessageFace("",0,0,2,24)
ShowMessage("Gigi presses her breasts harder together, squeezing my penis.")
ShowMessage("My penis is crushed between her large soft breasts.")
ShowMessageFace("",0,0,2,25)
ShowMessage("Like that, she renews her assault on my glans.")
ShowMessage("Her incredible tongue movements, licking and tickling me in her mouth.")
ShowMessageFace("",0,0,2,26)
ShowMessage("\\n<Luka>Ngh... Aaaah...!")
ShowMessageFace("namazu_fc1",1,0,2,27)
ShowMessage("\\n<Gigi>Fufu, you can't escape from this.\nI'll play with you until you finish...")
ShowMessageFace("",0,0,2,28)
ShowMessage("\\n<Luka>D-don't... Hnnngh...!")
ShowMessageFace("",0,0,2,29)
ShowMessage("With my penis buried in her breasts, I can't escape.")
ShowMessage("Her tongue attacks my glans without mercy as I'm stuck under her.")
ShowMessageFace("",0,0,2,30)
ShowMessage("Her breasts rub against my penis at the same time.")
ShowMessage("Together with her tongue movements, it's too much to take.")
ShowMessageFace("",0,0,2,31)
ShowMessage("At last, the desire to come rises up through me.")
ShowMessage("My waist trembles as I let out a big moan.")
ShowMessageFace("",0,0,2,32)
ShowMessage("\\n<Luka>Unnngh...I'm going to come...!")
ShowMessageFace("namazu_fc1",1,0,2,33)
ShowMessage("\\n<Gigi>It's too early to moan like that...\nBut I shall suck out your semen anyway.")
ShowMessageFace("namazu_fc1",1,0,2,34)
ShowMessage("\\n<Gigi>Nnn... *Suck*")
ShowMessageFace("",0,0,2,35)
ShowMessage("With her lips around my tip, Gigi sucks on me.")
ShowMessage("She's sucking on my penis like it was a straw...")
ShowMessageFace("",0,0,2,36)
ShowMessage("\\n<Luka>Ngh... Ah, aaaah...!")
ShowMessageFace("",0,0,2,37)
ShowMessage("The crazy suction overwhelms me right at the end.")
ShowMessage("My head goes pure white as my body completely relaxes.")
RunCommonEvent(104)
PictureDisplay(5,"ev_namazu_h3",0,0,0,0,100,100,255,0)
RunCommonEvent(105)
ShowMessageFace("",0,0,2,38)
ShowMessage("The sweet feeling of release fills me as my penis pulses in her mouth.")
ShowMessage("As she sucks on me, spurt after spurt of semen floods into her.")
ShowMessageFace("",0,0,2,39)
ShowMessage("\\n<Luka>Nnngh...")
ShowMessageFace("namazu_fc1",1,0,2,40)
ShowMessage("\\n<Gigi>Nnnn... *Gulp* *Gulp*")
ShowMessageFace("",0,0,2,41)
ShowMessage("Gigi skillfully sucks down my semen.")
ShowMessage("Her lips don't part from me until she's swallowed every drop.")
PictureDisplay(5,"ev_namazu_h4",0,0,0,0,100,100,255,0)
ShowMessageFace("namazu_fc1",1,0,2,42)
ShowMessage("\\n<Gigi>Nnn... You have delicious semen.\nIt would be a shame to let prey like you get away from me.")
ShowMessageFace("",0,0,2,43)
ShowMessage("\\n<Luka>N...no way...")
ShowMessageFace("namazu_fc1",1,0,2,44)
ShowMessage("\\n<Gigi>I love teasing dicks right after they're spurted once.\nPerhaps I'll play with you a bit more...")
PictureDisplay(5,"ev_namazu_h5",0,0,0,0,100,100,255,0)
ShowMessageFace("namazu_fc1",1,0,2,45)
ShowMessage("\\n<Gigi>Mmmm... *Suuuuck*")
ShowMessageFace("",0,0,2,46)
ShowMessage("\\n<Luka>Ah... Aaaah!!")
ShowMessageFace("",0,0,2,47)
ShowMessage("So soon after my climax, she starts sucking even harder than before.")
ShowMessage("The aggressive suction makes me struggle to escape it.")
ShowMessageFace("namazu_fc1",1,0,2,48)
ShowMessage("\\n<Gigi>Haha, there's no point squirming around...\n*Suck* *Suuuuck*")
ShowMessageFace("",0,0,2,49)
ShowMessage("\\n<Luka>Hya...A-Aaaah!!")
ShowMessageFace("",0,0,2,50)
ShowMessage("But no matter how I struggle, my penis is firmly stuck between her breasts.")
ShowMessage("With no place to escape to, I can only withstand her vacuum blowjob.")
ShowMessageFace("",0,0,2,51)
ShowMessage("Her mouth is tightly closed around my glans.")
ShowMessage("Sucking and sucking, it's like she's trying to pull semen straight from my balls.")
ShowMessageFace("",0,0,2,52)
ShowMessage("At the same time, my shaft is being massaged by her soft breasts.")
ShowMessage("The sweet, tight friction fills my senses.")
ShowMessageFace("",0,0,2,53)
ShowMessage("\\n<Luka>Ngh... Ah, ah, Unnngh...!")
ShowMessageFace("",0,0,2,54)
ShowMessage("Overwhelmed by the pleasure, I can feel a second climax quickly approaching.")
ShowMessage("No... Rather, it's being forcibly sucked out.")
ShowMessageFace("namazu_fc1",1,0,2,55)
ShowMessage("\\n<Gigi>If you suck hard right after a climax, a second one quickly follows...\nNow... Come again!")
ShowMessageFace("",0,0,2,56)
ShowMessage("\\n<Luka>Hyaaa!")
ShowMessageFace("",0,0,2,57)
ShowMessage("My brain itself flickers in ecstasy.")
ShowMessage("Writhing in agonized pleasure, my body trembles.")
RunCommonEvent(104)
PictureDisplay(5,"ev_namazu_h6",0,0,0,0,100,100,255,0)
RunCommonEvent(105)
ShowMessageFace("",0,0,2,58)
ShowMessage("And in the next instant, I explode again.")
ShowMessage("I'm forcibly brought to a second climax.")
ShowMessageFace("",0,0,2,59)
ShowMessage("\\n<Luka>Ngh... Ah, aaaah...!!")
ShowMessageFace("namazu_fc1",1,0,2,60)
ShowMessage("\\n<Gigi>Nnng... *Suck* *Suuuuuck*")
ShowMessageFace("",0,0,2,61)
ShowMessage("Even though I came, her suction only gets more intense.")
ShowMessage("A maddening vacuum all throughout my ejaculation.")
PictureDisplay(5,"ev_namazu_h7",0,0,0,0,100,100,255,0)
ShowMessageFace("",0,0,2,62)
ShowMessage("Even more semen is sucked out, filling Gigi's mouth.")
ShowMessage("The proof of my submission to her is spread all over.")
ShowMessageFace("namazu_fc1",1,0,2,63)
ShowMessage("\\n<Gigi>*Suuuuck* *Gulp*")
246(2)
PictureDisplay(5,"ev_namazu_h8",0,0,0,0,100,100,255,0)
ShowMessageFace("namazu_fc1",1,0,2,64)
ShowMessage("\\n<Gigi>....Whew, it's over.")
ShowMessageFace("",0,0,2,65)
ShowMessage("\\n<Luka>......")
ShowMessageFace("",0,0,2,66)
ShowMessage("Even though she finally parted from my penis, I'm still left stunned.")
ShowMessage("It's as if she sucked me dry with her forced vacuum.")
ShowMessageFace("namazu_fc1",1,0,2,67)
ShowMessage("\\n<Gigi>Sheesh, look at how weak you are.\nDo you understand what your foolish request of a Monster Girl has brought upon you?")
ShowMessageFace("",0,0,2,68)
ShowMessage("\\n<Luka>......")
ShowMessageFace("",0,0,2,69)
ShowMessage("Sucked dry and left unable to stand, I can only nod weakly at her.")
ShowMessage("Though I'm not quite sure if this really was a good warning against it...")
221()
PictureClear(5)
ShowMessageFace("",0,0,2,70)
ShowMessage("......")
242(2)
Wait(120)
241(bytes(0x04,0x08,0x6f,0x3a,0x0d,0x52,0x50,0x47,0x3a,0x3a,0x42,0x47,0x4d,0x08,0x3a,0x0a,0x40,0x6e,0x61,0x6d,0x65,0x49,0x22,0x0c,0x63,0x61,0x73,0x74,0x6c,0x65,0x36,0x06,0x3a,0x06,0x45,0x54,0x3a,0x0c,0x40,0x76,0x6f,0x6c,0x75,0x6d,0x65,0x69,0x69,0x3a,0x0b,0x40,0x70,0x69,0x74,0x63,0x68,0x69,0x69))
0()
