﻿// EVENT 5792
Name "R Eva"

If(0,443,0)
 PictureDisplay(5,"80_eva_st02",0,0,0,0,100,100,255,0)
 0()
EndIf()
241(bytes(0x04,0x08,0x6f,0x3a,0x0d,0x52,0x50,0x47,0x3a,0x3a,0x42,0x47,0x4d,0x08,0x3a,0x0a,0x40,0x6e,0x61,0x6d,0x65,0x49,0x22,0x09,0x65,0x72,0x6f,0x31,0x06,0x3a,0x06,0x45,0x54,0x3a,0x0c,0x40,0x76,0x6f,0x6c,0x75,0x6d,0x65,0x69,0x69,0x3a,0x0b,0x40,0x70,0x69,0x74,0x63,0x68,0x69,0x69))
ShowMessageFace("eva_fc1",1,0,2,1)
ShowMessage("\\n<Eva>")
ShowMessage("Ah, lucky♪")
ShowMessage("Now let's get to it...")
ShowMessageFace("",0,0,2,2)
ShowMessage("Eva bends forward and lowers my pants――")
PictureDisplay(5,"ev_eva_hc1",0,0,0,0,100,100,0,0)
PictureMove(5,null,0,0,0,0,100,100,255,0,30,true)
ShowMessageFace("eva_fc1",1,0,2,3)
ShowMessage("\\n<Eva>")
ShowMessage("Thank you for the meal♪")
ShowMessage("...*nom*")
245(bytes(0x04,0x08,0x6f,0x3a,0x0d,0x52,0x50,0x47,0x3a,0x3a,0x42,0x47,0x53,0x08,0x3a,0x0a,0x40,0x6e,0x61,0x6d,0x65,0x49,0x22,0x10,0x6d,0x6f,0x6e,0x5f,0x68,0x76,0x6f,0x69,0x63,0x65,0x31,0x06,0x3a,0x06,0x45,0x54,0x3a,0x0c,0x40,0x76,0x6f,0x6c,0x75,0x6d,0x65,0x69,0x55,0x3a,0x0b,0x40,0x70,0x69,0x74,0x63,0x68,0x69,0x69))
ShowMessageFace("",0,0,2,4)
ShowMessage("Eva takes my penis into her mouth!")
ShowMessageFace("",0,0,2,5)
ShowMessage("\\n<Luka>")
ShowMessage("Auuu...!")
ShowMessageFace("",0,0,2,6)
ShowMessage("Her warm tongue dances around my glans.")
ShowMessage("I can't help but shiver when my sensitive tip is stimulated.")
ShowMessageFace("eva_fc1",1,0,2,7)
ShowMessage("\\n<Eva>")
ShowMessage("*slurp* *lick lick*")
ShowMessageFace("",0,0,2,8)
ShowMessage("\\n<Luka>")
ShowMessage("Ah...aaa...")
ShowMessageFace("eva_fc1",1,0,2,9)
ShowMessage("\\n<Eva>")
ShowMessage("*lick lick* *slurp*")
ShowMessage("Hehehe, you're loving this aren't you...♪")
ShowMessageFace("eva_fc1",1,0,2,10)
ShowMessage("\\n<Eva>")
ShowMessage("Don't you think you're lucky too?")
ShowMessage("Getting such a skilled blowjob...")
ShowMessageFace("",0,0,2,11)
ShowMessage("When she talks, her tongue entangles irregularly with my glans.")
ShowMessage("This pleasant feeling is strong enough to sap my strength――")
ShowMessageFace("",0,0,2,12)
ShowMessage("\\n<Luka>")
ShowMessage("A-auuu...!")
ShowMessageFace("eva_fc1",1,0,2,13)
ShowMessage("\\n<Eva>")
ShowMessage("Now, time to make you cum...")
ShowMessage("*suck suck* *sluuurp*")
ShowMessageFace("",0,0,2,14)
ShowMessage("\\n<Luka>")
ShowMessage("Hauuu...!")
ShowMessageFace("",0,0,2,15)
ShowMessage("Eva gracefully sucks on the tip of my penis.")
ShowMessage("All while coiling her tongue around it.")
ShowMessageFace("",0,0,2,16)
ShowMessage("I promptly reach my limit against such intense stimulation...")
ShowMessage("And surrender my body to the pleasure.")
245(bytes(0x04,0x08,0x6f,0x3a,0x0d,0x52,0x50,0x47,0x3a,0x3a,0x42,0x47,0x53,0x08,0x3a,0x0a,0x40,0x6e,0x61,0x6d,0x65,0x49,0x22,0x00,0x06,0x3a,0x06,0x45,0x54,0x3a,0x0c,0x40,0x76,0x6f,0x6c,0x75,0x6d,0x65,0x69,0x55,0x3a,0x0b,0x40,0x70,0x69,0x74,0x63,0x68,0x69,0x69))
RunCommonEvent(104)
PictureDisplay(5,"ev_eva_hc2",0,0,0,0,100,100,255,0)
RunCommonEvent(105)
ShowMessageFace("",0,0,2,17)
ShowMessage("\\n<Luka>")
ShowMessage("A-aaa...")
ShowMessageFace("",0,0,2,18)
ShowMessage("My semen pours into her warm mouth.")
ShowMessage("Eva drinks up the semen with a pleased expression――")
ShowMessageFace("eva_fc1",1,0,2,19)
ShowMessage("\\n<Eva>")
ShowMessage("Hm... *gulp gulp* ♪")
ShowMessageFace("",0,0,2,20)
ShowMessage("\\n<Luka>")
ShowMessage("Hauu...")
ShowMessageFace("",0,0,2,21)
ShowMessage("Thus, I offered my semen to Eva.")
ShowMessage("Her mouth keeps draining my sperm for a while――")
221()
241(bytes(0x04,0x08,0x6f,0x3a,0x0d,0x52,0x50,0x47,0x3a,0x3a,0x42,0x47,0x4d,0x08,0x3a,0x0a,0x40,0x6e,0x61,0x6d,0x65,0x49,0x22,0x0c,0x63,0x61,0x73,0x74,0x6c,0x65,0x36,0x06,0x3a,0x06,0x45,0x54,0x3a,0x0c,0x40,0x76,0x6f,0x6c,0x75,0x6d,0x65,0x69,0x69,0x3a,0x0b,0x40,0x70,0x69,0x74,0x63,0x68,0x69,0x69))
PictureClear(5)
222()
ShowMessageFace("eva_fc1",1,0,2,22)
ShowMessage("\\n<Eva>")
ShowMessage("Mn... thanks for the meal♪")
ShowMessage("You enjoyed it too, didn't you?")
ShowMessageFace("",0,0,2,23)
ShowMessage("\\n<Luka>")
ShowMessage("............")
EndEventProcessing()
0()
