﻿// EVENT 5824
Name "R Queen Vampire"

If(0,443,0)
 PictureDisplay(5,"80_queenvanpire_st11",0,0,0,0,100,100,255,0)
 0()
EndIf()
242(1)
250(bytes(0x04,0x08,0x6f,0x3a,0x0c,0x52,0x50,0x47,0x3a,0x3a,0x53,0x45,0x08,0x3a,0x0a,0x40,0x6e,0x61,0x6d,0x65,0x49,0x22,0x0a,0x7a,0x69,0x68,0x6f,0x75,0x06,0x3a,0x06,0x45,0x54,0x3a,0x0b,0x40,0x70,0x69,0x74,0x63,0x68,0x69,0x69,0x3a,0x0c,0x40,0x76,0x6f,0x6c,0x75,0x6d,0x65,0x69,0x55))
Wait(60)
ShowMessageFace("",0,0,2,1)
ShowMessage("At that moment, the five o'clock bell rings in the castle.")
241(bytes(0x04,0x08,0x6f,0x3a,0x0d,0x52,0x50,0x47,0x3a,0x3a,0x42,0x47,0x4d,0x08,0x3a,0x0a,0x40,0x6e,0x61,0x6d,0x65,0x49,0x22,0x09,0x65,0x72,0x6f,0x31,0x06,0x3a,0x06,0x45,0x54,0x3a,0x0c,0x40,0x76,0x6f,0x6c,0x75,0x6d,0x65,0x69,0x69,0x3a,0x0b,0x40,0x70,0x69,0x74,0x63,0x68,0x69,0x69))
ShowMessageFace("queenvampire_fc1",0,0,2,2)
ShowMessage("\\n<Fatima>Hmm, would you look at the time...\nI'm starting to get hungry.")
ShowMessageFace("queenvampire_fc1",0,0,2,3)
ShowMessage("\\n<Fatima>Fortunately, there are two servings here...\nOne is the appetizer, the other the main dish.")
ShowMessageFace("",0,0,2,4)
ShowMessage("\\n<Luka>Servings? Don't tell me--")
ShowMessageFace("",0,0,2,5)
ShowMessage("The apprentice merchant boy, on the other hand, looks like he has no idea what she is talking about.\nJust as I was about to stop her, Fatima's eyes lit up...")
Wait(15)
250(bytes(0x04,0x08,0x6f,0x3a,0x0c,0x52,0x50,0x47,0x3a,0x3a,0x53,0x45,0x08,0x3a,0x0a,0x40,0x6e,0x61,0x6d,0x65,0x49,0x22,0x0e,0x6d,0x6f,0x6e,0x5f,0x66,0x6c,0x61,0x73,0x68,0x06,0x3a,0x06,0x45,0x54,0x3a,0x0b,0x40,0x70,0x69,0x74,0x63,0x68,0x69,0x69,0x3a,0x0c,0x40,0x76,0x6f,0x6c,0x75,0x6d,0x65,0x69,0x69))
224(bytes(0x04,0x08,0x75,0x3a,0x0a,0x43,0x6f,0x6c,0x6f,0x72,0x25,0x00,0x00,0x00,0x00,0x00,0xe0,0x6f,0x40,0x00,0x00,0x00,0x00,0x00,0x80,0x69,0x40,0x00,0x00,0x00,0x00,0x00,0xe0,0x6f,0x40,0x00,0x00,0x00,0x00,0x00,0xe0,0x6f,0x40),60,true)
Wait(15)
ShowMessageFace("",0,0,2,6)
ShowMessage("\\n<Luka>Ugh...")
ShowMessageFace("",0,0,2,7)
ShowMessage("My body is immobilized under the effect of her Demon Eyes.\nIn the meantime, Fatima approaches the boy...")
ShowMessageFace("",0,0,2,8)
ShowMessage("\\n<Boy>Um... What is it...?")
ShowMessageFace("queenvampire_fc1",0,0,2,9)
ShowMessage("\\n<Fatima>Kuku... It's simple.\nYou are now going to be my prey.")
ShowMessageFace("",0,0,2,10)
ShowMessage("The next instant, the dumbfounded boy's clothes are ripped off...")
245(bytes(0x04,0x08,0x6f,0x3a,0x0d,0x52,0x50,0x47,0x3a,0x3a,0x42,0x47,0x53,0x08,0x3a,0x0a,0x40,0x6e,0x61,0x6d,0x65,0x49,0x22,0x10,0x6d,0x6f,0x6e,0x5f,0x68,0x76,0x6f,0x69,0x63,0x65,0x31,0x06,0x3a,0x06,0x45,0x54,0x3a,0x0c,0x40,0x76,0x6f,0x6c,0x75,0x6d,0x65,0x69,0x55,0x3a,0x0b,0x40,0x70,0x69,0x74,0x63,0x68,0x69,0x69))
PictureDisplay(5,"ev_queenvanpire_hd1",0,0,0,0,100,100,255,0)
ShowMessageFace("",0,0,2,11)
ShowMessage("\\n<Boy>Ah... Uwahhhh!!")
ShowMessageFace("",0,0,2,12)
ShowMessage("Then, the boy's heartbreaking screams ring out.\nFatima ruthlessly embraces the boy and starts sucking his blood...")
ShowMessageFace("",0,0,2,13)
ShowMessage("\\n<Boy>Agh, ah... Ahhh...!")
ShowMessageFace("queenvampire_fc1",0,0,2,14)
ShowMessage("\\n<Fatima>Kuku... Don't be so frightened...\nIf I suck it like this...")
ShowMessageFace("",0,0,2,15)
ShowMessage("\\n<Boy>Hau... Ah, ahhhh...")
ShowMessageFace("",0,0,2,16)
ShowMessage("The boy's voice grows fainter as I listen to him... \nHis body is already out of strength.")
ShowMessageFace("",0,0,2,17)
ShowMessage("He is enjoying the pleasure of Fatima's bloodsucking.\nHis face is now completely melting with pleasure...")
ShowMessageFace("queenvampire_fc1",0,0,2,18)
ShowMessage("\\n<Fatima>Kukuku, see?\nIt feels great to be sucked by me...")
ShowMessageFace("",0,0,2,19)
ShowMessage("\\n<Boy>Ah, auu... Ah, ahhh...")
ShowMessageFace("",0,0,2,20)
ShowMessage("The boy, who resisted at first, seems to have given himself over completely to the pleasure.\nHe lets himself be sucked by Fatima and relaxes his body...")
RunCommonEvent(104)
RunCommonEvent(105)
ShowMessageFace("",0,0,2,21)
ShowMessage("And in the end, he ejaculates.\nAs his body trembles, he lets out his semen...")
ShowMessageFace("",0,0,2,22)
ShowMessage("\\n<Luka>This is horrible... How could you...")
ShowMessageFace("queenvampire_fc1",0,0,2,23)
ShowMessage("\\n<Fatima>You just wait a little longer.\nSoon, I'll be sucking you the same way...")
ShowMessageFace("",0,0,2,24)
ShowMessage("\\n<Luka>Ugh...")
ShowMessageFace("",0,0,2,25)
ShowMessage("I can only watch as the boy is being sucked dry.")
ShowMessageFace("",0,0,2,26)
ShowMessage("I'll be preyed upon next, just like him...\nWhen I remind myself of this, it fills me with both fear and anticipation...")
221()
PictureClear(5)
242(1)
246(1)
ShowMessageFace("",0,0,2,27)
ShowMessage("Thus, the boy was sucked dry before my eyes.\nAnd then, I suffered the same fate...")
ShowMessageFace("",0,0,2,28)
ShowMessage("・・・・・・・・")
221()
Wait(120)
If(0,443,0)
 EndEventProcessing()
 0()
EndIf()
RunCommonEvent(541)
0()
