// EVENT 0201
Name "Talk Seduction 1 Luka Valid"

ChangeSwitch(11,11,1)
108("「ルカが有効」と「敵が有効」は判定に使うステートが違うので注意")
408("このコモンの実行後にスイッチ11がオフなら、ルカは有効ではない")
If(4,1,6,1)
 EndEventProcessing()
 0()
EndIf()
If(4,1,6,4)
 EndEventProcessing()
 0()
EndIf()
If(4,1,6,6)
 EndEventProcessing()
 0()
EndIf()
If(4,1,6,10)
 EndEventProcessing()
 0()
EndIf()
If(4,1,6,11)
 EndEventProcessing()
 0()
EndIf()
If(4,1,6,12)
 EndEventProcessing()
 0()
EndIf()
If(4,1,6,14)
 EndEventProcessing()
 0()
EndIf()
If(4,1,6,15)
 EndEventProcessing()
 0()
EndIf()
If(4,1,6,17)
 EndEventProcessing()
 0()
EndIf()
If(4,1,6,20)
 EndEventProcessing()
 0()
EndIf()
If(4,1,6,26)
 EndEventProcessing()
 0()
EndIf()
ChangeSwitch(11,11,0)
0()
