﻿// EVENT 5820
Name "R Nanabi"

If(0,443,0)
 PictureDisplay(5,"80_nanabi_st01",0,0,0,0,100,100,255,0)
 0()
EndIf()
242(1)
250(bytes(0x04,0x08,0x6f,0x3a,0x0c,0x52,0x50,0x47,0x3a,0x3a,0x53,0x45,0x08,0x3a,0x0a,0x40,0x6e,0x61,0x6d,0x65,0x49,0x22,0x0a,0x7a,0x69,0x68,0x6f,0x75,0x06,0x3a,0x06,0x45,0x54,0x3a,0x0b,0x40,0x70,0x69,0x74,0x63,0x68,0x69,0x69,0x3a,0x0c,0x40,0x76,0x6f,0x6c,0x75,0x6d,0x65,0x69,0x55))
Wait(60)
ShowMessageFace("",0,0,2,1)
ShowMessage("At that moment, the five o'clock bell rings in the castle.")
241(bytes(0x04,0x08,0x6f,0x3a,0x0d,0x52,0x50,0x47,0x3a,0x3a,0x42,0x47,0x4d,0x08,0x3a,0x0a,0x40,0x6e,0x61,0x6d,0x65,0x49,0x22,0x09,0x65,0x72,0x6f,0x31,0x06,0x3a,0x06,0x45,0x54,0x3a,0x0c,0x40,0x76,0x6f,0x6c,0x75,0x6d,0x65,0x69,0x69,0x3a,0x0b,0x40,0x70,0x69,0x74,0x63,0x68,0x69,0x69))
ShowMessageFace("nanabi_fc1",0,0,2,2)
ShowMessage("\\n<Nanabi>")
ShowMessage("It's about time for dinner.")
ShowMessage("Let me have some of your semen...")
ShowMessageFace("",0,0,2,3)
ShowMessage("\\n<Luka>")
ShowMessage("N-no way...!")
245(bytes(0x04,0x08,0x6f,0x3a,0x0d,0x52,0x50,0x47,0x3a,0x3a,0x42,0x47,0x53,0x08,0x3a,0x0a,0x40,0x6e,0x61,0x6d,0x65,0x49,0x22,0x17,0x6d,0x6f,0x6e,0x5f,0x68,0x73,0x65,0x61,0x6e,0x31,0x37,0x5f,0x73,0x69,0x67,0x6f,0x6b,0x69,0x06,0x3a,0x06,0x45,0x54,0x3a,0x0c,0x40,0x76,0x6f,0x6c,0x75,0x6d,0x65,0x69,0x55,0x3a,0x0b,0x40,0x70,0x69,0x74,0x63,0x68,0x69,0x69))
PictureDisplay(5,"ev_nanabi_hb1",0,0,0,0,100,100,255,0)
ShowMessageFace("",0,0,2,4)
ShowMessage("Nanabi removes my clothes in an instant――")
ShowMessage("And firmly embraces me with her voluptuous body.")
ShowMessageFace("nanabi_fc1",0,0,2,5)
ShowMessage("\\n<Nanabi>")
ShowMessage("I will caress you with my hands like this...")
ShowMessage("So give me plenty of semen.")
ShowMessageFace("",0,0,2,6)
ShowMessage("Her soft palm strokes my penis up and down――")
ShowMessage("My body shivers at her skillful movements.")
ShowMessageFace("",0,0,2,7)
ShowMessage("\\n<Luka>")
ShowMessage("Hauu...!")
ShowMessageFace("nanabi_fc1",0,0,2,8)
ShowMessage("\\n<Nanabi>")
ShowMessage("Now, let it out in my hand...")
ShowMessage("While I pet you with all my affection.")
ShowMessageFace("",0,0,2,9)
ShowMessage("Her palm gives my penis a soft massage...")
ShowMessage("Occasionally grasping my glans.")
ShowMessageFace("",0,0,2,10)
ShowMessage("I surrender myself completely to her skillful technique―")
ShowMessage("As I entrust my body to Nanabi, a strong sensation rises up―")
ShowMessageFace("",0,0,2,11)
ShowMessage("\\n<Luka>")
ShowMessage("I-I'm cumming... Aaah!")
RunCommonEvent(104)
RunCommonEvent(105)
ShowMessageFace("",0,0,2,12)
ShowMessage("My penis pulsates within Nanabi's soft palm――")
ShowMessage("And fills the inside of her hand with semen.")
ShowMessageFace("",0,0,2,13)
ShowMessage("\\n<Luka>")
ShowMessage("Hauuuu...")
ShowMessageFace("nanabi_fc1",0,0,2,14)
ShowMessage("\\n<Nanabi>")
ShowMessage("Fufu, did it feel good?")
ShowMessage("But, you can still give me some more...")
ShowMessageFace("",0,0,2,15)
ShowMessage("\\n<Luka>")
ShowMessage("Nooo―― Hauu!")
ShowMessageFace("",0,0,2,16)
ShowMessage("And so, Nanabi kept playing with my penis――")
ShowMessage("Semen shoots up whenever her palm rubs against my glans.")
ShowMessageFace("",0,0,2,17)
ShowMessage("As her hands are dripping with sperm,")
ShowMessage("my exhausted consciousness fades away――")
221()
PictureClear(5)
242(1)
246(1)
ShowMessageFace("",0,0,2,18)
ShowMessage("・・・・・・・・")
221()
Wait(120)
If(0,443,0)
 EndEventProcessing()
 0()
EndIf()
RunCommonEvent(541)
0()
