// EVENT 4211
Name "Harpy Sisters 1"

If(0,25,1)
 221()
 PictureClear(5)
 PictureClear(6)
 ShowMessageFace("",0,0,2,0)
 ShowMessage("......")
 242(2)
 Wait(120)
 241(bytes(0x04,0x08,0x6f,0x3a,0x0d,0x52,0x50,0x47,0x3a,0x3a,0x42,0x47,0x4d,0x08,0x3a,0x0a,0x40,0x6e,0x61,0x6d,0x65,0x49,0x22,0x0c,0x63,0x61,0x73,0x74,0x6c,0x65,0x36,0x06,0x3a,0x06,0x45,0x54,0x3a,0x0c,0x40,0x76,0x6f,0x6c,0x75,0x6d,0x65,0x69,0x69,0x3a,0x0b,0x40,0x70,0x69,0x74,0x63,0x68,0x69,0x69))
 EndEventProcessing()
 0()
EndIf()
PictureDisplay(5,"80_hapy_bc_st02",0,0,0,0,100,100,255,0)
ShowMessageFace("hapy_bc_fc1",1,0,2,1)
ShowMessage("\\n<Pina>You want to have sex with us?\n...It's up to you, Pii.")
ShowMessageFace("hapy_bc_fc1",1,0,2,2)
ShowMessage("\\n<Pii>...okay.")
ShowMessageFace("hapy_bc_fc1",1,0,2,3)
ShowMessage("\\n<Pina>All right then. Let's use our room.")
ShowMessageFace("",0,0,2,4)
ShowMessage("Thus, I was invited back to the sisters' room.")
221()
PictureDisplay(1,"bg195",0,0,0,0,100,100,255,0)
PictureDisplay(5,"80_hapy_bc_st02",0,0,0,0,100,100,255,0)
222()
241(bytes(0x04,0x08,0x6f,0x3a,0x0d,0x52,0x50,0x47,0x3a,0x3a,0x42,0x47,0x4d,0x08,0x3a,0x0a,0x40,0x6e,0x61,0x6d,0x65,0x49,0x22,0x09,0x65,0x72,0x6f,0x31,0x06,0x3a,0x06,0x45,0x54,0x3a,0x0c,0x40,0x76,0x6f,0x6c,0x75,0x6d,0x65,0x69,0x69,0x3a,0x0b,0x40,0x70,0x69,0x74,0x63,0x68,0x69,0x69))
ShowMessageFace("hapy_bc_fc1",1,0,2,5)
ShowMessage("\\n<Pina>How about starting with your mouth for a bit?")
ShowMessageFace("hapy_bc_fc1",1,0,2,6)
ShowMessage("\\n<Pii>Ok... I'll do my best!")
PictureDisplay(5,"ev_hapy_bc_ha1",0,0,0,0,100,100,255,0)
ShowMessageFace("",0,0,2,7)
ShowMessage("The two harpies kneel down and stare at my dick up close.")
ShowMessageFace("hapy_bc_fc1",1,0,2,8)
ShowMessage("\\n<Pina>Uwa... It's standing up!\nSis... I want to eat it...")
ShowMessageFace("hapy_bc_fc1",1,0,2,9)
ShowMessage("\\n<Pii>*Sniff* *Sniff*")
ShowMessageFace("",0,0,2,10)
ShowMessage("The younger sister Pii puts her nose next to my erect penis and sniffs it. Despite the shame, I feel myself getting harder with expectation.")
ShowMessageFace("",0,0,2,11)
ShowMessage("Increasing the excitement is the older sister Pina's breasts pushing down at the base of my penis.")
ShowMessageFace("hapy_bc_fc1",1,0,2,13)
ShowMessage("\\n<Pii>It smells a little strange...")
ShowMessageFace("hapy_bc_fc1",1,0,2,14)
ShowMessage("\\n<Pina>Well, have you ever seen Luka in the bath?\nWhy don't you try giving it a lick anyway?")
PictureDisplay(5,"ev_hapy_bc_ha2",0,0,0,0,100,100,255,0)
ShowMessageFace("hapy_bc_fc1",1,0,2,15)
ShowMessage("\\n<Pii>Ok...\nMmm... *Lick*")
ShowMessageFace("",0,0,2,16)
ShowMessage("Pii timidly sticks out her tongue and licks me.")
ShowMessage("Her hesitant tongue slowly licks me from the base to the tip.")
ShowMessageFace("",0,0,2,17)
ShowMessage("\\n<Luka>Ahh...")
ShowMessageFace("hapy_bc_fc1",1,0,2,18)
ShowMessage("\\n<Pii>Wah...")
ShowMessageFace("",0,0,2,19)
ShowMessage("Her gentle licking causes my waist to involuntarily move, hitting her lip with my penis.")
ShowMessage("The soft feeling of her mouth makes me let out a sigh.")
ShowMessageFace("hapy_bc_fc1",1,0,2,20)
ShowMessage("\\n<Pii>*Lick*\n*Lick* *Lick*")
ShowMessageFace("",0,0,2,21)
ShowMessage("Pii starts to lick me a little harder.")
ShowMessageFace("hapy_bc_fc1",1,0,2,22)
ShowMessage("\\n<Pina>That's it... You're doing great.\nGive him more.")
ShowMessageFace("",0,0,2,23)
ShowMessage("\\n<Luka>Auu... Ahh...")
ShowMessageFace("",0,0,2,24)
ShowMessage("Pii looks at my face as she licks, seeing how I react to each of her caresses.")
ShowMessageFace("",0,0,2,25)
ShowMessage("With Pii's saliva covering me, and Pina's soft breasts pushing into me, I feel myself moving closer to the edge.")
ShowMessageFace("",0,0,2,28)
ShowMessage("\\n<Luka>Ahhh.....")
ShowMessageFace("hapy_bc_fc1",1,0,2,29)
ShowMessage("\\n<Pina>It's about time...\nNow try licking the back of his penis.")
ShowMessageFace("hapy_bc_fc1",1,0,2,30)
ShowMessage("\\n<Pii>Ok... *Lick*")
ShowMessageFace("",0,0,2,31)
ShowMessage("Pii starts focusing on one of the most sensitive parts...")
ShowMessage("Her gentle licking sends me over the edge.")
ShowMessageFace("",0,0,2,32)
ShowMessage("\\n<Luka>Ahhhh!")
RunCommonEvent(104)
PictureDisplay(5,"ev_hapy_bc_ha3",0,0,0,0,100,100,255,0)
RunCommonEvent(105)
ShowMessageFace("hapy_bc_fc1",1,0,2,33)
ShowMessage("\\n<Pii>Hya!?")
ShowMessageFace("",0,0,2,34)
ShowMessage("Unable to hold it in any longer, my semen shoots out and covers Pii's face.")
PictureDisplay(5,"ev_hapy_bc_ha4",0,0,0,0,100,100,255,0)
ShowMessageFace("hapy_bc_fc1",1,0,2,35)
ShowMessage("\\n<Pii>Mmm... I drank a little...")
ShowMessageFace("hapy_bc_fc1",1,0,2,36)
ShowMessage("\\n<Pina>Fufu... How did it taste?")
ShowMessageFace("hapy_bc_fc1",1,0,2,37)
ShowMessage("\\n<Pii>Bitter... But somehow, really good...")
ShowMessageFace("",0,0,2,38)
ShowMessage("\\n<Luka>..............")
ShowMessageFace("",0,0,2,39)
ShowMessage("So Pii managed to make me come with her first ever blowjob. As the harpy sisters review the session together, I slip out of the room, disappointed in myself.")
221()
PictureClear(5)
PictureClear(6)
246(2)
ShowMessageFace("",0,0,2,40)
ShowMessage("..............")
242(2)
Wait(120)
241(bytes(0x04,0x08,0x6f,0x3a,0x0d,0x52,0x50,0x47,0x3a,0x3a,0x42,0x47,0x4d,0x08,0x3a,0x0a,0x40,0x6e,0x61,0x6d,0x65,0x49,0x22,0x0c,0x63,0x61,0x73,0x74,0x6c,0x65,0x36,0x06,0x3a,0x06,0x45,0x54,0x3a,0x0c,0x40,0x76,0x6f,0x6c,0x75,0x6d,0x65,0x69,0x69,0x3a,0x0b,0x40,0x70,0x69,0x74,0x63,0x68,0x69,0x69))
0()
