﻿// EVENT 5798
Name "R Cassandra (Young)"

If(0,443,0)
 PictureDisplay(5,"80_cassandra_st21",0,0,0,0,100,100,255,0)
 0()
EndIf()
241(bytes(0x04,0x08,0x6f,0x3a,0x0d,0x52,0x50,0x47,0x3a,0x3a,0x42,0x47,0x4d,0x08,0x3a,0x0a,0x40,0x6e,0x61,0x6d,0x65,0x49,0x22,0x09,0x65,0x72,0x6f,0x31,0x06,0x3a,0x06,0x45,0x54,0x3a,0x0c,0x40,0x76,0x6f,0x6c,0x75,0x6d,0x65,0x69,0x69,0x3a,0x0b,0x40,0x70,0x69,0x74,0x63,0x68,0x69,0x69))
ShowMessageFace("cassandra_fc1",5,0,2,1)
ShowMessage("\\n<Cassandra>Thank you very much.\nNow then, let's get to it...")
ShowMessageFace("",0,0,2,2)
ShowMessage("The dress-shaped slime that Cassandra is wearing...\nIt's squirming and approaching me!")
ShowMessageFace("",0,0,2,3)
ShowMessage("\\n<Luka>Huh? So that's what you meant by... Uwah!")
245(bytes(0x04,0x08,0x6f,0x3a,0x0d,0x52,0x50,0x47,0x3a,0x3a,0x42,0x47,0x53,0x08,0x3a,0x0a,0x40,0x6e,0x61,0x6d,0x65,0x49,0x22,0x17,0x6d,0x6f,0x6e,0x5f,0x68,0x73,0x65,0x61,0x6e,0x31,0x38,0x5f,0x73,0x6c,0x69,0x6d,0x65,0x31,0x06,0x3a,0x06,0x45,0x54,0x3a,0x0c,0x40,0x76,0x6f,0x6c,0x75,0x6d,0x65,0x69,0x55,0x3a,0x0b,0x40,0x70,0x69,0x74,0x63,0x68,0x69,0x69))
PictureDisplay(5,"ev_cassandra_hh1",0,0,0,0,100,100,255,0)
ShowMessageFace("cassandra_fc1",5,0,2,4)
ShowMessage("\\n<Cassandra>Hehehe... I was talking about sucking out your semen, of course.\nIsn't that what you desired as well?")
ShowMessageFace("",0,0,2,5)
ShowMessage("\\n<Luka>Ugh...")
ShowMessageFace("",0,0,2,6)
ShowMessage("My whole body is wrapped in a thick layer of sticky flesh.\nThe slime-like flesh undulates and caresses me lovingly.")
ShowMessageFace("",0,0,2,7)
ShowMessage("\\n<Luka>That's... Ahhh...")
PictureDisplay(5,"ev_cassandra_hh2",0,0,0,0,100,100,255,0)
ShowMessageFace("",0,0,2,8)
ShowMessage("My erect penis is also wrapped in that sticky meat.\nShe gently rubs and massages it...")
ShowMessageFace("",0,0,2,9)
ShowMessage("\\n<Luka>Ahhh...!")
ShowMessageFace("cassandra_fc1",5,0,2,10)
ShowMessage("\\n<Cassandra>Now, go ahead and ejaculate.\nIf I receive your semen, it should considerably restore my power...")
ShowMessageFace("",0,0,2,11)
ShowMessage("Her wet and squirming flesh stimulates my penis.\nThe pleasant sensation quickly becomes too much for me to bear...")
ShowMessageFace("",0,0,2,12)
ShowMessage("\\n<Luka>I'm coming... Ahhh!!")
RunCommonEvent(104)
PictureDisplay(5,"ev_cassandra_hh3",0,0,0,0,100,100,255,0)
RunCommonEvent(105)
ShowMessageFace("",0,0,2,13)
ShowMessage("Unfortunately, I shoot my load into her slime-like flesh.\nThe flowing mass of meat clings to my penis and keeps stimulating it.")
ShowMessageFace("cassandra_fc1",5,0,2,14)
ShowMessage("\\n<Cassandra>One shot doesn't seem to be enough...\nThen I'll get some more out of you.")
ShowMessageFace("",0,0,2,15)
ShowMessage("\\n<Luka>Y-you can't... Ahhh!!")
ShowMessageFace("",0,0,2,16)
ShowMessage("The sticky, wet flesh wraps around my whole body and sensually rubs it.\nIt's like my whole body is being softly chewed.")
ShowMessageFace("",0,0,2,17)
ShowMessage("Even my dick is immersed in its sweet movements...\nBefore long, I surrender myself to the pleasure...")
ShowMessageFace("",0,0,2,18)
ShowMessage("\\n<Luka>I'm going to come again... Ahhh...")
RunCommonEvent(104)
PictureDisplay(5,"ev_cassandra_hh4",0,0,0,0,100,100,255,0)
RunCommonEvent(105)
ShowMessageFace("",0,0,2,19)
ShowMessage("I shoot it out inside her slimy flesh for the second time.\nHer meat squeezes my penis and absorbs my semen...")
PictureDisplay(5,"ev_cassandra_hh5",0,0,0,0,100,100,255,0)
ShowMessageFace("cassandra_fc1",5,0,2,20)
ShowMessage("\\n<Cassandra>Hehe, your semen is of really high quality.\nWith this, I should be able to maintain my original appearance for the time being...")
ShowMessageFace("",0,0,2,21)
ShowMessage("\\n<Luka>Ah... Ahh...")
ShowMessageFace("",0,0,2,22)
ShowMessage("I completely lost my strength, wrapped in Cassandra's viscous flesh.\nThen, she made me come over and over again...")
221()
PictureClear(5)
242(1)
246(1)
ShowMessageFace("",0,0,2,23)
ShowMessage("・・・・・・・・")
221()
Wait(120)
241(bytes(0x04,0x08,0x6f,0x3a,0x0d,0x52,0x50,0x47,0x3a,0x3a,0x42,0x47,0x4d,0x08,0x3a,0x0a,0x40,0x6e,0x61,0x6d,0x65,0x49,0x22,0x0c,0x63,0x61,0x73,0x74,0x6c,0x65,0x36,0x06,0x3a,0x06,0x45,0x54,0x3a,0x0c,0x40,0x76,0x6f,0x6c,0x75,0x6d,0x65,0x69,0x69,0x3a,0x0b,0x40,0x70,0x69,0x74,0x63,0x68,0x69,0x69))
If(0,443,0)
 EndEventProcessing()
 0()
EndIf()
EndEventProcessing()
0()
