// EVENT 2067
Name "Seduction: Sister Lamia"

If(0,25,1)
 EndEventProcessing()
 0()
EndIf()
355("$game_troop.lose_event_id = 3067")
ChangeVariable(26,26,0,3,3,1,4)
ChangeVariable(26,26,4,0,10)
ShowMessageFace("sisterlamia_fc1",2,0,2,1)
ShowMessage("\\n<Sister Lamia>Ahh, such violence.\nYou must be starving for love...")
355("battler_graphic_hide")
PictureDisplay(5,"80_sisterlamia_st22",0,0,0,0,100,100,255,0)
ShowMessageFace("",0,0,2,2)
ShowMessage("The Sister Lamia spreads her arms wide, exposing her chest!")
ShowMessageFace("sisterlamia_fc1",1,0,2,3)
ShowMessage("\\n<Sister Lamia>Now, come...\nI shall embrace you with a hug.")
ChangeSwitch(98,98,0)
ChangeSwitch(96,96,0)
ShowChoices(strings("Ignore her","Give in to temptation"),1)
IfPlayerPicksChoice(0,"Ignore her")
 ShowMessageFace("sisterlamia_fc1",2,0,2,4)
 ShowMessage("\\n<Sister Lamia>Ara... So you don't wish to be hugged?")
 PictureClear(5)
 355("battler_graphic_show")
 ShowMessageFace("",0,0,2,5)
 ShowMessage("The Lamia puts her hands back down.")
 RunCommonEvent(1999)
 EndEventProcessing()
 0()
IfPlayerPicksChoice(1,"誘惑に乗る")
 0()
404()
ShowMessageFace("",0,0,2,6)
ShowMessage("She's spreading her arms wide, baring her breasts.")
ShowMessage("Unable to hold back, I jump into her embrace.")
ShowMessageFace("sisterlamia_fc1",1,0,2,7)
ShowMessage("\\n<Sister Lamia>Fufu... You came.\nNow let me give you the greatest of joys.")
250(bytes(0x04,0x08,0x6f,0x3a,0x0c,0x52,0x50,0x47,0x3a,0x3a,0x53,0x45,0x08,0x3a,0x0a,0x40,0x6e,0x61,0x6d,0x65,0x49,0x22,0x16,0x6d,0x6f,0x6e,0x5f,0x65,0x72,0x6f,0x5f,0x6d,0x61,0x6b,0x69,0x74,0x75,0x6b,0x69,0x33,0x06,0x3a,0x06,0x45,0x54,0x3a,0x0b,0x40,0x70,0x69,0x74,0x63,0x68,0x69,0x69,0x3a,0x0c,0x40,0x76,0x6f,0x6c,0x75,0x6d,0x65,0x69,0x69))
PictureDisplay(5,"ev_sisterlamia_h1",0,0,0,0,100,100,255,0)
ShowMessageFace("",0,0,2,8)
ShowMessage("The Sister Lamia wraps her snake body around Luka!")
ShowMessage("Luka's face is buried in her chest!")
ShowMessage("Luka has been bound by the Sister Lamia!")
ShowMessageFace("",0,0,2,9)
ShowMessage("\\n<Luka>Ah, unnngh...!")
ShowMessageFace("sisterlamia_fc1",1,0,2,10)
ShowMessage("\\n<Sister Lamia>Even if you struggle, you can't break away.\nI shall give you a taste of heaven now...")
ChangeVariable(26,26,3,0,4)
250(bytes(0x04,0x08,0x6f,0x3a,0x0c,0x52,0x50,0x47,0x3a,0x3a,0x53,0x45,0x08,0x3a,0x0a,0x40,0x6e,0x61,0x6d,0x65,0x49,0x22,0x11,0x6d,0x6f,0x6e,0x5f,0x65,0x72,0x6f,0x5f,0x70,0x79,0x75,0x31,0x06,0x3a,0x06,0x45,0x54,0x3a,0x0b,0x40,0x70,0x69,0x74,0x63,0x68,0x69,0x69,0x3a,0x0c,0x40,0x76,0x6f,0x6c,0x75,0x6d,0x65,0x69,0x69))
PictureDisplay(6,"ev_sisterlamia_ct01",0,0,0,0,100,100,255,0)
311(0,1,1,1,26,true)
ShowMessageFace("",0,0,2,11)
ShowMessage("The Sister Lamia presses her waist against Luka!")
ShowMessage("She takes Luka inside of her!\\D")
ShowMessage("Luka takes \\V[26] damage!")
ChangeVariable(27,27,0,3,3,1,2)
If(1,27,0,0,0)
 JumpToLabel("射精1")
 0()
EndIf()
ShowMessageFace("",0,0,2,12)
ShowMessage("\\n<Luka>Ah, aaaaaah!!")
ShowMessageFace("",0,0,2,13)
ShowMessage("Her tight, wet vagina closes around me.")
ShowMessage("With my face against her breasts, I can only tremble in pleasure.")
ShowMessageFace("sisterlamia_fc1",1,0,2,14)
ShowMessage("\\n<Sister Lamia>I've hugged many, and shown them pleasure.\nNo man has been able to avoid finishing in my embrace... Fufu.")
250(bytes(0x04,0x08,0x6f,0x3a,0x0c,0x52,0x50,0x47,0x3a,0x3a,0x53,0x45,0x08,0x3a,0x0a,0x40,0x6e,0x61,0x6d,0x65,0x49,0x22,0x13,0x6d,0x6f,0x6e,0x5f,0x65,0x72,0x6f,0x5f,0x63,0x68,0x75,0x70,0x61,0x34,0x06,0x3a,0x06,0x45,0x54,0x3a,0x0b,0x40,0x70,0x69,0x74,0x63,0x68,0x69,0x69,0x3a,0x0c,0x40,0x76,0x6f,0x6c,0x75,0x6d,0x65,0x69,0x69))
311(0,1,1,1,26,true)
ShowMessageFace("",0,0,2,15)
ShowMessage("The Lamia hugs Luka tightly, squeezing his penis inside her!")
ShowMessage("Her wet flesh rubs against his penis!\\D")
ShowMessage("Luka takes \\V[26] damage!")
ChangeVariable(27,27,0,3,3,1,2)
If(1,27,0,0,0)
 JumpToLabel("射精2")
 0()
EndIf()
ShowMessageFace("sisterlamia_fc1",1,0,2,16)
ShowMessage("\\n<Sister Lamia>I shall tighten inside, as well.\nThere's no enduring it. Fufufu...")
250(bytes(0x04,0x08,0x6f,0x3a,0x0c,0x52,0x50,0x47,0x3a,0x3a,0x53,0x45,0x08,0x3a,0x0a,0x40,0x6e,0x61,0x6d,0x65,0x49,0x22,0x13,0x6d,0x6f,0x6e,0x5f,0x65,0x72,0x6f,0x5f,0x63,0x68,0x75,0x70,0x61,0x34,0x06,0x3a,0x06,0x45,0x54,0x3a,0x0b,0x40,0x70,0x69,0x74,0x63,0x68,0x69,0x69,0x3a,0x0c,0x40,0x76,0x6f,0x6c,0x75,0x6d,0x65,0x69,0x69))
311(0,1,1,1,26,true)
ShowMessageFace("",0,0,2,17)
ShowMessage("The Sister Lamia tightens around Luka's penis!")
ShowMessage("Her incredible vagina forces Luka over the edge all at once!\\D")
ShowMessage("Luka takes \\V[26] damage!")
ChangeVariable(27,27,0,3,3,1,2)
If(1,27,0,0,0)
 JumpToLabel("射精2")
 0()
EndIf()
DefineLabel("射精1")
ShowMessageFace("",0,0,2,18)
ShowMessage("\\n<Luka>Oh no, I'm coming... Aaah...")
RunCommonEvent(104)
PictureDisplay(5,"ev_sisterlamia_h2",0,0,0,0,100,100,255,0)
PictureDisplay(6,"ev_sisterlamia_ct02",0,0,0,0,100,100,255,0)
RunCommonEvent(105)
ShowMessageFace("",0,0,2,19)
ShowMessage("Unable to endure her tight vagina, I come.")
ShowMessage("I came just from insertion...")
ShowMessageFace("sisterlamia_fc1",1,0,2,20)
ShowMessage("\\n<Sister Lamia>Fufu... To think you'd come that fast.\nDid it feel that good? Fufu...")
RunCommonEvent(2000)
EndEventProcessing()
DefineLabel("射精2")
ShowMessageFace("",0,0,2,21)
ShowMessage("\\n<Luka>That feels good...Aaah...")
RunCommonEvent(104)
PictureDisplay(5,"ev_sisterlamia_h2",0,0,0,0,100,100,255,0)
PictureDisplay(6,"ev_sisterlamia_ct02",0,0,0,0,100,100,255,0)
RunCommonEvent(105)
ShowMessageFace("",0,0,2,22)
ShowMessage("Unable to endure her tight vagina, I come.")
ShowMessage("My semen pours into her.")
ShowMessageFace("sisterlamia_fc1",1,0,2,23)
ShowMessage("\\n<Sister Lamia>Fufu... The proof of your joy is inside me.\nIf you came that much, you must have truly loved it.")
RunCommonEvent(2000)
EndEventProcessing()
0()
