// EVENT 7163
Name "Salaan: Defeat"

ShowMessageFace("mob_assasin1_fc1",1,0,2,1)
ShowMessage("\\n<Salaan>It's my victory.\nAbout the bet...?")
If(0,443,1)
 125(1,0,500)
 0()
EndIf()
ShowMessageFace("",0,0,2,2)
ShowMessage("Luka hands over 500G!")
ShowMessageFace("mob_assasin1_fc1",1,0,2,3)
ShowMessage("\\n<Salaan>If you're frustrated, challenge me again.\nI'll make you come any number of times...")
If(0,443,0)
 EndEventProcessing()
 0()
EndIf()
If(0,2331,1)
 PictureClear(5)
 320(66,"Vanilla")
 322(66,"Evil01_cip",0,"vgirl_fc1",0)
 ChangeSwitch(100,100,1)
 281(1)
 250(bytes(0x04,0x08,0x6f,0x3a,0x0c,0x52,0x50,0x47,0x3a,0x3a,0x53,0x45,0x08,0x3a,0x0a,0x40,0x6e,0x61,0x6d,0x65,0x49,0x22,0x09,0x4d,0x6f,0x76,0x65,0x06,0x3a,0x06,0x45,0x54,0x3a,0x0b,0x40,0x70,0x69,0x74,0x63,0x68,0x69,0x69,0x3a,0x0c,0x40,0x76,0x6f,0x6c,0x75,0x6d,0x65,0x69,0x55))
 TeleportPlayer(0,476,16,43,2,0)
 216(0)
 0()
EndIf()
EndEventProcessing()
0()
