// EVENT 0040
Name "Skill: Play 1-10"

ChangeVariable(11,11,0,2,1,5)
If(1,100,0,1,0)
 ChangeVariable(11,11,0,2,1,15)
 If(1,11,0,1,0)
  ShowMessageFace("ruka_fc1",0,0,2,1)
  ShowMessage("\\n<Luka>Eh, my hands are free at the moment.\nMight as well do so some cooking. And... that'll do it.")
  ShowMessageFace("",0,0,2,2)
  ShowMessage("Luka fries an egg in record time!")
  250(bytes(0x04,0x08,0x6f,0x3a,0x0c,0x52,0x50,0x47,0x3a,0x3a,0x53,0x45,0x08,0x3a,0x0a,0x40,0x6e,0x61,0x6d,0x65,0x49,0x22,0x0a,0x49,0x74,0x65,0x6d,0x31,0x06,0x3a,0x06,0x45,0x54,0x3a,0x0b,0x40,0x70,0x69,0x74,0x63,0x68,0x69,0x69,0x3a,0x0c,0x40,0x76,0x6f,0x6c,0x75,0x6d,0x65,0x69,0x55))
  ChangeInventory_Item(375,0,0,1)
  ShowMessageFace("",0,0,2,3)
  ShowMessage("You obtain a \\ii[375]!")
  EndEventProcessing()
  0()
 EndIf()
 If(1,11,0,2,0)
  ShowMessageFace("ruka_fc1",0,0,2,4)
  ShowMessage("\\n<Luka>Hehehehe...")
  355("interrupt_skill(3507)")
  EndEventProcessing()
  0()
 EndIf()
 If(1,11,0,3,0)
  ShowMessageFace("ruka_fc1",0,0,2,5)
  ShowMessage("\\n<Luka>Hiyaah!")
  355("interrupt_skill(3292)")
  EndEventProcessing()
  0()
 EndIf()
 If(1,11,0,4,0)
  ShowMessageFace("ruka_fc1",0,0,2,6)
  ShowMessage("\\n<Luka>......")
  ShowMessageFace("",0,0,2,7)
  ShowMessage("Luka takes a peek at his party members' breasts...")
  EndEventProcessing()
  0()
 EndIf()
 If(1,11,0,5,0)
  ShowMessageFace("ruka_fc1",0,0,2,8)
  ShowMessage("\\n<Luka>Booya!")
  ShowMessageFace("",0,0,2,9)
  ShowMessage("Luka strikes a cool pose!")
  ShowMessage("But no one is looking.")
  EndEventProcessing()
  0()
 EndIf()
 If(1,11,0,6,0)
  ShowMessageFace("ruka_fc1",0,0,2,10)
  ShowMessage("\\n<Luka>My blade is the bane of evil!\n...Meh, that doesn't really sound right.")
  ShowMessageFace("",0,0,2,11)
  ShowMessage("Luka is practicing some cool lines!")
  EndEventProcessing()
  0()
 EndIf()
 If(1,11,0,7,0)
  ShowMessageFace("ruka_fc1",0,0,2,12)
  ShowMessage("\\n<Luka>Ya!")
  355("interrupt_skill(3291)")
  EndEventProcessing()
  0()
 EndIf()
 If(1,11,0,8,0)
  ShowMessageFace("ruka_fc1",0,0,2,13)
  ShowMessage("\\n<Luka>Ya!")
  ShowMessageFace("",0,0,2,14)
  ShowMessage("Luka is practicing swinging his weapon!")
  EndEventProcessing()
  0()
 EndIf()
 If(1,11,0,9,0)
  ShowMessageFace("ruka_fc1",0,0,2,15)
  ShowMessage("\\n<Luka>Oh crap...! ...Ow!")
  355("interrupt_skill(3293)")
  EndEventProcessing()
  0()
 EndIf()
 If(1,11,0,10,0)
  ShowMessageFace("ruka_fc1",0,0,2,16)
  ShowMessage("\\n<Luka>Look guys, I found a big one!")
  ShowMessageFace("",0,0,2,17)
  ShowMessage("Luka picks up a beetle.")
  250(bytes(0x04,0x08,0x6f,0x3a,0x0c,0x52,0x50,0x47,0x3a,0x3a,0x53,0x45,0x08,0x3a,0x0a,0x40,0x6e,0x61,0x6d,0x65,0x49,0x22,0x0a,0x49,0x74,0x65,0x6d,0x31,0x06,0x3a,0x06,0x45,0x54,0x3a,0x0b,0x40,0x70,0x69,0x74,0x63,0x68,0x69,0x69,0x3a,0x0c,0x40,0x76,0x6f,0x6c,0x75,0x6d,0x65,0x69,0x55))
  ChangeInventory_Item(448,0,0,1)
  ShowMessageFace("",0,0,2,18)
  ShowMessage("You obtain a \\ii[448]!")
  EndEventProcessing()
  0()
 EndIf()
 If(1,11,0,11,0)
  ShowMessageFace("ruka_fc1",0,0,2,19)
  ShowMessage("\\n<Luka>Okay, let's do this!")
  355("interrupt_skill(3294)")
  EndEventProcessing()
  0()
 EndIf()
 If(1,11,0,12,0)
  ShowMessageFace("ruka_fc1",0,0,2,20)
  ShowMessage("\\n<Luka>Hehehe...")
  ShowMessageFace("",0,0,2,21)
  ShowMessage("Luka grins like an idiot!")
  EndEventProcessing()
  0()
 EndIf()
 If(1,11,0,13,0)
  ShowMessageFace("ruka_fc1",0,0,2,22)
  ShowMessage("\\n<Luka>......")
  355("interrupt_skill(3296)")
  EndEventProcessing()
  0()
 EndIf()
 If(1,11,0,14,0)
  ShowMessageFace("ruka_fc1",0,0,2,23)
  ShowMessage("\\n<Luka>The world shall be mine!")
  ShowMessageFace("",0,0,2,24)
  ShowMessage("Luka makes a bold declaration!")
  ShowMessage("But no one is listening...")
  EndEventProcessing()
  0()
 EndIf()
 If(1,11,0,15,0)
  ShowMessageFace("ruka_fc1",0,0,2,25)
  ShowMessage("\\n<Luka>...")
  ShowMessageFace("",0,0,2,26)
  ShowMessage("Luka thinks naughty thoughts.")
  313(0,1,0,24)
  ShowMessageFace("",0,0,2,27)
  ShowMessage("Luka gets horny!")
  EndEventProcessing()
  0()
 EndIf()
 0()
EndIf()
If(1,100,0,5,0)
 ChangeVariable(11,11,0,2,1,10)
 If(1,11,0,1,0)
  ShowMessageFace("alice_fc5",1,0,2,28)
  ShowMessage("\\n<Alice>I'm kind of hungry, I think I'll have a snack.\nI'm only taking this food because I need it, okay?")
  ShowMessageFace("",0,0,2,29)
  ShowMessage("Alice steals some food out of the item sack and eats it!")
  EndEventProcessing()
  0()
 EndIf()
 If(1,11,0,2,0)
  ShowMessageFace("alice_fc5",1,0,2,30)
  ShowMessage("\\n<Alice>Hey, not bad.\nI might be able to make it as an artist.")
  ShowMessageFace("",0,0,2,31)
  ShowMessage("Alice is drawing doodles in the sand.")
  EndEventProcessing()
  0()
 EndIf()
 If(1,11,0,3,0)
  ShowMessageFace("alice_fc5",7,0,2,32)
  ShowMessage("\\n<Alice>...")
  ShowMessageFace("",0,0,2,33)
  ShowMessage("Alice flashes a smile!")
  ShowMessage("But nothing happens.")
  EndEventProcessing()
  0()
 EndIf()
 If(1,11,0,4,0)
  ShowMessageFace("alice_fc5",7,0,2,34)
  ShowMessage("\\n<Alice>...")
  ShowMessageFace("",0,0,2,35)
  ShowMessage("Alice thinks about tonight's dinner menu.")
  313(0,5,0,25)
  ShowMessageFace("",0,0,2,36)
  ShowMessage("Alice enters a trance!")
  EndEventProcessing()
  0()
 EndIf()
 If(1,11,0,5,0)
  ShowMessageFace("alice_fc5",2,0,2,37)
  ShowMessage("\\n<Alice>Hey, I'm hungry! Where's my food?")
  ShowMessageFace("",0,0,2,38)
  ShowMessage("Alice bangs chopsticks against a teacup and demands food.")
  ShowMessage("But no one pays her any attention.")
  313(0,5,0,11)
  ShowMessageFace("",0,0,2,39)
  ShowMessage("After pouting for a while, Alice falls asleep.")
  EndEventProcessing()
  0()
 EndIf()
 If(1,11,0,6,0)
  ShowMessageFace("alice_fc5",1,0,2,40)
  ShowMessage("\\n<Alice>Mwahaha, I hope I catch a kitsune.")
  355("interrupt_skill(3297)")
  EndEventProcessing()
  0()
 EndIf()
 If(1,11,0,7,0)
  ShowMessageFace("alice_fc5",1,0,2,41)
  ShowMessage("\\n<Alice>Mwahaha, I hope I catch a kitsune.")
  355("interrupt_skill(3298)")
  EndEventProcessing()
  0()
 EndIf()
 If(1,11,0,8,0)
  ShowMessageFace("alice_fc5",1,0,2,42)
  ShowMessage("\\n<Alice>Heh heh...")
  ShowMessageFace("",0,0,2,43)
  ShowMessage("Alice is going around picking up rocks!")
  250(bytes(0x04,0x08,0x6f,0x3a,0x0c,0x52,0x50,0x47,0x3a,0x3a,0x53,0x45,0x08,0x3a,0x0a,0x40,0x6e,0x61,0x6d,0x65,0x49,0x22,0x0a,0x49,0x74,0x65,0x6d,0x31,0x06,0x3a,0x06,0x45,0x54,0x3a,0x0b,0x40,0x70,0x69,0x74,0x63,0x68,0x69,0x69,0x3a,0x0c,0x40,0x76,0x6f,0x6c,0x75,0x6d,0x65,0x69,0x55))
  ChangeInventory_Item(449,0,0,1)
  ShowMessageFace("",0,0,2,44)
  ShowMessage("You obtain \\ii[449]!")
  EndEventProcessing()
  0()
 EndIf()
 If(1,11,0,9,0)
  ShowMessageFace("alice_fc5",7,0,2,45)
  ShowMessage("\\n<Alice>Yay! Whoo!")
  ShowMessageFace("",0,0,2,46)
  ShowMessage("Alice is dancing around and singing without a care in the world.")
  EndEventProcessing()
  0()
 EndIf()
 If(1,11,0,10,0)
  ShowMessageFace("alice_fc5",1,0,2,47)
  ShowMessage("\\n<Alice>I hope you give me a lot of delicious fruit for next summer's harvest.")
  355("interrupt_skill(3299)")
  EndEventProcessing()
  0()
 EndIf()
 0()
EndIf()
0()
