﻿// EVENT 5819
Name "R Slug Stars"

If(0,443,0)
 PictureDisplay(5,"80_name2_st01",0,0,0,0,100,100,255,0)
 0()
EndIf()
242(1)
250(bytes(0x04,0x08,0x6f,0x3a,0x0c,0x52,0x50,0x47,0x3a,0x3a,0x53,0x45,0x08,0x3a,0x0a,0x40,0x6e,0x61,0x6d,0x65,0x49,0x22,0x0a,0x7a,0x69,0x68,0x6f,0x75,0x06,0x3a,0x06,0x45,0x54,0x3a,0x0b,0x40,0x70,0x69,0x74,0x63,0x68,0x69,0x69,0x3a,0x0c,0x40,0x76,0x6f,0x6c,0x75,0x6d,0x65,0x69,0x55))
Wait(60)
ShowMessageFace("",0,0,2,1)
ShowMessage("At that moment, the five o'clock bell rings in the castle.")
241(bytes(0x04,0x08,0x6f,0x3a,0x0d,0x52,0x50,0x47,0x3a,0x3a,0x42,0x47,0x4d,0x08,0x3a,0x0a,0x40,0x6e,0x61,0x6d,0x65,0x49,0x22,0x09,0x65,0x72,0x6f,0x31,0x06,0x3a,0x06,0x45,0x54,0x3a,0x0c,0x40,0x76,0x6f,0x6c,0x75,0x6d,0x65,0x69,0x69,0x3a,0x0b,0x40,0x70,0x69,0x74,0x63,0x68,0x69,0x69))
ShowMessageFace("name2_fc2",1,0,2,2)
ShowMessage("\\n<Melty>Now that we're done talking...let's mate.\nCome on, come here...")
ShowMessageFace("",0,0,2,3)
ShowMessage("\\n<Luka>No... You can't...!")
ShowMessageFace("name2_fc2",1,0,2,4)
ShowMessage("\\n<Melty>Huh, you're not coming...?\nThen we'll come over and coil around you...")
ShowMessageFace("",0,0,2,5)
ShowMessage("\\n<Luka>Stooop... Ah, ahhhh...!")
245(bytes(0x04,0x08,0x6f,0x3a,0x0d,0x52,0x50,0x47,0x3a,0x3a,0x42,0x47,0x53,0x08,0x3a,0x0a,0x40,0x6e,0x61,0x6d,0x65,0x49,0x22,0x1a,0x6d,0x6f,0x6e,0x5f,0x68,0x73,0x65,0x61,0x6e,0x32,0x31,0x5f,0x74,0x65,0x6e,0x74,0x61,0x63,0x6c,0x65,0x32,0x06,0x3a,0x06,0x45,0x54,0x3a,0x0c,0x40,0x76,0x6f,0x6c,0x75,0x6d,0x65,0x69,0x55,0x3a,0x0b,0x40,0x70,0x69,0x74,0x63,0x68,0x69,0x69))
PictureDisplay(5,"ev_name2_hc2",0,0,0,0,100,100,255,0)
ShowMessageFace("",0,0,2,6)
ShowMessage("In an instant, they are entangled with my body...\nThen, the three of them stick close to me.")
ShowMessageFace("name2_fc2",1,0,2,7)
ShowMessage("\\n<Melty>Hehe, how does it feel to be in our embrace?\nJust this alone feels like you could ascend to heaven, right...?")
ShowMessageFace("",0,0,2,8)
ShowMessage("\\n<Luka>Ugh... Th-this is...")
ShowMessageFace("",0,0,2,9)
ShowMessage("My entire body is entangled in their slippery, sticky touch...\nIt's like I'm immersed up to my head in a pot of mucus-filled flesh.")
ShowMessageFace("name2_fc2",1,0,2,10)
ShowMessage("\\n<Melty>No matter how much men struggle...\nThey all become docile right away when we do this.")
ShowMessageFace("",0,0,2,11)
ShowMessage("\\n<Luka>Hau... Fuahhh...")
ShowMessageFace("",0,0,2,12)
ShowMessage("They wrap my head with thir soft breasts like they want to bury it in them...\nIt's like I'm drowning in her breasts.")
ShowMessageFace("",0,0,2,13)
ShowMessage("My ability to reason is immediately blown away, and ecstasy takes over my mind.\nMy enlarged penis is also crushed by their slimy, soft bodies...")
RunCommonEvent(104)
RunCommonEvent(105)
ShowMessageFace("",0,0,2,14)
ShowMessage("Semen gushes out as I'm soaked in sweet pleasure.\nI don't even know what's going on with my penis...")
ShowMessageFace("name2_fc2",1,0,2,15)
ShowMessage("\\n<Melty>Oh my, did you come already?\nWe haven't even started mating yet...")
ShowMessageFace("name2_fc2",1,0,2,16)
ShowMessage("\\n<Melty>You let it out in the weirdest places...\nThis time, make sure you cum inside our reproductive organs.")
ShowMessageFace("",0,0,2,17)
ShowMessage("\\n<Luka>Auuuu...")
ShowMessageFace("",0,0,2,18)
ShowMessage("Melty and the others change their positions as they wind their way around my body...")
PictureDisplay(5,"ev_name2_hc1",0,0,0,0,100,100,255,0)
ShowMessageFace("",0,0,2,19)
ShowMessage("My penis sinks into a slippery hole of flesh to the hilt.\nThe slimy mucous membrane envelops my rod all the way to the base...")
ShowMessageFace("",0,0,2,20)
ShowMessage("\\n<Luka>Hau... Ahhhh!!")
ShowMessageFace("name2_fc2",1,0,2,21)
ShowMessage("\\n<Melty>Ahaha, it's in...♪\nCan you guess whose pussy you're in?")
ShowMessageFace("name2_fc2",1,0,2,22)
ShowMessage("\\n<Melty>It'd feel the same no matter whose pussy he's in anyway, right?\nYou're going to shoot your load into all of our pussies until you're out of juice...")
ShowMessageFace("",0,0,2,23)
ShowMessage("\\n<Luka>Auu... Ah, ahhh...!")
ShowMessageFace("",0,0,2,24)
ShowMessage("They lustfully caress my body with theirs covered in threads of mucus...\nAnd even my penis is wrapped in a slimy pot of flesh...")
ShowMessageFace("",0,0,2,25)
ShowMessage("There is no way I could resist such pleasurable sensations.\nMy penis pulses with delight, caught in a slimy whirlpool...")
RunCommonEvent(104)
RunCommonEvent(105)
ShowMessageFace("",0,0,2,26)
ShowMessage("Then, I offer a large amount of my seed to this reproductive hole.\nThe gooey meat hole undulates seductively and greedily squeezes the semen out of my body...")
ShowMessageFace("name2_fc2",1,0,2,27)
ShowMessage("\\n<Melty>Hehe, you came.\nWe're going to keep squeezing you out until you're all used up...")
ShowMessageFace("",0,0,2,28)
ShowMessage("\\n<Luka>N-no way...")
ShowMessageFace("",0,0,2,29)
ShowMessage("Before I know it, Melty and the others are acting differently than usual.\nIt feels like sexual appetite mixed with ruthless cruelty.")
ShowMessageFace("",0,0,2,30)
ShowMessage("Now that I take a closer look, even their colors are different.\nIt's like they're under the influence of an evil will...")
ShowMessageFace("",0,0,2,31)
ShowMessage("\\n<Luka>Perhaps this is also...\nBecause of the space-time anomaly...")
ShowMessageFace("name2_fc2",1,0,2,32)
ShowMessage("\\n<Melty>Huh, you still have time to think of something you shouldn't...?")
ShowMessageFace("name2_fc2",1,0,2,33)
ShowMessage("\\n<Melty>All you have to do is ejaculate without thinking.\nUntil your life is consumed...")
ShowMessageFace("",0,0,2,34)
ShowMessage("\\n<Luka>No... Ah, auuuu!")
RunCommonEvent(104)
RunCommonEvent(105)
ShowMessageFace("",0,0,2,35)
ShowMessage("Thus, I was trapped in a whirlpool of slippery female flesh...\nAs I drowned in the slimy sensation, I was continuously squeezed out.")
221()
PictureClear(5)
242(1)
246(1)
ShowMessageFace("",0,0,2,36)
ShowMessage("・・・・・・・・")
221()
Wait(120)
If(0,443,0)
 EndEventProcessing()
 0()
EndIf()
RunCommonEvent(541)
0()
