﻿// EVENT 3485
Name "Musette"

PictureDisplay(5,"80_muzet_st01",0,0,0,0,100,100,0,0)
PictureMove(5,null,0,0,0,0,100,100,255,0,30,true)
241(bytes(0x04,0x08,0x6f,0x3a,0x0d,0x52,0x50,0x47,0x3a,0x3a,0x42,0x47,0x4d,0x08,0x3a,0x0a,0x40,0x6e,0x61,0x6d,0x65,0x49,0x22,0x09,0x65,0x72,0x6f,0x31,0x06,0x3a,0x06,0x45,0x54,0x3a,0x0c,0x40,0x76,0x6f,0x6c,0x75,0x6d,0x65,0x69,0x69,0x3a,0x0b,0x40,0x70,0x69,0x74,0x63,0x68,0x69,0x69))
ShowMessageFace("",0,0,2,1)
ShowMessage("\\n<Luka>Ahhh...")
ShowMessageFace("muzet_fc1",0,0,2,2)
ShowMessage("\\n<Musette>Fufu... It looks like I could use you as a pawn, boy.\nI'll thoroughly brainwash you.")
ShowMessageFace("muzet_fc1",0,0,2,3)
ShowMessage("\\n<Musette>Bell, Lyla... I will corrupt this boy with pleasure.\nAssist me.")
ShowMessageFace("bell_fc1",0,0,2,4)
ShowMessage("\\n<Bell>Understood, Master Musette.")
ShowMessageFace("lira_fc1",0,0,2,5)
ShowMessage("\\n<Lyla>We will help you...♪")
ShowMessageFace("",0,0,2,6)
ShowMessage("Musette, then Bell and Lyla surround me.\nThe three of them smile sadistically as they look at me, lying down.")
ShowMessageFace("",0,0,2,7)
ShowMessage("\\n<Luka>Ah, ahhhh...")
ShowMessageFace("muzet_fc1",0,0,2,8)
ShowMessage("\\n<Musette>Brace yourself...\nBecause I will torment you a lot.")
ShowMessageFace("",0,0,2,9)
ShowMessage("\\n<Luka>S-stop... Ahhhh!!")
245(bytes(0x04,0x08,0x6f,0x3a,0x0d,0x52,0x50,0x47,0x3a,0x3a,0x42,0x47,0x53,0x08,0x3a,0x0a,0x40,0x6e,0x61,0x6d,0x65,0x49,0x22,0x17,0x6d,0x6f,0x6e,0x5f,0x68,0x73,0x65,0x61,0x6e,0x31,0x37,0x5f,0x73,0x69,0x67,0x6f,0x6b,0x69,0x06,0x3a,0x06,0x45,0x54,0x3a,0x0c,0x40,0x76,0x6f,0x6c,0x75,0x6d,0x65,0x69,0x55,0x3a,0x0b,0x40,0x70,0x69,0x74,0x63,0x68,0x69,0x69))
PictureDisplay(5,"ev_muzet_h1",0,0,0,0,100,100,0,0)
PictureMove(5,null,0,0,0,0,100,100,255,0,30,true)
ShowMessageFace("",0,0,2,10)
ShowMessage("The three demons crowd around me in unison.\nMy head is tightly sandwiched between Bell's and Lyla's asses.")
ShowMessageFace("",0,0,2,11)
ShowMessage("Their warmth and elasticity are enough to rob me of my reason in an instant.\nIn addition, Musette straddles me...")
ShowMessageFace("muzet_fc1",0,0,2,12)
ShowMessage("\\n<Musette>Fufufu... I will rape you.\nTaste the heavenly pleasure.")
ShowMessageFace("",0,0,2,13)
ShowMessage("\\n<Luka>Ah... Ahhhh...!!")
ShowMessageFace("",0,0,2,14)
ShowMessage("Musette drops her hips...\nThen, my thing sinks into her hot vagina.")
245(bytes(0x04,0x08,0x6f,0x3a,0x0d,0x52,0x50,0x47,0x3a,0x3a,0x42,0x47,0x53,0x08,0x3a,0x0a,0x40,0x6e,0x61,0x6d,0x65,0x49,0x22,0x1e,0x6d,0x6f,0x6e,0x5f,0x68,0x73,0x65,0x61,0x6e,0x30,0x35,0x5f,0x69,0x6e,0x6e,0x65,0x72,0x77,0x6f,0x72,0x6b,0x73,0x5f,0x61,0x35,0x06,0x3a,0x06,0x45,0x54,0x3a,0x0c,0x40,0x76,0x6f,0x6c,0x75,0x6d,0x65,0x69,0x55,0x3a,0x0b,0x40,0x70,0x69,0x74,0x63,0x68,0x69,0x69))
ShowMessageFace("",0,0,2,15)
ShowMessage("Her vaginal walls undulate seductively and tighten around my dick.\nThe sweet feeling makes my body shiver.")
ShowMessageFace("bell_fc1",0,0,2,16)
ShowMessage("\\n<Bell>Ahaha, you're feeling it a lot.")
ShowMessageFace("lira_fc1",0,0,2,17)
ShowMessage("\\n<Lyla>It can't be helped. Master Musette is raping him, after all.\nHora, accept your fate and come a lot~♪")
ShowMessageFace("",0,0,2,18)
ShowMessage("Bell and Lyla vigorously press their asses against me.\nIt's as if they are trying to crush my face with their asses.")
ShowMessageFace("",0,0,2,19)
ShowMessage("They playfully put pressure on my face, stimulating me softly...\nAnd my penis tastes melting pleasure inside her bewitching honey pot.")
ShowMessageFace("",0,0,2,20)
ShowMessage("\\n<Luka>Uh... Uhhhh...")
ShowMessageFace("muzet_fc1",0,0,2,21)
ShowMessage("\\n<Musette>Fufu... Hurry up and come.\nI will steal your soul...♪")
ShowMessageFace("",0,0,2,22)
ShowMessage("\\n<Luka>D-don't... Ahhhhh...")
ShowMessageFace("",0,0,2,23)
ShowMessage("Her soft flesh contracts and her honey pot skillfully squeezes my penis.\nThe maddening pleasure makes me ascend instantly...")
RunCommonEvent(104)
PictureDisplay(5,"ev_muzet_h2",0,0,0,0,100,100,255,0)
RunCommonEvent(105)
ShowMessageFace("",0,0,2,24)
ShowMessage("\\n<Luka>Uhhh...")
ShowMessageFace("",0,0,2,25)
ShowMessage("She forced me to come in the blink of an eye.\nMusette's honey pot is overflowing with my semen...")
ShowMessageFace("muzet_fc1",0,0,2,26)
ShowMessage("\\n<Musette>Fufu... You came.\nYou understand, don't you? That you're losing your reason...")
ShowMessageFace("bell_fc1",0,0,2,27)
ShowMessage("\\n<Bell>Your heart melts when master Musette makes you come.\nThis is how she brainwashes men to perfection.")
ShowMessageFace("lira_fc1",0,0,2,28)
ShowMessage("\\n<Lyla>You will fall soon, too...♪")
ShowMessageFace("",0,0,2,29)
ShowMessage("\\n<Luka>N-no... Uhhh...")
ShowMessageFace("",0,0,2,30)
ShowMessage("It feels as if a white fog were spreading in my head.\nI can feel my reason slowly eroding away...")
ShowMessageFace("muzet_fc1",0,0,2,31)
ShowMessage("\\n<Musette>Oh... Once isn't enough to make you fall, it seems.\nI see you don't call yourself a hero with no reason.")
ShowMessageFace("muzet_fc1",0,0,2,32)
ShowMessage("\\n<Musette>I will keep going, then.\nUntil your soul completely belongs to me...")
ShowMessageFace("",0,0,2,33)
ShowMessage("\\n<Luka>N-no... Ah, uhhhh...")
ShowMessageFace("",0,0,2,34)
ShowMessage("Musette seductively moves her hips to torment me.\nShe slowly and carefully strokes my dick inside her honey pot...")
ShowMessageFace("",0,0,2,35)
ShowMessage("\\n<Luka>Uhh... Ahhhhh...")
ShowMessageFace("",0,0,2,36)
ShowMessage("She squeezes my dick and rubs it thoroughly...\nMy thing is immersed in heaven inside her vagina.")
ShowMessageFace("",0,0,2,37)
ShowMessage("My penis feels like it's sweetly melting in her warm, soft honey pot.\nNo matter how hard I try, I can't endure it...")
ShowMessageFace("muzet_fc1",0,0,2,38)
ShowMessage("\\n<Musette>It looks like you're getting close to your limit again.\nHora, go ahead and come...")
ShowMessageFace("",0,0,2,39)
ShowMessage("Musette giggles and makes her vagina tighter...")
RunCommonEvent(104)
PictureDisplay(5,"ev_muzet_h3",0,0,0,0,100,100,255,0)
RunCommonEvent(105)
ShowMessageFace("",0,0,2,40)
ShowMessage("\\n<Luka>Ahhhhh...")
ShowMessageFace("",0,0,2,41)
ShowMessage("That was the finishing blow, it sadly made me ejaculate.\nMy semen gushes out into her hot honey pot.")
ShowMessageFace("",0,0,2,42)
ShowMessage("A white fog spreads in my mind.\nI can feel my reason melting away in the pleasure...")
ShowMessageFace("",0,0,2,43)
ShowMessage("\\n<Luka>Uhh... Ahhh...")
ShowMessageFace("muzet_fc1",0,0,2,44)
ShowMessage("\\n<Musette>Fufu. Now, just to be sure...\nCome inside me one more time.")
ShowMessageFace("",0,0,2,45)
ShowMessage("Musette bucks her hips even more violently.\nBell and Lyla giggle and play with me with their butts.")
ShowMessageFace("",0,0,2,46)
ShowMessage("\\n<Luka>Ahh... Uhhhh...")
ShowMessageFace("",0,0,2,47)
ShowMessage("I immediately give in to their attacks...")
RunCommonEvent(104)
PictureDisplay(5,"ev_muzet_h4",0,0,0,0,100,100,255,0)
RunCommonEvent(105)
246(2)
ShowMessageFace("",0,0,2,48)
ShowMessage("My semen gushes out into her honey pot for the third time.\nNo, I didn't offer up just my semen, but my soul as well.")
ShowMessageFace("",0,0,2,49)
ShowMessage("Then, my mind goes blank.\nAll I can think of now is Musette...")
ShowMessageFace("muzet_fc1",0,0,2,50)
ShowMessage("\\n<Musette>Fufu... The brainwashing is complete.\nYou are our slave now.")
ShowMessageFace("",0,0,2,51)
ShowMessage("\\n<Luka>Yes... Master, Musette...")
ShowMessageFace("bell_fc1",0,0,2,52)
ShowMessage("\\n<Bell>Serve us from now on.\nIf you work well, we will reward you.")
ShowMessageFace("lira_fc1",0,0,2,53)
ShowMessage("\\n<Lyla>You've probably never been this happy.\nIt's great~♪")
ShowMessageFace("",0,0,2,54)
ShowMessage("\\n<Luka>Y-yes...")
ShowMessageFace("",0,0,2,55)
ShowMessage("Thus, I was brainwashed by Musette.\nI will eternally work for them as their slave.")
ShowMessageFace("",0,0,2,56)
ShowMessage("But they also give me pleasurable rewards from time to time, of course...\nI continued to bask in the joy of serving them.")
221()
PictureClear(5)
PictureClear(6)
246(2)
ShowMessageFace("",0,0,2,57)
ShowMessage("・・・・・・・・")
221()
242(1)
Wait(120)
355("memory_interruption")
ShowChoices(strings("Change difficulty","Reincarnate"),2)
IfPlayerPicksChoice(0,null)
 ShowMessageFace("",0,0,2,58)
 ShowMessage("Please choose a difficulty level.")
 RunCommonEvent(110)
 0()
IfPlayerPicksChoice(1,null)
 0()
404()
RunCommonEvent(2999)
0()
