// EVENT 2083
Name "Seduction: Chrome"

If(0,25,1)
 EndEventProcessing()
 0()
EndIf()
355("$game_troop.lose_event_id = 3083")
ChangeVariable(26,26,0,3,3,1,4)
ChangeVariable(26,26,4,0,10)
ShowMessageFace("chrom_fc1",6,0,2,1)
ShowMessage("\\n<Chrome>Wawawa, I'm in a pinch!\nAll right, time to use my ironclad seduction techniques.")
355("battler_graphic_hide")
PictureDisplay(5,"ev_chrom_hd1",0,0,0,0,100,100,255,0)
ShowMessageFace("chrom_fc1",1,0,2,2)
ShowMessage("\\n<Chrome>Hey, how about this?\nDo you want to see my... Secret place?")
ChangeSwitch(98,98,0)
ChangeSwitch(96,96,0)
ShowChoices(strings("Ignore her","Give in to temptation"),1)
IfPlayerPicksChoice(0,"Ignore her")
 ShowMessageFace("",0,0,2,3)
 ShowMessage("Luka resists her temptation!")
 RunCommonEvent(1999)
 EndEventProcessing()
 0()
IfPlayerPicksChoice(1,"誘惑に乗る")
 0()
404()
ShowMessageFace("chrom_fc1",1,0,2,4)
ShowMessage("\\n<Chrome>Fufu, an honest guy.\nThen get a good look...")
PictureDisplay(5,"ev_chrom_hd2",0,0,0,0,100,100,255,0)
ShowMessageFace("",0,0,2,5)
ShowMessage("Chrome peels off the tape, revealing herself!")
ShowMessage("A sweet smell fills the area!")
ShowMessageFace("",0,0,2,6)
ShowMessage("\\n<Luka>Ah...Ugh...")
ShowMessageFace("chrom_fc1",1,0,2,7)
ShowMessage("\\n<Chrome>Fufu, you lost to something so easy.\nFor a lusty guy like you, it's too easy!")
ShowMessageFace("",0,0,2,8)
ShowMessage("Luka has been entranced by Chrome!")
ShowMessage("He's unable to take his eyes off her slit!")
PictureDisplay(5,"ev_chrom_hd3",0,0,0,0,100,100,255,0)
ShowMessageFace("chrom_fc1",1,0,2,9)
ShowMessage("\\n<Chrome>Now than, shall I have you masturbate?\nStroke your penis by yourself!")
ShowMessageFace("",0,0,2,10)
ShowMessage("\\n<Luka>Y-Yes...")
ChangeVariable(26,26,3,0,2)
250(bytes(0x04,0x08,0x6f,0x3a,0x0c,0x52,0x50,0x47,0x3a,0x3a,0x53,0x45,0x08,0x3a,0x0a,0x40,0x6e,0x61,0x6d,0x65,0x49,0x22,0x12,0x6d,0x6f,0x6e,0x5f,0x65,0x72,0x6f,0x5f,0x6b,0x6f,0x6b,0x69,0x31,0x06,0x3a,0x06,0x45,0x54,0x3a,0x0b,0x40,0x70,0x69,0x74,0x63,0x68,0x69,0x69,0x3a,0x0c,0x40,0x76,0x6f,0x6c,0x75,0x6d,0x65,0x69,0x69))
311(0,1,1,1,26,true)
ShowMessageFace("",0,0,2,11)
ShowMessage("Luka grasps his penis as instructed!\\D")
ShowMessage("Luka takes \\V[26] damage!")
ChangeVariable(27,27,0,3,3,1,2)
If(1,27,0,0,0)
 JumpToLabel("射精1")
 0()
EndIf()
ShowMessageFace("chrom_fc1",1,0,2,12)
ShowMessage("\\n<Chrome>Do you want to stick it in here?\nBut no, you have to wait until I give permission.")
250(bytes(0x04,0x08,0x6f,0x3a,0x0c,0x52,0x50,0x47,0x3a,0x3a,0x53,0x45,0x08,0x3a,0x0a,0x40,0x6e,0x61,0x6d,0x65,0x49,0x22,0x12,0x6d,0x6f,0x6e,0x5f,0x65,0x72,0x6f,0x5f,0x6b,0x6f,0x6b,0x69,0x31,0x06,0x3a,0x06,0x45,0x54,0x3a,0x0b,0x40,0x70,0x69,0x74,0x63,0x68,0x69,0x69,0x3a,0x0c,0x40,0x76,0x6f,0x6c,0x75,0x6d,0x65,0x69,0x69))
311(0,1,1,1,26,true)
ShowMessageFace("",0,0,2,13)
ShowMessage("Luka strokes his penis, as instructed by Chrome!\\D")
ShowMessage("Luka takes \\V[26] damage!")
ChangeVariable(27,27,0,3,3,1,2)
If(1,27,0,0,0)
 JumpToLabel("射精1")
 0()
EndIf()
ShowMessageFace("chrom_fc1",1,0,2,14)
ShowMessage("\\n<Chrome>Horehore...\nKeep looking at my pussy, and make yourself come.")
250(bytes(0x04,0x08,0x6f,0x3a,0x0c,0x52,0x50,0x47,0x3a,0x3a,0x53,0x45,0x08,0x3a,0x0a,0x40,0x6e,0x61,0x6d,0x65,0x49,0x22,0x12,0x6d,0x6f,0x6e,0x5f,0x65,0x72,0x6f,0x5f,0x6b,0x6f,0x6b,0x69,0x31,0x06,0x3a,0x06,0x45,0x54,0x3a,0x0b,0x40,0x70,0x69,0x74,0x63,0x68,0x69,0x69,0x3a,0x0c,0x40,0x76,0x6f,0x6c,0x75,0x6d,0x65,0x69,0x69))
311(0,1,1,1,26,true)
ShowMessageFace("",0,0,2,15)
ShowMessage("Luka strokes his penis, as instructed by Chrome!\\D")
ShowMessage("Luka takes \\V[26] damage!")
ChangeVariable(27,27,0,3,3,1,2)
If(1,27,0,0,0)
 JumpToLabel("射精1")
 0()
EndIf()
ShowMessageFace("chrom_fc1",1,0,2,16)
ShowMessage("\\n<Chrome>Fufu, how simple.\nDo you feel good, stroking it all by yourself?")
250(bytes(0x04,0x08,0x6f,0x3a,0x0c,0x52,0x50,0x47,0x3a,0x3a,0x53,0x45,0x08,0x3a,0x0a,0x40,0x6e,0x61,0x6d,0x65,0x49,0x22,0x12,0x6d,0x6f,0x6e,0x5f,0x65,0x72,0x6f,0x5f,0x6b,0x6f,0x6b,0x69,0x31,0x06,0x3a,0x06,0x45,0x54,0x3a,0x0b,0x40,0x70,0x69,0x74,0x63,0x68,0x69,0x69,0x3a,0x0c,0x40,0x76,0x6f,0x6c,0x75,0x6d,0x65,0x69,0x69))
311(0,1,1,1,26,true)
ShowMessageFace("",0,0,2,17)
ShowMessage("Luka strokes his penis, as instructed by Chrome!\\D")
ShowMessage("Luka takes \\V[26] damage!")
ChangeVariable(27,27,0,3,3,1,2)
If(1,27,0,0,0)
 JumpToLabel("射精1")
 0()
EndIf()
ShowMessageFace("chrom_fc1",1,0,2,18)
ShowMessage("\\n<Chrome>Looks like you're almost done.\nFinish yourself off by your own hand!")
250(bytes(0x04,0x08,0x6f,0x3a,0x0c,0x52,0x50,0x47,0x3a,0x3a,0x53,0x45,0x08,0x3a,0x0a,0x40,0x6e,0x61,0x6d,0x65,0x49,0x22,0x12,0x6d,0x6f,0x6e,0x5f,0x65,0x72,0x6f,0x5f,0x6b,0x6f,0x6b,0x69,0x31,0x06,0x3a,0x06,0x45,0x54,0x3a,0x0b,0x40,0x70,0x69,0x74,0x63,0x68,0x69,0x69,0x3a,0x0c,0x40,0x76,0x6f,0x6c,0x75,0x6d,0x65,0x69,0x69))
311(0,1,1,1,26,true)
ShowMessageFace("",0,0,2,19)
ShowMessage("Luka strokes his penis, as instructed by Chrome!\\D")
ShowMessage("Luka takes \\V[26] damage!")
ChangeVariable(27,27,0,3,3,1,2)
If(1,27,0,0,0)
 JumpToLabel("射精1")
 0()
EndIf()
DefineLabel("射精1")
ShowMessageFace("",0,0,2,20)
ShowMessage("\\n<Luka>T-This is... Aahh...")
RunCommonEvent(104)
PictureDisplay(5,"ev_chrom_hd4",0,0,0,0,100,100,255,0)
RunCommonEvent(105)
ShowMessageFace("",0,0,2,21)
ShowMessage("Finally at my limit, I come, shooting my semen all over Chrome's slit.")
ShowMessage("I feel worse than miserable...")
ShowMessageFace("chrom_fc1",1,0,2,22)
ShowMessage("\\n<Chrome>Look at that, you covered my pussy with your semen.\nSo much, too. Such bad manners.")
RunCommonEvent(2000)
EndEventProcessing()
0()
