﻿// EVENT 0510
Name "Collab Chapter 4: Arriving at Grand Noah"

205(-1,bytes(0x04,0x08,0x6f,0x3a,0x13,0x52,0x50,0x47,0x3a,0x3a,0x4d,0x6f,0x76,0x65,0x52,0x6f,0x75,0x74,0x65,0x09,0x3a,0x0c,0x40,0x72,0x65,0x70,0x65,0x61,0x74,0x46,0x3a,0x0f,0x40,0x73,0x6b,0x69,0x70,0x70,0x61,0x62,0x6c,0x65,0x46,0x3a,0x0a,0x40,0x77,0x61,0x69,0x74,0x54,0x3a,0x0a,0x40,0x6c,0x69,0x73,0x74,0x5b,0x07,0x6f,0x3a,0x15,0x52,0x50,0x47,0x3a,0x3a,0x4d,0x6f,0x76,0x65,0x43,0x6f,0x6d,0x6d,0x61,0x6e,0x64,0x07,0x3a,0x0a,0x40,0x63,0x6f,0x64,0x65,0x69,0x18,0x3a,0x10,0x40,0x70,0x61,0x72,0x61,0x6d,0x65,0x74,0x65,0x72,0x73,0x5b,0x00,0x6f,0x3b,0x0a,0x07,0x3b,0x0b,0x69,0x00,0x3b,0x0c,0x5b,0x00))
ShowMessageFace("daimeikai_fc1",2,0,2,1)
ShowMessage("\\n<Daimyokai>We've finally broken into enemy territory!\nUhehehehe, I'm getting excited!")
ShowMessageFace("daimeikai_fc1",2,0,2,2)
ShowMessage("\\n<Daimyokai>...Is what I'd like to say, but we can't do anything flashy. We have no choice but to sneak our way in.")
ShowMessageFace("rovissa_fc1",0,0,2,3)
ShowMessage("\\n<Rovissa>That demon from the other world hasn't just taken over the palace... Everyone around us could be an enemy.")
ShowMessageFace("lars_fc01",0,0,2,4)
ShowMessage("\\n<Lars>............")
250(bytes(0x04,0x08,0x6f,0x3a,0x0c,0x52,0x50,0x47,0x3a,0x3a,0x53,0x45,0x08,0x3a,0x0a,0x40,0x6e,0x61,0x6d,0x65,0x49,0x22,0x09,0x4d,0x6f,0x76,0x65,0x06,0x3a,0x06,0x45,0x54,0x3a,0x0b,0x40,0x70,0x69,0x74,0x63,0x68,0x69,0x69,0x3a,0x0c,0x40,0x76,0x6f,0x6c,0x75,0x6d,0x65,0x69,0x55))
242(2)
221()
ShowMessageFace("",0,0,2,5)
ShowMessage("The great nation that was Grand Noah had been usurped by a mysterious demon... At last, Lars and his party set foot into the palace.")
ShowMessageFace("",0,0,2,6)
ShowMessage("There, a great incident awaits that none of them have yet to realize the scale of.")
211(0)
221()
Wait(120)
ChangeVariable(1204,1204,0,0,6)
TeleportPlayer(0,849,0,0,2,2)
0()
