﻿// EVENT 0501
Name "Collab Chapter 1: Bridge"

ChangeVariable(1201,1201,0,0,4)
205(-1,bytes(0x04,0x08,0x6f,0x3a,0x13,0x52,0x50,0x47,0x3a,0x3a,0x4d,0x6f,0x76,0x65,0x52,0x6f,0x75,0x74,0x65,0x09,0x3a,0x0c,0x40,0x72,0x65,0x70,0x65,0x61,0x74,0x46,0x3a,0x0f,0x40,0x73,0x6b,0x69,0x70,0x70,0x61,0x62,0x6c,0x65,0x46,0x3a,0x0a,0x40,0x77,0x61,0x69,0x74,0x54,0x3a,0x0a,0x40,0x6c,0x69,0x73,0x74,0x5b,0x07,0x6f,0x3a,0x15,0x52,0x50,0x47,0x3a,0x3a,0x4d,0x6f,0x76,0x65,0x43,0x6f,0x6d,0x6d,0x61,0x6e,0x64,0x07,0x3a,0x0a,0x40,0x63,0x6f,0x64,0x65,0x69,0x18,0x3a,0x10,0x40,0x70,0x61,0x72,0x61,0x6d,0x65,0x74,0x65,0x72,0x73,0x5b,0x00,0x6f,0x3b,0x0a,0x07,0x3b,0x0b,0x69,0x00,0x3b,0x0c,0x5b,0x00))
Wait(30)
PictureDisplay(5,"80_rejeo_st01",0,0,0,0,100,100,0,0)
PictureMove(5,null,0,0,0,0,100,100,255,0,30,true)
ShowMessageFace("rejeo_fc1",0,0,2,1)
ShowMessage("\\n<Rigeo>The view from here is beautiful...")
ShowMessageFace("lawrat_fc1",0,0,2,2)
ShowMessage("\\n<Lauratt>............")
ShowMessageFace("rejeo_fc1",0,0,2,3)
ShowMessage("\\n<Rigeo>But the girls on this mountain are really barbaric. They're biting, and swinging tentacles...")
ShowMessageFace("",0,0,2,4)
ShowMessage("But those attacks didn't affect Rigeo.\nLauratt, however, took damage from them.")
ShowMessageFace("lawrat_fc1",0,0,2,5)
ShowMessage("\\n<Lauratt>............")
ShowMessageFace("",0,0,2,6)
ShowMessage("Lauratt had been forced into an unfavorable situation.\nHis runes won't activate, so most of his magic cannot be used.")
ShowMessageFace("rejeo_fc1",0,0,2,7)
ShowMessage("\\n<Rigeo>By the way, Lauratt...\nHow long have you had that crest on the back of your hand?")
PictureDisplay(5,"iv_collabo_emb",0,0,0,0,100,100,0,0)
PictureMove(5,null,0,0,0,0,100,100,255,0,30,true)
ShowMessageFace("lawrat_fc1",0,0,2,8)
ShowMessage("\\n<Lauratt>............")
ShowMessageFace("",0,0,2,9)
ShowMessage("Lauratt shook his head.\nA strange crest had appeared on the back of his right hand.")
ShowMessageFace("",0,0,2,10)
ShowMessage("It was only after he had arrived on this mountain that it had appeared. Could the crest be related to this incident?")
ShowMessageFace("rejeo_fc1",0,0,2,11)
ShowMessage("\\n<Rigeo>No way, could this be why we can't use our runes? But this doesn't feel like the magic of a curse...")
ShowMessageFace("lawrat_fc1",0,0,2,12)
ShowMessage("\\n<Lauratt>............")
ShowMessageFace("",0,0,2,13)
ShowMessage("This doesn't appear to be anything bad...\nHe doesn't know why, but that's the impression he gets.")
ShowMessageFace("",0,0,2,14)
ShowMessage("Rather, it feels more like some kind of blessing. That is what Lauratt's intuition told him.")
PictureMove(5,null,0,0,0,0,100,100,0,0,30,true)
PictureClear(5)
ShowMessageFace("rejeo_fc1",0,0,2,15)
ShowMessage("\\n<Rigeo>Anyways... Try not to push yourself, Lauratt.\nI'll do the heavy lifting here.")
ShowMessageFace("lawrat_fc1",0,0,2,16)
ShowMessage("\\n<Lauratt>............")
ShowMessageFace("",0,0,2,17)
ShowMessage("Lauratt had no choice but to nod meekly.\nHe has a hunch that this incident could be massive.")
ShowMessageFace("",0,0,2,18)
ShowMessage("What's strange isn't him, but this world...\nPerhaps they have arrived in a far, faraway place...")
ShowMessageFace("",0,0,2,19)
ShowMessage("But there's no point in dwelling on that now.\nThey need to get down from this mountain as quickly as possible and try to figure out what's going on.")
EndEventProcessing()
0()
