// EVENT 5243
Name "ウィッチ帽子"

PictureDisplay(5,"80_witchs_st14",0,0,0,0,100,100,0,0)
PictureMove(5,null,0,0,0,0,100,100,255,0,30,true)
ShowMessageFace("witchs_fc1",0,0,2,1)
ShowMessage("\\n<Witch>")
ShowMessage("You want to do something lewd...?")
ShowMessage("What a naughty little Hero.")
ShowMessageFace("",0,0,2,2)
ShowMessage("\\n<Luka>P-Please...")
ShowMessageFace("witchs_fc1",2,0,2,3)
ShowMessage("\\n<Witch>")
ShowMessage("Well then, come to my room.")
ShowMessage("We can play around for a bit...")
ShowMessageFace("",0,0,2,4)
ShowMessage("Invited, I follow her to her room...")
221()
PictureDisplay(1,"bg195",0,0,0,0,100,100,255,0)
PictureDisplay(5,"80_witchs_st14",0,0,0,0,100,100,255,0)
222()
241(bytes(0x04,0x08,0x6f,0x3a,0x0d,0x52,0x50,0x47,0x3a,0x3a,0x42,0x47,0x4d,0x08,0x3a,0x0a,0x40,0x6e,0x61,0x6d,0x65,0x49,0x22,0x09,0x65,0x72,0x6f,0x31,0x06,0x3a,0x06,0x45,0x54,0x3a,0x0c,0x40,0x76,0x6f,0x6c,0x75,0x6d,0x65,0x69,0x69,0x3a,0x0b,0x40,0x70,0x69,0x74,0x63,0x68,0x69,0x69))
ShowMessageFace("witchs_fc1",2,0,2,5)
ShowMessage("\\n<Witch>")
ShowMessage("I'll finish this quickly.")
ShowMessage("With my hat...")
ShowMessageFace("",0,0,2,6)
ShowMessage("Witch takes off her hat, showing me its interior.")
ShowMessage("Inside its mouth-like opening, there are numerous tentacles squirming around...")
ShowMessageFace("",0,0,2,7)
ShowMessage("\\n<Luka>What... Is that...?")
ShowMessageFace("",0,0,2,8)
ShowMessage("My body goes stiff at the bizarre sight.")
ShowMessage("At the same time, a strange desire to feel that bizarre hole swells up inside me.")
ShowMessageFace("witchs_fc1",2,0,2,9)
ShowMessage("\\n<Witch>")
ShowMessage("My hat has powers in it to pleasure men.")
ShowMessage("Don't you want to try having it squeeze out your semen?")
ShowMessageFace("",0,0,2,10)
ShowMessage("\\n<Luka>Th-that's not... Ahhh!")
245(bytes(0x04,0x08,0x6f,0x3a,0x0d,0x52,0x50,0x47,0x3a,0x3a,0x42,0x47,0x53,0x08,0x3a,0x0a,0x40,0x6e,0x61,0x6d,0x65,0x49,0x22,0x1a,0x6d,0x6f,0x6e,0x5f,0x68,0x73,0x65,0x61,0x6e,0x32,0x31,0x5f,0x74,0x65,0x6e,0x74,0x61,0x63,0x6c,0x65,0x32,0x06,0x3a,0x06,0x45,0x54,0x3a,0x0c,0x40,0x76,0x6f,0x6c,0x75,0x6d,0x65,0x69,0x55,0x3a,0x0b,0x40,0x70,0x69,0x74,0x63,0x68,0x69,0x69))
PictureDisplay(5,"ev_witchs_hc1",0,0,0,0,100,100,255,0)
ShowMessageFace("",0,0,2,11)
ShowMessage("Witch pushes her bizarre hat onto me!")
ShowMessageFace("",0,0,2,12)
ShowMessage("\\n<Luka>Hauu... A-Ahhh!")
PictureDisplay(6,"ev_witchs_ct01",0,0,0,0,100,100,255,0)
ShowMessageFace("",0,0,2,13)
ShowMessage("I feel the tentacles inside her hat swarm my penis as soon as I'm inside.")
ShowMessage("Squirming and wriggling...")
ShowMessageFace("witchs_fc1",2,0,2,14)
ShowMessage("\\n<Witch>")
ShowMessage("Fufu, what does it feel like?")
ShowMessage("Just go ahead and come inside my hat...♪")
ShowMessageFace("",0,0,2,15)
ShowMessage("\\n<Luka>Hauuu...")
ShowMessageFace("",0,0,2,16)
ShowMessage("The mouth-like organ inside her hat shrinks around my penis.")
ShowMessage("In close proximity, the fleshy interior rubs against me.")
ShowMessageFace("",0,0,2,17)
ShowMessage("At the same time, countless tentacles are stroking and pressing against my penis.")
ShowMessage("It's like I'm being licked by tongues everywhere...")
ShowMessageFace("",0,0,2,18)
ShowMessage("\\n<Luka>Ahhh...! That feels good!")
ShowMessageFace("witchs_fc1",2,0,2,19)
ShowMessage("\\n<Witch>")
ShowMessage("Ufufu, it is amazing, isn't it?")
ShowMessage("If I use this hat, men always finish so quickly♪")
ShowMessageFace("",0,0,2,20)
ShowMessage("\\n<Luka>Hauu... Ahhh!")
ShowMessageFace("",0,0,2,21)
ShowMessage("It's like I'm stuck inside some kind of digestive organ.")
ShowMessage("Sweet movements draw me deeper, rubbing and pressing against me...")
ShowMessageFace("",0,0,2,22)
ShowMessage("Feeling it too much, my hips start to shake.")
ShowMessage("The sudden desire to release blows past my restraint.")
ShowMessageFace("",0,0,2,23)
ShowMessage("\\n<Luka>C-coming... Ahhh!")
RunCommonEvent(104)
PictureDisplay(5,"ev_witchs_hc2",0,0,0,0,100,100,255,0)
PictureDisplay(6,"ev_witchs_ct02",0,0,0,0,100,100,255,0)
RunCommonEvent(105)
ShowMessageFace("",0,0,2,24)
ShowMessage("Almost like an accident, I reach an orgasm.")
ShowMessage("My semen oozes out into her squirming hat.")
ShowMessageFace("",0,0,2,25)
ShowMessage("\\n<Luka>Auuuu...")
ShowMessageFace("witchs_fc1",2,0,2,26)
ShowMessage("\\n<Witch>")
ShowMessage("Did my hat feel good?")
ShowMessage("You can play with it a bit more...")
ShowMessageFace("",0,0,2,27)
ShowMessage("The tentacles all rush my penis right after my orgasm.")
ShowMessage("Squirming and licking me, sweet pleasure assaults my extra sensitive penis.")
ShowMessageFace("",0,0,2,28)
ShowMessage("\\n<Luka>Auuu...!")
ShowMessageFace("",0,0,2,29)
ShowMessage("Her tentacles all wriggle and squirm around me.")
ShowMessage("Movements to force a man to intense pleasure...")
ShowMessageFace("",0,0,2,30)
ShowMessage("I tremble in ecstasy as I stare at the hat on my crotch.")
ShowMessage("There's no way I can endure it like this...")
ShowMessageFace("witchs_fc1",2,0,2,31)
ShowMessage("\\n<Witch>")
ShowMessage("Fufufu... Is it nice?")
ShowMessage("You can come in my hat as much as you want.")
ShowMessageFace("",0,0,2,32)
ShowMessage("The sweet movements of the tentacles fill me.")
ShowMessage("Their soft little bumps rub against my tip as they squirm.")
ShowMessageFace("",0,0,2,33)
ShowMessage("\\n<Luka>Faaa...")
ShowMessageFace("",0,0,2,34)
ShowMessage("A sweet moan leaks out of me.")
ShowMessage("As my waist twitches in pleasure, all desire to endure it fades from me.")
ShowMessageFace("witchs_fc1",2,0,2,35)
ShowMessage("\\n<Witch>")
ShowMessage("Fufu, such a lewd moan.")
ShowMessage("You'll be coming in my hat again soon...")
ShowMessageFace("witchs_fc1",2,0,2,36)
ShowMessage("\\n<Witch>")
ShowMessage("Here, I'll finish you off♪")
ShowMessageFace("",0,0,2,37)
ShowMessage("Inside her hat, the tentacles all continue to swarm me.")
ShowMessage("But now instead of just rubbing, they start to coil and tighten around me.")
ShowMessageFace("",0,0,2,38)
ShowMessage("The intense stimulus makes my head go blank.")
ShowMessage("My hips bounce upwards as I give in.")
ShowMessageFace("",0,0,2,39)
ShowMessage("\\n<Luka>Faaa... Ahhh...")
RunCommonEvent(104)
PictureDisplay(5,"ev_witchs_hc3",0,0,0,0,100,100,255,0)
PictureDisplay(6,"ev_witchs_ct03",0,0,0,0,100,100,255,0)
RunCommonEvent(105)
ShowMessageFace("",0,0,2,40)
ShowMessage("I come inside her hat as I taste the tentacles licking me.")
ShowMessage("Left totally weak, I surrender myself to this pleasure.")
ShowMessageFace("witchs_fc1",2,0,2,41)
ShowMessage("\\n<Witch>")
ShowMessage("That makes two♪")
ShowMessage("You can still come more, yes?")
ShowMessageFace("",0,0,2,42)
ShowMessage("\\n<Luka>Ahh...")
ShowMessageFace("",0,0,2,43)
ShowMessage("Right after my ejaculation, the tentacles continue to swarm me.")
ShowMessage("I'm totally a prisoner to this magic hat...")
ShowMessageFace("witchs_fc1",2,0,2,44)
ShowMessage("\\n<Witch>")
ShowMessage("I'll squeeze you one more time.")
ShowMessage("Hora, my hat will make you come again...")
ShowMessageFace("",0,0,2,45)
ShowMessage("The tentacles crawl all over my penis...")
ShowMessage("Rubbing me, coiling around me, squeezing me...")
ShowMessageFace("",0,0,2,46)
ShowMessage("\\n<Luka>A-Ahhh...!")
ShowMessageFace("",0,0,2,47)
ShowMessage("It's like a bunch of fingers are all caressing me at the same time.")
ShowMessage("Unable to see anything, just the sounds echoing from underneath her hat increase the excitement.")
ShowMessageFace("witchs_fc1",2,0,2,48)
ShowMessage("\\n<Witch>")
ShowMessage("Fufu, it's amazing, isn't it?")
ShowMessage("You can come as much as you want in my hat♪")
ShowMessageFace("",0,0,2,49)
ShowMessage("Countless tentacles press into my penis.")
ShowMessageFace("",0,0,2,50)
ShowMessage("Like a wall of flesh, every inch of my penis is massaged inside her hat.")
ShowMessage("Responding on instinct, I can't push back the ecstasy forced into me.")
ShowMessageFace("",0,0,2,51)
ShowMessage("\\n<Luka>No... I'm coming again...")
ShowMessageFace("witchs_fc1",2,0,2,52)
ShowMessage("\\n<Witch>")
ShowMessage("Fufu, already?")
ShowMessage("This will be the third climax inside my hat.")
ShowMessageFace("",0,0,2,53)
ShowMessage("Witch laughs, satisfied.")
ShowMessageFace("witchs_fc1",2,0,2,54)
ShowMessage("\\n<Witch>")
ShowMessage("Go ahead...♪")
ShowMessageFace("",0,0,2,55)
ShowMessage("Rushing to the finish, the tentacles all swarm me.")
ShowMessage("Rubbing me as fast as they can, I'm pushed over the edge.")
ShowMessageFace("",0,0,2,56)
ShowMessage("\\n<Luka>A-Ahhh...!")
RunCommonEvent(104)
PictureDisplay(5,"ev_witchs_hc4",0,0,0,0,100,100,255,0)
PictureDisplay(6,"ev_witchs_ct04",0,0,0,0,100,100,255,0)
RunCommonEvent(105)
ShowMessageFace("",0,0,2,57)
ShowMessage("Coming in her hat, my semen gushes inside.")
ShowMessage("As I ejaculate, the tentacles massage me, milking out every drop.")
ShowMessageFace("",0,0,2,58)
ShowMessage("\\n<Luka>Haauu...")
ShowMessageFace("",0,0,2,59)
ShowMessage("Until the very end, they keep rubbing me.")
246(2)
ShowMessageFace("witchs_fc1",2,0,2,60)
ShowMessage("\\n<Witch>")
ShowMessage("Ufufu, plenty of food for my hat.")
ShowMessage("This is enough energy for now.")
ShowMessageFace("",0,0,2,61)
ShowMessage("\\n<Luka>.........")
ShowMessageFace("",0,0,2,62)
ShowMessage("After being squeezed dry, my body relaxes.")
ShowMessage("The semen squeezed from me will just be used to fuel her magical power...")
221()
PictureClear(5)
PictureClear(6)
ShowMessageFace("",0,0,2,63)
ShowMessage("......")
RunCommonEvent(3998)
0()
