﻿// EVENT 0627
Name "Event: Reaper"

ChangeSwitch(73,73,0)
If(1,129,0,0,0)
 ShowMessageFace("sinigami_fc1",0,0,2,1)
 ShowMessage("\\n<Reaper>We meet in a strange place...\nI shall teach you a dark skill.")
 ShowMessageFace("sinigami_fc1",0,0,2,2)
 ShowMessage("\\n<Reaper>However, it will be useless unless you are of a race that can use [Dark] skills, such as a Vampire, Yoma, or Apoptosis...")
 ShowChoices(strings("Learn Dark skills","No thanks"),0)
 IfPlayerPicksChoice(0,"闇スキルを伝授してもらう")
  DefineLabel("選択")
  ShowMessageFace("",0,0,2,3)
  ShowMessage("Who will learn a Dark skill?")
  355("names = party_members.collect{|m|m.name}")
  655("unlimited_choices(11, names)")
  655("actor = party_members[$game_variables[11]]")
  655("$game_variables[10] = actor ? actor.id : 0")
  If(1,10,0,0,0)
   ChangeSwitch(73,73,1)
   EndEventProcessing()
   0()
  EndIf()
  ShowMessageFace("",0,0,2,4)
  ShowMessage("Which Dark skill will you learn!")
  ShowChoices(strings("Demon Flame Dance","Demon Ice Burial","Demon Thunder Dust"),0)
  IfPlayerPicksChoice(0,"魔人炎舞")
   If(12,"actor_skill_have?(v(10),1676)")
    ShowMessageFace("",0,0,2,5)
    ShowMessage("That character already knows Demon Flame Dance...")
    JumpToLabel("選択")
    0()
   EndIf()
   ChangeVariable(129,129,0,0,1)
   318(1,10,0,1676)
   250(bytes(0x04,0x08,0x6f,0x3a,0x0c,0x52,0x50,0x47,0x3a,0x3a,0x53,0x45,0x08,0x3a,0x0a,0x40,0x6e,0x61,0x6d,0x65,0x49,0x22,0x0a,0x49,0x74,0x65,0x6d,0x31,0x06,0x3a,0x06,0x45,0x54,0x3a,0x0b,0x40,0x70,0x69,0x74,0x63,0x68,0x69,0x69,0x3a,0x0c,0x40,0x76,0x6f,0x6c,0x75,0x6d,0x65,0x69,0x55))
   ShowMessageFace("",0,0,2,6)
   ShowMessage("You learned \\I[177]\\C[1]Demon Flame Dance\\C[0]!")
   ChangeSwitch(73,73,1)
   EndEventProcessing()
   0()
  IfPlayerPicksChoice(1,"魔氷葬")
   If(12,"actor_skill_have?(v(10),1677)")
    ShowMessageFace("",0,0,2,7)
    ShowMessage("That character already knows Demon Ice Burial...")
    JumpToLabel("選択")
    0()
   EndIf()
   ChangeVariable(129,129,0,0,1)
   318(1,10,0,1677)
   250(bytes(0x04,0x08,0x6f,0x3a,0x0c,0x52,0x50,0x47,0x3a,0x3a,0x53,0x45,0x08,0x3a,0x0a,0x40,0x6e,0x61,0x6d,0x65,0x49,0x22,0x0a,0x49,0x74,0x65,0x6d,0x31,0x06,0x3a,0x06,0x45,0x54,0x3a,0x0b,0x40,0x70,0x69,0x74,0x63,0x68,0x69,0x69,0x3a,0x0c,0x40,0x76,0x6f,0x6c,0x75,0x6d,0x65,0x69,0x55))
   ShowMessageFace("",0,0,2,8)
   ShowMessage("You learned \\I[177]\\C[1]Demon Ice Burial\\C[0]!")
   ChangeSwitch(73,73,1)
   EndEventProcessing()
   0()
  IfPlayerPicksChoice(2,"魔雷塵")
   If(12,"actor_skill_have?(v(10),1678)")
    ShowMessageFace("",0,0,2,9)
    ShowMessage("That character already knows Demon Thunder Dust...")
    JumpToLabel("選択")
    0()
   EndIf()
   ChangeVariable(129,129,0,0,1)
   318(1,10,0,1678)
   250(bytes(0x04,0x08,0x6f,0x3a,0x0c,0x52,0x50,0x47,0x3a,0x3a,0x53,0x45,0x08,0x3a,0x0a,0x40,0x6e,0x61,0x6d,0x65,0x49,0x22,0x0a,0x49,0x74,0x65,0x6d,0x31,0x06,0x3a,0x06,0x45,0x54,0x3a,0x0b,0x40,0x70,0x69,0x74,0x63,0x68,0x69,0x69,0x3a,0x0c,0x40,0x76,0x6f,0x6c,0x75,0x6d,0x65,0x69,0x55))
   ShowMessageFace("",0,0,2,10)
   ShowMessage("You learned \\I[177]\\C[1]Demon Thunder Dust\\C[0]!")
   ChangeSwitch(73,73,1)
   EndEventProcessing()
   0()
  404()
  0()
 IfPlayerPicksChoice(1,"必要ない")
  ChangeSwitch(73,73,1)
  EndEventProcessing()
  0()
 404()
 0()
EndIf()
If(1,129,0,1,0)
 ShowMessageFace("sinigami_fc1",0,0,2,11)
 ShowMessage("\\n<Reaper>The instruction is over.\nLook forward to the next opportunity...")
 ChangeSwitch(73,73,1)
 EndEventProcessing()
 0()
EndIf()
0()
