﻿// EVENT 3205
Name "Silkworm Girl"

PictureDisplay(5,"80_kaiko_st02",0,0,0,0,100,100,0,0)
PictureMove(5,null,0,0,0,0,100,100,255,0,30,true)
241(bytes(0x04,0x08,0x6f,0x3a,0x0d,0x52,0x50,0x47,0x3a,0x3a,0x42,0x47,0x4d,0x08,0x3a,0x0a,0x40,0x6e,0x61,0x6d,0x65,0x49,0x22,0x09,0x65,0x72,0x6f,0x31,0x06,0x3a,0x06,0x45,0x54,0x3a,0x0c,0x40,0x76,0x6f,0x6c,0x75,0x6d,0x65,0x69,0x69,0x3a,0x0b,0x40,0x70,0x69,0x74,0x63,0x68,0x69,0x69))
ShowMessageFace("",0,0,2,1)
ShowMessage("\\n<Luka>Unnngh...")
ShowMessageFace("kaiko_fc1",1,0,2,2)
ShowMessage("\\n<Silkworm Girl>You can't fight any longer... Well then...")
ShowMessageFace("",0,0,2,3)
ShowMessage("Too weak to resist after my orgasm, I'm helpless as she sprays silk over me.")
250(bytes(0x04,0x08,0x6f,0x3a,0x0c,0x52,0x50,0x47,0x3a,0x3a,0x53,0x45,0x08,0x3a,0x0a,0x40,0x6e,0x61,0x6d,0x65,0x49,0x22,0x10,0x6d,0x6f,0x6e,0x5f,0x65,0x72,0x6f,0x5f,0x69,0x74,0x6f,0x06,0x3a,0x06,0x45,0x54,0x3a,0x0b,0x40,0x70,0x69,0x74,0x63,0x68,0x69,0x69,0x3a,0x0c,0x40,0x76,0x6f,0x6c,0x75,0x6d,0x65,0x69,0x69))
ShowMessageFace("",0,0,2,4)
ShowMessage("The sticky white threads shoot over me, covering every inch of my body.")
ShowMessageFace("kaiko_fc1",1,0,2,5)
ShowMessage("\\n<Silkworm Girl>Hehe... My silk gives pleasure just by contact.\nJust having it blown over you is unbearable, isn't it?")
ShowMessageFace("",0,0,2,6)
ShowMessage("\\n<Luka>Ah, aaah...")
ShowMessageFace("",0,0,2,7)
ShowMessage("The Silkworm Girl's soft, sticky silk continues to cover more and more of my body.")
ShowMessageFace("",0,0,2,8)
ShowMessage("After only a few seconds, my body is completely covered in it.")
ShowMessageFace("",0,0,2,9)
ShowMessage("\\n<Luka>What is...this...?")
ShowMessageFace("kaiko_fc1",1,0,2,10)
ShowMessage("\\n<Silkworm Girl>Hehe... Stuck in a cocoon of pleasure, you'll be trapped in heaven...")
245(bytes(0x04,0x08,0x6f,0x3a,0x0d,0x52,0x50,0x47,0x3a,0x3a,0x42,0x47,0x53,0x08,0x3a,0x0a,0x40,0x6e,0x61,0x6d,0x65,0x49,0x22,0x1a,0x6d,0x6f,0x6e,0x5f,0x68,0x73,0x65,0x61,0x6e,0x32,0x31,0x5f,0x74,0x65,0x6e,0x74,0x61,0x63,0x6c,0x65,0x32,0x06,0x3a,0x06,0x45,0x54,0x3a,0x0c,0x40,0x76,0x6f,0x6c,0x75,0x6d,0x65,0x69,0x55,0x3a,0x0b,0x40,0x70,0x69,0x74,0x63,0x68,0x69,0x69))
PictureDisplay(5,"ev_kaiko_h01",0,0,0,0,100,100,255,0)
ShowMessageFace("",0,0,2,11)
ShowMessage("Everywhere from my neck down is tightly wrapped in a cocoon made of her soft silk.")
ShowMessageFace("",0,0,2,12)
ShowMessage("Even though I should be horrified at being trapped, I'm instead immersed in pleasure.")
ShowMessageFace("",0,0,2,13)
ShowMessage("\\n<Luka>Fwaah... That feels so good...")
ShowMessageFace("kaiko_fc1",1,0,2,14)
ShowMessage("\\n<Silkworm Girl>Hehe... Have a little patience.\nOnce the cocoon is finished, you can come as much as you want.")
ShowMessageFace("",0,0,2,15)
ShowMessage("\\n<Luka>Unnngh...!")
ShowMessageFace("",0,0,2,16)
ShowMessage("With my penis already rock hard as she was covering me with her silk, it feels like it's stuck in a tiny hole.")
ShowMessageFace("",0,0,2,17)
ShowMessage("Tightly wrapped in her soft thread, the movements just from breathing are giving an almost unbearable pleasure with them.")
ShowMessageFace("",0,0,2,18)
ShowMessage("Quickly overpowered by that ecstasy, I already feel myself giving in to the rising orgasm.")
ShowMessageFace("",0,0,2,19)
ShowMessage("\\n<Luka>Ahh... I'm coming!")
ShowMessageFace("kaiko_fc1",1,0,2,20)
ShowMessage("\\n<Silkworm Girl>Ah, already? Sheesh...")
RunCommonEvent(104)
PictureDisplay(5,"ev_kaiko_h11",0,0,0,0,100,100,255,0)
RunCommonEvent(105)
ShowMessageFace("",0,0,2,21)
ShowMessage("\\n<Luka>Ahh... I came...")
ShowMessageFace("",0,0,2,22)
ShowMessage("Unable to take it any longer, I come, shooting my semen into the silk cocoon.")
ShowMessageFace("",0,0,2,23)
ShowMessage("With it wrapped so tightly around me, it almost feels more like I just peed in my pants... Looking down, I start to feel humiliated as I see the white stain slowly spreading.")
ShowMessageFace("kaiko_fc1",1,0,2,24)
ShowMessage("\\n<Silkworm Girl>What a helpless little boy... Having an accident before I even finish. Sheesh... Have a little patience.")
ShowMessageFace("",0,0,2,25)
ShowMessage("The Silkworm Girl sprays more silk over me, covering me with even more sticky silk. Then...")
PictureDisplay(5,"ev_kaiko_h12",0,0,0,0,100,100,255,0)
ShowMessageFace("",0,0,2,26)
ShowMessage("While immersed in ecstasy, I look on in joy and pleasure as the silk finally covers my head completely.")
ShowMessageFace("",0,0,2,27)
ShowMessage("\\n<Luka>Ahhh...")
ShowMessageFace("",0,0,2,28)
ShowMessage("Able to breathe, I can't feel anything but the pleasure anymore. With every part of my body being touched by the silk, every part of my body is having pure pleasure forced into it.")
ShowMessageFace("",0,0,2,29)
ShowMessage("It's like I'm really stuck in a white paradise...\nI want to stay in here forever...")
ShowMessageFace("",0,0,2,30)
ShowMessage("\\n<Luka>Ahh... That feels good...")
ShowMessageFace("kaiko_fc1",1,0,2,31)
ShowMessage("\\n<Silkworm Girl>Hehe... So you like my cocoon?\nBut it's a cocoon that sucks its prey dry of semen you know?")
ShowMessageFace("kaiko_fc1",1,0,2,32)
ShowMessage("\\n<Silkworm Girl>Stuck inside there, your semen will be sucked for your whole life you know?")
ShowMessageFace("",0,0,2,33)
ShowMessage("\\n<Luka>Eh...? Ahhh!")
245(bytes(0x04,0x08,0x6f,0x3a,0x0d,0x52,0x50,0x47,0x3a,0x3a,0x42,0x47,0x53,0x08,0x3a,0x0a,0x40,0x6e,0x61,0x6d,0x65,0x49,0x22,0x1a,0x6d,0x6f,0x6e,0x5f,0x68,0x73,0x65,0x61,0x6e,0x32,0x32,0x5f,0x74,0x65,0x6e,0x74,0x61,0x63,0x6c,0x65,0x33,0x06,0x3a,0x06,0x45,0x54,0x3a,0x0c,0x40,0x76,0x6f,0x6c,0x75,0x6d,0x65,0x69,0x55,0x3a,0x0b,0x40,0x70,0x69,0x74,0x63,0x68,0x69,0x69))
ShowMessageFace("",0,0,2,34)
ShowMessage("Suddenly, the cocoon itself starts to swell back and forth, like a wave motion. Moving in rhythmic waves, it tightens and expands around my body.")
ShowMessageFace("",0,0,2,35)
ShowMessage("It almost feels like I'm stuck in a giant mouth, sucking on my body like it was a piece of candy.")
ShowMessageFace("",0,0,2,36)
ShowMessage("\\n<Luka>Unnngh...!\nTh...the cocoon is moving?!")
ShowMessageFace("",0,0,2,37)
ShowMessage("I writhe side to side, but there's nothing around me but the white silk.")
ShowMessageFace("",0,0,2,38)
ShowMessage("It feels as if the silk itself is sucking on my entire body, especially on my penis...")
ShowMessageFace("",0,0,2,39)
ShowMessage("Unable to do anything tightly wrapped in her cocoon, I moan in pleasure as it continues to suck on my body.")
ShowMessageFace("kaiko_fc1",1,0,2,40)
ShowMessage("\\n<Silkworm Girl>Hehe, it started...\nThat's how the cocoon will suck out your semen.")
ShowMessageFace("kaiko_fc1",1,0,2,41)
ShowMessage("\\n<Silkworm Girl>Once it starts, you won't be able to die anymore. The magic silk keeps you alive and weak as it endlessly sucks the semen from you.")
ShowMessageFace("",0,0,2,42)
ShowMessage("\\n<Luka>Ahhh!")
ShowMessageFace("",0,0,2,43)
ShowMessage("I moan in ecstasy inside the cocoon.")
ShowMessageFace("",0,0,2,44)
ShowMessage("Every writhing movement I make is countered by the silk, taking advantage of the small room I give it to tighten even closer around my body.")
ShowMessageFace("",0,0,2,45)
ShowMessage("\\n<Luka>Ahhh! I'm coming!")
RunCommonEvent(104)
PictureDisplay(5,"ev_kaiko_h13",0,0,0,0,100,100,255,0)
RunCommonEvent(105)
ShowMessageFace("",0,0,2,46)
ShowMessage("I ejaculate inside of the cocoon, spraying my semen out inside. The silk itself starts to slowly absorb the semen, as the sucking movements continue.")
ShowMessageFace("kaiko_fc1",1,0,2,47)
ShowMessage("\\n<Silkworm Girl>Hehehe, it already sucked some out.\nBut don't think that it will finish anytime soon...")
ShowMessageFace("",0,0,2,48)
ShowMessage("\\n<Luka>Ah! Ahhhh!!")
ShowMessageFace("",0,0,2,49)
ShowMessage("The silk tightens around me again, forcing it even deeper into my skin.")
ShowMessageFace("",0,0,2,50)
ShowMessage("Barely able to even move any longer, the stimulation from the sucking motion made by the cocoon gets even more intense. The stimulation is given not only to my crotch, but to my entire body.")
ShowMessageFace("",0,0,2,51)
ShowMessage("I'm just its prey... I'll be stuck in here forever...\nThis pleasure will continue forever, with no release ever granted to me.")
ShowMessageFace("",0,0,2,52)
ShowMessage("\\n<Luka>Ahh! Ahhh!!")
ShowMessageFace("",0,0,2,53)
ShowMessage("I start to cry at the thought of my terrible fate, but it's quickly replaced by a powerful orgasm blowing through me.")
ShowMessageFace("",0,0,2,54)
ShowMessage("\\n<Luka>Ahh... I'm coming!\nAaaaaah!!")
RunCommonEvent(104)
PictureDisplay(5,"ev_kaiko_h14",0,0,0,0,100,100,255,0)
RunCommonEvent(105)
ShowMessageFace("kaiko_fc1",1,0,2,55)
ShowMessage("\\n<Silkworm Girl>Hehe, please come as much as you want...\nEvery time you fill the cocoon with your semen, I can collect it and use it as my nutrients.")
ShowMessageFace("",0,0,2,56)
ShowMessage("\\n<Luka>Ah, aaaaaah!!")
ShowMessageFace("",0,0,2,57)
ShowMessage("As the sweet ecstasy continues to take over more and more of my body, the fear in my mind grows stronger. This is a nightmare...")
ShowMessageFace("",0,0,2,58)
ShowMessage("\\n<Luka>Ah, auuu...")
ShowMessageFace("",0,0,2,59)
ShowMessage("But it's no dream... I have no power to escape...\nStuck inside this cocoon, I can't do anything but be squeezed.")
ShowMessageFace("kaiko_fc1",1,0,2,60)
ShowMessage("\\n<Silkworm Girl>Hehe... How pitiful.\nThe more you struggle, the tighter it gets. The tighter it gets, the better it feels.")
ShowMessageFace("",0,0,2,61)
ShowMessage("\\n<Luka>Ah... Ahhhh!")
ShowMessageFace("",0,0,2,62)
ShowMessage("With the last of my strength, I try to break free.\nBut my powerful struggle is met with an even more powerful squeeze by the cocoon, and I'm instantly forced to an orgasm.")
RunCommonEvent(104)
PictureDisplay(5,"ev_kaiko_h15",0,0,0,0,100,100,255,0)
RunCommonEvent(105)
ShowMessageFace("",0,0,2,63)
ShowMessage("My final desperate act only resulted in a powerful orgasm. Beaten by the cocoon, I give in to despair.")
ShowMessageFace("",0,0,2,64)
ShowMessage("\\n<Luka>Haaa... H...help me...")
ShowMessageFace("kaiko_fc1",1,0,2,65)
ShowMessage("\\n<Silkworm Girl>Hehe... There's no escape from inside my cocoon.\nNo matter how you cry or shout, it will just continue to suck out your semen endlessly.")
ShowMessageFace("",0,0,2,66)
ShowMessage("\\n<Luka>Ah...Ahh...")
ShowMessageFace("",0,0,2,67)
ShowMessage("The cocoon's rhythmic sucking continues as she talks, forcing me to another orgasm as I moan pathetically.")
RunCommonEvent(104)
RunCommonEvent(105)
ShowMessageFace("",0,0,2,68)
ShowMessage("Like that, I'm easily brought to another ejaculation.\nBut an orgasm inside here is no release...")
ShowMessageFace("kaiko_fc1",1,0,2,69)
ShowMessage("\\n<Silkworm Girl>Come on... Ejaculate even more...\nYou'll be in there for the rest of your life, so there's no point in trying to endure the pleasure...")
ShowMessageFace("",0,0,2,70)
ShowMessage("\\n<Luka>Aaaaaah!!")
RunCommonEvent(104)
RunCommonEvent(105)
221()
PictureClear(5)
PictureClear(6)
246(2)
ShowMessageFace("",0,0,2,71)
ShowMessage("Defeated by the Silkworm Girl, I'm made into simple prey.")
ShowMessageFace("",0,0,2,72)
ShowMessage("With my life sustained by the cocoon, I'm not even able to die... My only role in life is to supply semen to the Silkworm Girl.")
ShowMessageFace("",0,0,2,73)
ShowMessage("Unable to even move inside this white tomb, I'm sucked endlessly, with no escape...")
ShowMessageFace("",0,0,2,74)
ShowMessage("......")
221()
242(1)
Wait(120)
355("memory_interruption")
ShowMessageFace("",0,0,2,75)
ShowMessage("You hear Ilias' voice calling out to you...\nReceive her evaluation?")
ShowChoices(strings("Receive Evaluation","Change Difficulty","Reincarnate"),3)
IfPlayerPicksChoice(0,"Receive Evaluation")
 241(bytes(0x04,0x08,0x6f,0x3a,0x0d,0x52,0x50,0x47,0x3a,0x3a,0x42,0x47,0x4d,0x08,0x3a,0x0a,0x40,0x6e,0x61,0x6d,0x65,0x49,0x22,0x0a,0x69,0x72,0x69,0x61,0x73,0x06,0x3a,0x06,0x45,0x54,0x3a,0x0c,0x40,0x76,0x6f,0x6c,0x75,0x6d,0x65,0x69,0x5f,0x3a,0x0b,0x40,0x70,0x69,0x74,0x63,0x68,0x69,0x6e))
 PictureDisplay(1,"bg001",0,0,0,0,100,100,255,0)
 222()
 PictureDisplay(5,"80_iriasu_st04",0,0,0,0,100,100,0,0)
 PictureMove(5,null,0,0,0,0,100,100,255,0,30,true)
 ShowMessageFace("iriasu_fc1",3,0,2,76)
 ShowMessage("\\n<Ilias>Did it feel good inside the Silkworm Girl's cocoon? Did it feel good to fill that cocoon with your semen?")
 ShowMessageFace("iriasu_fc1",3,0,2,77)
 ShowMessage("\\n<Ilias>...Sheesh.")
 PictureDisplay(5,"80_iriasu_st01",0,0,0,0,100,100,255,0)
 ShowMessageFace("iriasu_fc1",0,0,2,78)
 ShowMessage("\\n<Ilias>The Silkworm Girl uses pleasure-based attacks with her silk. You'd best defeat her fast before she completely covers you in silk.")
 ShowMessageFace("iriasu_fc1",0,0,2,79)
 ShowMessage("\\n<Ilias>Her defense is high, making her quite sturdy...\nUse status ailments to your advantage, she's vulnerable to them.")
 PictureDisplay(5,"80_iriasu_st02",0,0,0,0,100,100,255,0)
 ShowMessageFace("iriasu_fc1",1,0,2,80)
 ShowMessage("\\n<Ilias>Now go, oh brave Luka.\nIf you become a cocoon again and return here, I'll punish you.")
 242(1)
 221()
 PictureClear(5)
 PictureClear(1)
 Wait(60)
 0()
IfPlayerPicksChoice(1,"Change Difficulty")
 ShowMessageFace("",0,0,2,81)
 ShowMessage("Please choose a difficulty level.")
 RunCommonEvent(110)
 0()
IfPlayerPicksChoice(2,"Reincarnate")
 0()
404()
RunCommonEvent(3000)
0()
