﻿// EVENT 0150
Name "Reaper: Remove Male Characters from Companions"

ShowMessageFace("sinigami_fc1",0,0,2,1)
ShowMessage("\\n<Reaper>...I will erase some of the men from your companions list. Is this really want you want?")
ShowChoices(strings("I changed my mind","Remove some of the men","Remove all of the men"),1)
IfPlayerPicksChoice(0,null)
 ShowMessageFace("sinigami_fc1",0,0,2,2)
 ShowMessage("\\n<Reaper>I'll leave them alone then.\nOff with you now...")
 PictureMove(5,null,0,0,0,0,100,100,0,0,30,true)
 PictureClear(5)
 EndEventProcessing()
 0()
IfPlayerPicksChoice(1,null)
 314(0,0)
 If(0,1566,0)
  ChangeVariable(1038,1038,0,0,0)
  0()
 EndIf()
 355("delete_actor_ex(563)")
 655("delete_actor_ex(564)")
 655("delete_actor_ex(565)")
 655("delete_actor_ex(566)")
 655("delete_actor_ex(567)")
 655("delete_actor_ex(569)")
 ShowMessageFace("sinigami_fc1",0,0,2,3)
 ShowMessage("\\n<Reaper>They have been erased. Off with you now...")
 PictureMove(5,null,0,0,0,0,100,100,0,0,30,true)
 PictureClear(5)
 EndEventProcessing()
 0()
IfPlayerPicksChoice(2,null)
 ShowMessageFace("ruka_fc1",0,0,2,4)
 ShowMessage("\\n<Luka>May as well get rid of all of them.")
 ShowMessageFace("sinigami_fc1",0,0,2,5)
 ShowMessage("\\n<Reaper>Understood. Then I shall erase all of the men...")
 ShowMessageFace("sinigami_fc1",0,0,2,6)
 ShowMessage("\\n<Reaper>...Including you.")
 ShowMessageFace("ruka_fc1",0,0,2,7)
 ShowMessage("\\n<Luka>GYAHHH!!!")
 242(2)
 221()
 PictureClear(5)
 Wait(240)
 355("forced_transfer(154,18,52)")
 216(1)
 355("release_temp_actors")
 355("$game_map.screen.clear")
 222()
 355("gain_medal(2112)")
 EndEventProcessing()
 0()
404()
0()
