﻿// EVENT 7213
Name "Milio: Defeat"

RunCommonEvent(7000)
PictureDisplay(5,"80_mob_kaihei_st01",0,0,0,0,100,100,255,0)
PictureClear(6)
ShowMessageFace("mob_kaihei_fc1",0,0,2,1)
ShowMessage("\\n<Milio>It's my win♪\nI'll take the money now♪")
If(0,443,1)
 125(1,0,450)
 0()
EndIf()
ShowMessageFace("",0,0,2,2)
ShowMessage("Luka hands over 450G!")
ShowMessageFace("mob_kaihei_fc1",0,0,2,3)
ShowMessage("\\n<Milio>Next time you want to orgasm...\n...I mean, next time you want to compete, come back♪")
If(0,443,0)
 EndEventProcessing()
 0()
EndIf()
If(0,2331,1)
 PictureClear(5)
 If(0,2149,0)
  241(bytes(0x04,0x08,0x6f,0x3a,0x0d,0x52,0x50,0x47,0x3a,0x3a,0x42,0x47,0x4d,0x08,0x3a,0x0a,0x40,0x6e,0x61,0x6d,0x65,0x49,0x22,0x0a,0x6b,0x69,0x6b,0x69,0x34,0x06,0x3a,0x06,0x45,0x54,0x3a,0x0c,0x40,0x76,0x6f,0x6c,0x75,0x6d,0x65,0x69,0x69,0x3a,0x0b,0x40,0x70,0x69,0x74,0x63,0x68,0x69,0x69))
  0()
 Else()
  241(bytes(0x04,0x08,0x6f,0x3a,0x0d,0x52,0x50,0x47,0x3a,0x3a,0x42,0x47,0x4d,0x08,0x3a,0x0a,0x40,0x6e,0x61,0x6d,0x65,0x49,0x22,0x16,0x64,0x75,0x6e,0x67,0x65,0x6f,0x6e,0x5f,0x63,0x6f,0x6c,0x6f,0x73,0x73,0x65,0x75,0x6d,0x06,0x3a,0x06,0x45,0x54,0x3a,0x0c,0x40,0x76,0x6f,0x6c,0x75,0x6d,0x65,0x69,0x69,0x3a,0x0b,0x40,0x70,0x69,0x74,0x63,0x68,0x69,0x69))
  0()
 EndIf()
 216(0)
 0()
EndIf()
EndEventProcessing()
0()
