﻿// EVENT 0078
Name "Skill: Play 381-390"

ChangeVariable(11,11,0,2,1,5)
If(1,100,0,382,0)
 If(1,11,0,1,0)
  ShowMessageFace("morrigan_fc1",0,0,2,1)
  ShowMessage("\\n<Morrigan>Be blown away!")
  355("interrupt_skill(3038)")
  EndEventProcessing()
  0()
 EndIf()
 If(1,11,0,2,0)
  ShowMessageFace("morrigan_fc1",0,0,2,2)
  ShowMessage("\\n<Morrigan>I'm hungry... Don't you have anything?")
  ShowMessageFace("",0,0,2,3)
  ShowMessage("Morrigan is eating some food she stole...")
  EndEventProcessing()
  0()
 EndIf()
 If(1,11,0,3,0)
  ShowMessageFace("morrigan_fc1",0,0,2,4)
  ShowMessage("\\n<Morrigan>Let's go have some nice fun!")
  ShowMessageFace("",0,0,2,5)
  ShowMessage("Morrigan is dancing and singing happily...")
  EndEventProcessing()
  0()
 EndIf()
 If(1,11,0,4,0)
  ShowMessageFace("morrigan_fc1",0,0,2,6)
  ShowMessage("\\n<Morrigan>Here, have this!")
  ShowMessageFace("",0,0,2,7)
  ShowMessage("Morrigan presents a gift!")
  250(bytes(0x04,0x08,0x6f,0x3a,0x0c,0x52,0x50,0x47,0x3a,0x3a,0x53,0x45,0x08,0x3a,0x0a,0x40,0x6e,0x61,0x6d,0x65,0x49,0x22,0x0a,0x49,0x74,0x65,0x6d,0x31,0x06,0x3a,0x06,0x45,0x54,0x3a,0x0b,0x40,0x70,0x69,0x74,0x63,0x68,0x69,0x69,0x3a,0x0c,0x40,0x76,0x6f,0x6c,0x75,0x6d,0x65,0x69,0x55))
  ChangeInventory_Item(418,0,0,1)
  ShowMessageFace("",0,0,2,8)
  ShowMessage("You obtain some \\ii[418]!")
  EndEventProcessing()
  0()
 EndIf()
 If(1,11,0,5,0)
  ShowMessageFace("morrigan_fc1",1,0,2,9)
  ShowMessage("\\n<Morrigan>Fufufu...")
  355("interrupt_skill(3296)")
  EndEventProcessing()
  0()
 EndIf()
 0()
EndIf()
If(1,100,0,383,0)
 If(1,11,0,1,0)
  ShowMessageFace("eden_fc1",0,0,2,10)
  ShowMessage("\\n<Eden>I shall go... Hmph!")
  355("interrupt_skill(3294)")
  EndEventProcessing()
  0()
 EndIf()
 If(1,11,0,2,0)
  ShowMessageFace("eden_fc1",0,0,2,11)
  ShowMessage("\\n<Eden>My cheering shall empower the team...")
  355("interrupt_skill(3300)")
  EndEventProcessing()
  0()
 EndIf()
 If(1,11,0,3,0)
  ShowMessageFace("eden_fc1",0,0,2,12)
  ShowMessage("\\n<Eden>I'll use this medicine Promestein gave me.\nIf I remember correctly, you mix Drug A with Drug B like this...")
  355("interrupt_skill(3306)")
  EndEventProcessing()
  0()
 EndIf()
 If(1,11,0,4,0)
  ShowMessageFace("eden_fc1",0,0,2,13)
  ShowMessage("\\n<Eden>I caught something.\nPlease feel free to eat it...")
  ShowMessageFace("",0,0,2,14)
  ShowMessage("Eden presents a gift!")
  250(bytes(0x04,0x08,0x6f,0x3a,0x0c,0x52,0x50,0x47,0x3a,0x3a,0x53,0x45,0x08,0x3a,0x0a,0x40,0x6e,0x61,0x6d,0x65,0x49,0x22,0x0a,0x49,0x74,0x65,0x6d,0x31,0x06,0x3a,0x06,0x45,0x54,0x3a,0x0b,0x40,0x70,0x69,0x74,0x63,0x68,0x69,0x69,0x3a,0x0c,0x40,0x76,0x6f,0x6c,0x75,0x6d,0x65,0x69,0x55))
  ChangeInventory_Item(450,0,0,1)
  ShowMessageFace("",0,0,2,15)
  ShowMessage("You obtain a \\ii[450]!")
  EndEventProcessing()
  0()
 EndIf()
 If(1,11,0,5,0)
  ShowMessageFace("eden_fc1",0,0,2,16)
  ShowMessage("\\n<Eden>Let us pray to Ilias...")
  355("interrupt_skill(3302)")
  EndEventProcessing()
  0()
 EndIf()
 0()
EndIf()
0()
