﻿// EVENT 0900
Name "Labyrinth of Chaos Enemy Level"

ChangeVariable(41,41,0,0,100)
ChangeVariable(41,41,1,1,149)
ChangeVariable(41,41,3,0,3)
If(1,149,0,1000,1)
 If(1,149,0,1999,2)
  ChangeVariable(41,41,3,0,2)
  0()
 EndIf()
 0()
EndIf()
If(1,149,0,2000,1)
 If(1,149,0,4999,2)
  ChangeVariable(41,41,3,0,3)
  0()
 EndIf()
 0()
EndIf()
If(1,149,0,5000,1)
 If(1,149,0,19999,2)
  ChangeVariable(41,41,3,0,4)
  0()
 EndIf()
 0()
EndIf()
If(1,149,0,20000,1)
 If(1,149,0,199999,2)
  ChangeVariable(41,41,3,0,5)
  0()
 EndIf()
 0()
EndIf()
If(1,149,0,200000,1)
 ChangeVariable(41,41,3,0,6)
 0()
EndIf()
ChangeVariable(48,48,0,0,100)
ChangeVariable(14,14,0,1,149)
ChangeVariable(14,14,4,0,3)
ChangeVariable(48,48,1,1,14)
ChangeVariable(42,42,0,0,100)
ChangeVariable(14,14,0,1,149)
ChangeVariable(14,14,4,0,3)
ChangeVariable(42,42,1,1,14)
ChangeVariable(43,43,0,0,100)
ChangeVariable(14,14,0,1,149)
ChangeVariable(14,14,4,0,30)
ChangeVariable(43,43,1,1,14)
ChangeVariable(44,44,0,0,100)
ChangeVariable(14,14,0,1,149)
ChangeVariable(14,14,4,0,3)
ChangeVariable(44,44,1,1,14)
ChangeVariable(14,14,0,1,149)
ChangeVariable(14,14,4,0,30)
ChangeVariable(46,46,0,0,300)
ChangeVariable(46,46,1,1,14)
ChangeVariable(47,47,0,0,300)
ChangeVariable(47,47,1,1,14)
If(1,46,0,5000,1)
 ChangeVariable(46,46,0,0,5000)
 0()
EndIf()
If(1,47,0,10000,1)
 ChangeVariable(47,47,0,0,10000)
 0()
EndIf()
EndEventProcessing()
0()
