// EVENT 2034
Name "Seduction: Meda Girl"

If(0,25,1)
 EndEventProcessing()
 0()
EndIf()
355("$game_troop.lose_event_id = 3034")
ChangeVariable(26,26,0,3,3,1,4)
ChangeVariable(26,26,4,0,10)
ShowMessageFace("meda_fc1",0,0,2,1)
ShowMessage("\\n<Meda Girl>Prey...")
250(bytes(0x04,0x08,0x6f,0x3a,0x0c,0x52,0x50,0x47,0x3a,0x3a,0x53,0x45,0x08,0x3a,0x0a,0x40,0x6e,0x61,0x6d,0x65,0x49,0x22,0x12,0x6d,0x6f,0x6e,0x5f,0x65,0x72,0x6f,0x5f,0x6e,0x61,0x6d,0x65,0x32,0x06,0x3a,0x06,0x45,0x54,0x3a,0x0b,0x40,0x70,0x69,0x74,0x63,0x68,0x69,0x69,0x3a,0x0c,0x40,0x76,0x6f,0x6c,0x75,0x6d,0x65,0x69,0x69))
ShowMessageFace("",0,0,2,2)
ShowMessage("The Meda Girl's tentacles reach out and grab Luka's body!")
ShowMessage("Luka has been bound by the Meda Girl!")
ShowMessageFace("meda_fc1",0,0,2,3)
ShowMessage("\\n<Meda Girl>Prey... I'll absorb your fluids...")
ShowMessageFace("",0,0,2,4)
ShowMessage("The Meda Girl draws Luka toward her!")
ShowMessageFace("",0,0,2,5)
ShowMessage("\\n<Luka>U-Urhg...!")
ShowMessageFace("",0,0,2,6)
ShowMessage("Her lower body opens up wide!")
ShowMessage("Numerous tentacles squirm inside of her opening.")
ShowMessageFace("",0,0,2,7)
ShowMessage("Tentacles, almost like earthworms, squirm and wriggle.")
ShowMessageFace("",0,0,2,8)
ShowMessage("\\n<Luka>N-no...")
ShowMessageFace("",0,0,2,9)
ShowMessage("She can't be trying to pull me there, can she?")
ShowMessage("I shiver at the terror, but a part of me thinks...")
ShowMessageFace("",0,0,2,10)
ShowMessage("What would that feel like?")
ShowMessage("How good would that feel...")
ChangeSwitch(98,98,0)
ChangeSwitch(96,96,0)
ShowChoices(strings("Struggle","Let her continue"),1)
IfPlayerPicksChoice(0,"もがく")
 ShowMessageFace("",0,0,2,11)
 ShowMessage("But Luka struggles, breaking free!")
 RunCommonEvent(1999)
 EndEventProcessing()
 0()
IfPlayerPicksChoice(1,"なすがまま")
 0()
404()
ShowMessageFace("",0,0,2,12)
ShowMessage("Luka's body is pulled by her tentacles...")
ShowMessageFace("meda_fc1",0,0,2,13)
ShowMessage("\\n<Meda Girl>Prey, suck...")
ShowMessageFace("",0,0,2,14)
ShowMessage("\\n<Luka>Aaaaah...!")
ShowMessageFace("",0,0,2,15)
ShowMessage("Luka is pulled right next to the Meda Girl.")
ShowMessage("Her mouth opens wide in front of him...")
ChangeVariable(26,26,3,0,4)
250(bytes(0x04,0x08,0x6f,0x3a,0x0c,0x52,0x50,0x47,0x3a,0x3a,0x53,0x45,0x08,0x3a,0x0a,0x40,0x6e,0x61,0x6d,0x65,0x49,0x22,0x11,0x6d,0x6f,0x6e,0x5f,0x65,0x72,0x6f,0x5f,0x70,0x79,0x75,0x33,0x06,0x3a,0x06,0x45,0x54,0x3a,0x0b,0x40,0x70,0x69,0x74,0x63,0x68,0x69,0x69,0x3a,0x0c,0x40,0x76,0x6f,0x6c,0x75,0x6d,0x65,0x69,0x69))
355("battler_graphic_hide")
PictureDisplay(5,"ev_meda_h1",0,0,0,0,100,100,255,0)
PictureDisplay(6,"ev_meda_ct01",0,0,0,0,100,100,255,0)
ShowMessageFace("",0,0,2,16)
ShowMessage("Luka's penis is sucked into her mouth!")
ShowMessageFace("",0,0,2,17)
ShowMessage("\\n<Luka>Huaaa...!")
311(0,1,1,1,26,true)
ShowMessageFace("",0,0,2,18)
ShowMessage("The numerous tentacles squirm around him!")
ShowMessage("Luka's penis is stuck inside the Meda Girl!\\D")
ShowMessage("Luka takes \\V[26] damage!")
ChangeVariable(27,27,0,3,3,1,2)
If(1,27,0,0,0)
 JumpToLabel("射精1")
 0()
EndIf()
ShowMessageFace("",0,0,2,19)
ShowMessage("Luka is being raped...")
ShowMessageFace("",0,0,2,20)
ShowMessage("\\n<Luka>Hnnaaa...!")
ShowMessageFace("",0,0,2,21)
ShowMessage("The tentacles squirm around his body.")
ShowMessage("It brings unbearable pleasure!")
ShowMessageFace("",0,0,2,22)
ShowMessage("It's like each tentacle is alive...")
ShowMessageFace("meda_fc1",0,0,2,23)
ShowMessage("\\n<Meda Girl>Prey... Suck out fluids...")
250(bytes(0x04,0x08,0x6f,0x3a,0x0c,0x52,0x50,0x47,0x3a,0x3a,0x53,0x45,0x08,0x3a,0x0a,0x40,0x6e,0x61,0x6d,0x65,0x49,0x22,0x16,0x6d,0x6f,0x6e,0x5f,0x65,0x72,0x6f,0x5f,0x6d,0x61,0x6b,0x69,0x74,0x75,0x6b,0x69,0x33,0x06,0x3a,0x06,0x45,0x54,0x3a,0x0b,0x40,0x70,0x69,0x74,0x63,0x68,0x69,0x69,0x3a,0x0c,0x40,0x76,0x6f,0x6c,0x75,0x6d,0x65,0x69,0x69))
311(0,1,1,1,26,true)
ShowMessageFace("",0,0,2,24)
ShowMessage("Countless tentacles squirm around Luka!\\D")
ShowMessage("Luka takes \\V[26] damage!")
ChangeVariable(27,27,0,3,3,1,2)
If(1,27,0,0,0)
 JumpToLabel("射精2")
 0()
EndIf()
ShowMessageFace("",0,0,2,25)
ShowMessage("\\n<Luka>Aiyeee...!")
ShowMessageFace("",0,0,2,26)
ShowMessage("I can't bear this any more...")
ShowMessage("I'm going to come at this rate.")
ShowMessageFace("meda_fc1",0,0,2,27)
ShowMessage("\\n<Meda Girl>Prey... Fluids...")
250(bytes(0x04,0x08,0x6f,0x3a,0x0c,0x52,0x50,0x47,0x3a,0x3a,0x53,0x45,0x08,0x3a,0x0a,0x40,0x6e,0x61,0x6d,0x65,0x49,0x22,0x16,0x6d,0x6f,0x6e,0x5f,0x65,0x72,0x6f,0x5f,0x6d,0x61,0x6b,0x69,0x74,0x75,0x6b,0x69,0x33,0x06,0x3a,0x06,0x45,0x54,0x3a,0x0b,0x40,0x70,0x69,0x74,0x63,0x68,0x69,0x69,0x3a,0x0c,0x40,0x76,0x6f,0x6c,0x75,0x6d,0x65,0x69,0x69))
311(0,1,1,1,26,true)
ShowMessageFace("",0,0,2,28)
ShowMessage("The earthworm-like tentacles coil around his penis!\\D")
ShowMessage("Luka takes \\V[26] damage!")
ChangeVariable(27,27,0,3,3,1,2)
If(1,27,0,0,0)
 JumpToLabel("射精2")
 0()
EndIf()
DefineLabel("射精1")
ShowMessageFace("",0,0,2,29)
ShowMessage("\\n<Luka>Aah...! Coming...!")
RunCommonEvent(104)
PictureDisplay(5,"ev_meda_h2",0,0,0,0,100,100,255,0)
PictureDisplay(6,"ev_meda_ct02",0,0,0,0,100,100,255,0)
RunCommonEvent(105)
ShowMessageFace("",0,0,2,30)
ShowMessage("The moment Luka is forced inside her mouth, he comes.")
ShowMessage("The touch of her tentacles was more than he could withstand...")
ShowMessageFace("meda_fc1",0,0,2,31)
ShowMessage("\\n<Meda Girl>Prey... Semen...")
ShowMessageFace("",0,0,2,32)
ShowMessage("Without letting Luka go, the Meda Girl's tentacles continue to squirm...")
RunCommonEvent(2000)
EndEventProcessing()
DefineLabel("射精2")
ShowMessageFace("",0,0,2,33)
ShowMessage("\\n<Luka>Oh no, I'm coming... Aaah...")
RunCommonEvent(104)
PictureDisplay(5,"ev_meda_h2",0,0,0,0,100,100,255,0)
PictureDisplay(6,"ev_meda_ct02",0,0,0,0,100,100,255,0)
RunCommonEvent(105)
ShowMessageFace("",0,0,2,34)
ShowMessage("Luka releases inside the Meda Girl's mouth!")
ShowMessage("His semen sprays all over the mass of tentacles.")
ShowMessageFace("meda_fc1",0,0,2,35)
ShowMessage("\\n<Meda Girl>Prey... Semen...")
ShowMessageFace("",0,0,2,36)
ShowMessage("Without letting Luka go, the Meda Girl's tentacles continue to squirm...")
RunCommonEvent(2000)
EndEventProcessing()
0()
