﻿
DisplayName "Alicetroemeria's Room"



EVENT   2
 PAGE   1
  0()



EVENT   11
 PAGE   1
  0()



EVENT   1
 PAGE   1
  0()



EVENT   3
 PAGE   1
  // condition: variable 1113 >= 1
  0()
 PAGE   2
  // condition: variable 1113 >= 2
  0()
 PAGE   3
  // condition: variable 1113 >= 3
  0()
 PAGE   4
  // condition: variable 1113 >= 4
  0()
 PAGE   5
  // condition: variable 1113 >= 5
  0()
 PAGE   6
  // condition: variable 1113 >= 6
  0()
 PAGE   7
  // condition: variable 1113 >= 7
  0()
 PAGE   8
  // condition: variable 1113 >= 8
  0()
 PAGE   9
  // condition: variable 1113 >= 9
  0()
 PAGE   10
  // condition: variable 1113 >= 10
  0()
 PAGE   11
  // condition: variable 1113 >= 11
  0()
 PAGE   12
  // condition: variable 1113 >= 12
  0()
 PAGE   13
  // condition: variable 1113 >= 13
  0()
 PAGE   14
  // condition: variable 1113 >= 14
  0()
 PAGE   15
  // condition: variable 1113 >= 15
  0()



EVENT   4
 PAGE   1
  // condition: variable 1114 >= 1
  0()
 PAGE   2
  // condition: variable 1114 >= 2
  0()
 PAGE   3
  // condition: variable 1114 >= 3
  0()
 PAGE   4
  // condition: variable 1114 >= 4
  0()
 PAGE   5
  // condition: variable 1114 >= 5
  0()
 PAGE   6
  // condition: variable 1114 >= 6
  0()
 PAGE   7
  // condition: variable 1114 >= 7
  0()
 PAGE   8
  // condition: variable 1114 >= 8
  0()
 PAGE   9
  // condition: variable 1114 >= 9
  0()
 PAGE   10
  // condition: variable 1114 >= 10
  0()
 PAGE   11
  // condition: variable 1114 >= 11
  0()
 PAGE   12
  // condition: variable 1114 >= 12
  0()
 PAGE   13
  // condition: variable 1114 >= 13
  0()
 PAGE   14
  // condition: variable 1114 >= 14
  0()
 PAGE   15
  // condition: variable 1114 >= 15
  0()



EVENT   5
 PAGE   1
  // condition: variable 1115 >= 1
  0()
 PAGE   2
  // condition: variable 1115 >= 2
  0()
 PAGE   3
  // condition: variable 1115 >= 3
  0()
 PAGE   4
  // condition: variable 1115 >= 4
  0()
 PAGE   5
  // condition: variable 1115 >= 5
  0()
 PAGE   6
  // condition: variable 1115 >= 6
  0()
 PAGE   7
  // condition: variable 1115 >= 7
  0()
 PAGE   8
  // condition: variable 1115 >= 8
  0()
 PAGE   9
  // condition: variable 1115 >= 9
  0()
 PAGE   10
  // condition: variable 1115 >= 10
  0()
 PAGE   11
  // condition: variable 1115 >= 11
  0()
 PAGE   12
  // condition: variable 1115 >= 12
  0()
 PAGE   13
  // condition: variable 1115 >= 13
  0()
 PAGE   14
  // condition: variable 1115 >= 14
  0()
 PAGE   15
  // condition: variable 1115 >= 15
  0()



EVENT   6
 PAGE   1
  241(bytes(0x04,0x08,0x6f,0x3a,0x0d,0x52,0x50,0x47,0x3a,0x3a,0x42,0x47,0x4d,0x08,0x3a,0x0a,0x40,0x6e,0x61,0x6d,0x65,0x49,0x22,0x11,0x73,0x63,0x65,0x6e,0x65,0x5f,0x64,0x61,0x6e,0x63,0x65,0x32,0x06,0x3a,0x06,0x45,0x54,0x3a,0x0c,0x40,0x76,0x6f,0x6c,0x75,0x6d,0x65,0x69,0x69,0x3a,0x0b,0x40,0x70,0x69,0x74,0x63,0x68,0x69,0x69))
  ShowMessageFace("",0,0,2,1)
  ShowMessage("Alicetroemeria's tea party has begun...")
  If(1,1113,0,1,0)
   ShowMessageFace("eden_fc1",1,0,2,2)
   ShowMessage("\\n<Eden>Black Alice...")
   250(bytes(0x04,0x08,0x6f,0x3a,0x0c,0x52,0x50,0x47,0x3a,0x3a,0x53,0x45,0x08,0x3a,0x0a,0x40,0x6e,0x61,0x6d,0x65,0x49,0x22,0x0a,0x44,0x6f,0x77,0x6e,0x31,0x06,0x3a,0x06,0x45,0x54,0x3a,0x0b,0x40,0x70,0x69,0x74,0x63,0x68,0x69,0x69,0x3a,0x0c,0x40,0x76,0x6f,0x6c,0x75,0x6d,0x65,0x69,0x69))
   ChangeVariable(1117,1117,1,0,0)
   ShowMessageFace("alicetromeria_fc1",4,0,2,3)
   ShowMessage("\\n<Alicetroemeria>Eden...")
   0()
  EndIf()
  If(1,1113,0,2,0)
   ShowMessageFace("arumaeruma_fc2",0,0,2,4)
   ShowMessage("\\n<Alma Elma>I am Alma Elma, at your invitation.\nI am also one of the Monster Lord's Four Heavenly Knights, as well as the current Queen Succubus.")
   250(bytes(0x04,0x08,0x6f,0x3a,0x0c,0x52,0x50,0x47,0x3a,0x3a,0x53,0x45,0x08,0x3a,0x0a,0x40,0x6e,0x61,0x6d,0x65,0x49,0x22,0x08,0x55,0x70,0x31,0x06,0x3a,0x06,0x45,0x54,0x3a,0x0b,0x40,0x70,0x69,0x74,0x63,0x68,0x69,0x69,0x3a,0x0c,0x40,0x76,0x6f,0x6c,0x75,0x6d,0x65,0x69,0x69))
   ChangeVariable(1117,1117,1,0,20)
   ShowMessageFace("alicetromeria_fc1",0,0,2,5)
   ShowMessage("\\n<Alicetroemeria>Welcome to my tea party.\nJudging from your expression, is there something you want to ask of me?")
   ShowMessageFace("arumaeruma_fc2",0,0,2,6)
   ShowMessage("\\n<Alma Elma>Even in the Monster Lord's position, you seem to enjoy a lot of freedom... Have you ever thought about what it means to be a Monster Lord?")
   ShowMessageFace("alicetromeria_fc1",0,0,2,7)
   ShowMessage("\\n<Alicetroemeria>Being a Monster Lord is not a shackle.\nI am not bound by anything.")
   ShowMessageFace("alicetromeria_fc1",0,0,2,8)
   ShowMessage("\\n<Alicetroemeria>I have heard rumors that you are the most free of the Four Heavenly Knights... And yet, you look more burdened than anyone else.")
   ShowMessageFace("arumaeruma_fc2",3,0,2,9)
   ShowMessage("\\n<Alma Elma>............")
   0()
  EndIf()
  If(1,1113,0,3,0)
   ShowMessageFace("chrom_fc2",1,0,2,10)
   ShowMessage("\\n<Chrome>I thank you for inviting me.\nI am Chrome Artiste, pleased to make your acquaintance.")
   250(bytes(0x04,0x08,0x6f,0x3a,0x0c,0x52,0x50,0x47,0x3a,0x3a,0x53,0x45,0x08,0x3a,0x0a,0x40,0x6e,0x61,0x6d,0x65,0x49,0x22,0x08,0x55,0x70,0x31,0x06,0x3a,0x06,0x45,0x54,0x3a,0x0b,0x40,0x70,0x69,0x74,0x63,0x68,0x69,0x69,0x3a,0x0c,0x40,0x76,0x6f,0x6c,0x75,0x6d,0x65,0x69,0x69))
   ChangeVariable(1117,1117,1,0,20)
   ShowMessageFace("alicetromeria_fc1",0,0,2,11)
   ShowMessage("\\n<Alicetroemeria>Oh my, a descendant of the Artiste family.\nI would love to see a demonstration of your magicraft afterwards...")
   0()
  EndIf()
  If(1,1113,0,4,0)
   ShowMessageFace("youko_fc1",0,0,2,12)
   ShowMessage("\\n<Kitsu>Thank you so much for the invitation...\nWow, there's so many yummy-looking fruits and sweets♪")
   250(bytes(0x04,0x08,0x6f,0x3a,0x0c,0x52,0x50,0x47,0x3a,0x3a,0x53,0x45,0x08,0x3a,0x0a,0x40,0x6e,0x61,0x6d,0x65,0x49,0x22,0x08,0x55,0x70,0x31,0x06,0x3a,0x06,0x45,0x54,0x3a,0x0b,0x40,0x70,0x69,0x74,0x63,0x68,0x69,0x69,0x3a,0x0c,0x40,0x76,0x6f,0x6c,0x75,0x6d,0x65,0x69,0x69))
   ChangeVariable(1117,1117,1,0,20)
   ShowMessageFace("alicetromeria_fc1",0,0,2,13)
   ShowMessage("\\n<Alicetroemeria>My, what an adorable little fox.\nI wonder if I should have prepared some fried tofu...?")
   0()
  EndIf()
  If(1,1113,0,5,0)
   ShowMessageFace("cupid_fc1",0,0,2,14)
   ShowMessage("\\n<Cupi>Wow, what a big cake!\nIt looks soooo delicious♪")
   250(bytes(0x04,0x08,0x6f,0x3a,0x0c,0x52,0x50,0x47,0x3a,0x3a,0x53,0x45,0x08,0x3a,0x0a,0x40,0x6e,0x61,0x6d,0x65,0x49,0x22,0x0a,0x44,0x6f,0x77,0x6e,0x31,0x06,0x3a,0x06,0x45,0x54,0x3a,0x0b,0x40,0x70,0x69,0x74,0x63,0x68,0x69,0x69,0x3a,0x0c,0x40,0x76,0x6f,0x6c,0x75,0x6d,0x65,0x69,0x69))
   ChangeVariable(1117,1117,1,0,0)
   ShowMessageFace("alicetromeria_fc1",4,0,2,15)
   ShowMessage("\\n<Alicetroemeria>My my, even angels are enticed by the fragrance of sweets... I wonder if you truly cherish your life?")
   0()
  EndIf()
  If(1,1113,0,6,0)
   ShowMessageFace("shirokuma_fc1",0,0,2,16)
   ShowMessage("\\n<Knoot>This room is warm and cozy...\nLots of fruit, too...♪")
   250(bytes(0x04,0x08,0x6f,0x3a,0x0c,0x52,0x50,0x47,0x3a,0x3a,0x53,0x45,0x08,0x3a,0x0a,0x40,0x6e,0x61,0x6d,0x65,0x49,0x22,0x08,0x55,0x70,0x33,0x06,0x3a,0x06,0x45,0x54,0x3a,0x0b,0x40,0x70,0x69,0x74,0x63,0x68,0x69,0x69,0x3a,0x0c,0x40,0x76,0x6f,0x6c,0x75,0x6d,0x65,0x69,0x55))
   ChangeVariable(1117,1117,1,0,40)
   ShowMessageFace("alicetromeria_fc1",0,0,2,17)
   ShowMessage("\\n<Alicetroemeria>Oh, a polar beary...\nI just so happen to love bearies♪")
   0()
  EndIf()
  If(1,1113,0,7,0)
   ShowMessageFace("heinrich_fc1",7,0,2,18)
   ShowMessage("\\n<Heinrich>I'm here, Alicetroemeria.")
   250(bytes(0x04,0x08,0x6f,0x3a,0x0c,0x52,0x50,0x47,0x3a,0x3a,0x53,0x45,0x08,0x3a,0x0a,0x40,0x6e,0x61,0x6d,0x65,0x49,0x22,0x08,0x55,0x70,0x33,0x06,0x3a,0x06,0x45,0x54,0x3a,0x0b,0x40,0x70,0x69,0x74,0x63,0x68,0x69,0x69,0x3a,0x0c,0x40,0x76,0x6f,0x6c,0x75,0x6d,0x65,0x69,0x55))
   ChangeVariable(1117,1117,1,0,60)
   ShowMessageFace("alicetromeria_fc1",0,0,2,19)
   ShowMessage("\\n<Alicetroemeria>Ah, Heinrich.\nI am delighted that you have come.")
   0()
  EndIf()
  If(1,1113,0,8,0)
   ShowMessageFace("candy_fc1",1,0,2,20)
   ShowMessage("\\n<Candy>There's so much delicious-looking food...\n*munch* *munch* *munch*...")
   250(bytes(0x04,0x08,0x6f,0x3a,0x0c,0x52,0x50,0x47,0x3a,0x3a,0x53,0x45,0x08,0x3a,0x0a,0x40,0x6e,0x61,0x6d,0x65,0x49,0x22,0x0a,0x44,0x6f,0x77,0x6e,0x31,0x06,0x3a,0x06,0x45,0x54,0x3a,0x0b,0x40,0x70,0x69,0x74,0x63,0x68,0x69,0x69,0x3a,0x0c,0x40,0x76,0x6f,0x6c,0x75,0x6d,0x65,0x69,0x69))
   ChangeVariable(1117,1117,1,0,0)
   ShowMessageFace("alicetromeria_fc1",0,0,2,21)
   ShowMessage("\\n<Alicetroemeria>Oh, you're eating already?\nAren't you a bit ill-mannered...")
   0()
  EndIf()
  If(1,1113,0,9,0)
   ShowMessageFace("nekomata_fc1",2,0,2,22)
   ShowMessage("\\n<Tama>Unyaaa♪")
   250(bytes(0x04,0x08,0x6f,0x3a,0x0c,0x52,0x50,0x47,0x3a,0x3a,0x53,0x45,0x08,0x3a,0x0a,0x40,0x6e,0x61,0x6d,0x65,0x49,0x22,0x08,0x55,0x70,0x33,0x06,0x3a,0x06,0x45,0x54,0x3a,0x0b,0x40,0x70,0x69,0x74,0x63,0x68,0x69,0x69,0x3a,0x0c,0x40,0x76,0x6f,0x6c,0x75,0x6d,0x65,0x69,0x69))
   ChangeVariable(1117,1117,1,0,40)
   ShowMessageFace("alicetromeria_fc1",0,0,2,23)
   ShowMessage("\\n<Alicetroemeria>My, you invited a kitty to come along too?\nUfufu, how adorable♪")
   0()
  EndIf()
  If(1,1113,0,10,0)
   ShowMessageFace("nyumaou_fc1",0,0,2,24)
   ShowMessage("\\n<Cow Demon Queen>This is the first time I am seeing you.\nI am called the Cow Demon Queen, and I aspire to become Queen Beast.")
   250(bytes(0x04,0x08,0x6f,0x3a,0x0c,0x52,0x50,0x47,0x3a,0x3a,0x53,0x45,0x08,0x3a,0x0a,0x40,0x6e,0x61,0x6d,0x65,0x49,0x22,0x08,0x55,0x70,0x31,0x06,0x3a,0x06,0x45,0x54,0x3a,0x0b,0x40,0x70,0x69,0x74,0x63,0x68,0x69,0x69,0x3a,0x0c,0x40,0x76,0x6f,0x6c,0x75,0x6d,0x65,0x69,0x69))
   ChangeVariable(1117,1117,1,0,20)
   ShowMessageFace("alicetromeria_fc1",0,0,2,25)
   ShowMessage("\\n<Alicetroemeria>My my, you're so big...\nPerhaps I should have prepared a much bigger cake.")
   0()
  EndIf()
  If(1,1113,0,11,0)
   ShowMessageFace("alice_fc5",0,0,2,26)
   ShowMessage("\\n<Alice>As the current Monster Lord, I've accepted your invitation. You probably know already, but I'm Alipheese the Sixteenth.")
   250(bytes(0x04,0x08,0x6f,0x3a,0x0c,0x52,0x50,0x47,0x3a,0x3a,0x53,0x45,0x08,0x3a,0x0a,0x40,0x6e,0x61,0x6d,0x65,0x49,0x22,0x08,0x55,0x70,0x31,0x06,0x3a,0x06,0x45,0x54,0x3a,0x0b,0x40,0x70,0x69,0x74,0x63,0x68,0x69,0x69,0x3a,0x0c,0x40,0x76,0x6f,0x6c,0x75,0x6d,0x65,0x69,0x69))
   ChangeVariable(1117,1117,1,0,20)
   ShowMessageFace("alicetromeria_fc1",0,0,2,27)
   ShowMessage("\\n<Alicetroemeria>I never imagined fellow Monster Lords would be having tea with one another like this...\nThis truly is a rare occasion.")
   0()
  EndIf()
  If(1,1113,0,12,0)
   ShowMessageFace("mefist_fc1",0,0,2,28)
   ShowMessage("\\n<Mephisto>It has been a very long time, Your Majesty...\nThis Mephisto has answered your invitation.")
   250(bytes(0x04,0x08,0x6f,0x3a,0x0c,0x52,0x50,0x47,0x3a,0x3a,0x53,0x45,0x08,0x3a,0x0a,0x40,0x6e,0x61,0x6d,0x65,0x49,0x22,0x08,0x55,0x70,0x31,0x06,0x3a,0x06,0x45,0x54,0x3a,0x0b,0x40,0x70,0x69,0x74,0x63,0x68,0x69,0x69,0x3a,0x0c,0x40,0x76,0x6f,0x6c,0x75,0x6d,0x65,0x69,0x69))
   ChangeVariable(1117,1117,1,0,20)
   ShowMessageFace("alicetromeria_fc1",0,0,2,29)
   ShowMessage("\\n<Alicetroemeria>Oh, if it isn't Mephisto.\nIt would appear that you have been cleverly changing jobs up to the present age.")
   0()
  EndIf()
  If(1,1113,0,13,0)
   ShowMessageFace("stein_fc2",0,0,2,30)
   ShowMessage("\\n<Promestein>...Hello, I thank you for the invitation.\nThough I am not very fond of these seats...")
   250(bytes(0x04,0x08,0x6f,0x3a,0x0c,0x52,0x50,0x47,0x3a,0x3a,0x53,0x45,0x08,0x3a,0x0a,0x40,0x6e,0x61,0x6d,0x65,0x49,0x22,0x08,0x55,0x70,0x31,0x06,0x3a,0x06,0x45,0x54,0x3a,0x0b,0x40,0x70,0x69,0x74,0x63,0x68,0x69,0x69,0x3a,0x0c,0x40,0x76,0x6f,0x6c,0x75,0x6d,0x65,0x69,0x69))
   ChangeVariable(1117,1117,1,0,20)
   ShowMessageFace("alicetromeria_fc1",1,0,2,31)
   ShowMessage("\\n<Alicetroemeria>I believe you and I will get along very well...")
   0()
  EndIf()
  If(1,1113,0,14,0)
   ShowMessageFace("queenvampire_fc1",0,0,2,32)
   ShowMessage("\\n<Fatima>How do you do, Your Great Majesty the Eighth.\nI am Fatima, the queen who rules over the vampires of this world.")
   250(bytes(0x04,0x08,0x6f,0x3a,0x0c,0x52,0x50,0x47,0x3a,0x3a,0x53,0x45,0x08,0x3a,0x0a,0x40,0x6e,0x61,0x6d,0x65,0x49,0x22,0x08,0x55,0x70,0x31,0x06,0x3a,0x06,0x45,0x54,0x3a,0x0b,0x40,0x70,0x69,0x74,0x63,0x68,0x69,0x69,0x3a,0x0c,0x40,0x76,0x6f,0x6c,0x75,0x6d,0x65,0x69,0x69))
   ChangeVariable(1117,1117,1,0,20)
   ShowMessageFace("alicetromeria_fc1",0,0,2,33)
   ShowMessage("\\n<Alicetroemeria>So you are the current Queen Vampire...?\nI can see you have good eyes, burning with aspiration.")
   0()
  EndIf()
  If(1,1113,0,15,0)
   ShowMessageFace("cassandra_fc1",1,0,2,34)
   ShowMessage("\\n<Cassandra>Your Dear Majesty, I am Cassandra of House Nereneid. It is a great honor to receive your invitation...")
   250(bytes(0x04,0x08,0x6f,0x3a,0x0c,0x52,0x50,0x47,0x3a,0x3a,0x53,0x45,0x08,0x3a,0x0a,0x40,0x6e,0x61,0x6d,0x65,0x49,0x22,0x08,0x55,0x70,0x31,0x06,0x3a,0x06,0x45,0x54,0x3a,0x0b,0x40,0x70,0x69,0x74,0x63,0x68,0x69,0x69,0x3a,0x0c,0x40,0x76,0x6f,0x6c,0x75,0x6d,0x65,0x69,0x69))
   ChangeVariable(1117,1117,1,0,20)
   ShowMessageFace("alicetromeria_fc1",0,0,2,35)
   ShowMessage("\\n<Alicetroemeria>That scent... It seems you are a close relative of mine. As we are closely related by blood, we should get along well with each other.")
   0()
  EndIf()
  If(1,1114,0,1,0)
   ShowMessageFace("eden_fc1",1,0,2,36)
   ShowMessage("\\n<Eden>Black Alice...")
   250(bytes(0x04,0x08,0x6f,0x3a,0x0c,0x52,0x50,0x47,0x3a,0x3a,0x53,0x45,0x08,0x3a,0x0a,0x40,0x6e,0x61,0x6d,0x65,0x49,0x22,0x0a,0x44,0x6f,0x77,0x6e,0x31,0x06,0x3a,0x06,0x45,0x54,0x3a,0x0b,0x40,0x70,0x69,0x74,0x63,0x68,0x69,0x69,0x3a,0x0c,0x40,0x76,0x6f,0x6c,0x75,0x6d,0x65,0x69,0x69))
   ChangeVariable(1117,1117,1,0,0)
   ShowMessageFace("alicetromeria_fc1",4,0,2,37)
   ShowMessage("\\n<Alicetroemeria>Eden...")
   0()
  EndIf()
  If(1,1114,0,2,0)
   ShowMessageFace("arumaeruma_fc2",0,0,2,38)
   ShowMessage("\\n<Alma Elma>I am Alma Elma, at your invitation.\nI am also one of the Monster Lord's Four Heavenly Knights, as well as the current Queen Succubus.")
   250(bytes(0x04,0x08,0x6f,0x3a,0x0c,0x52,0x50,0x47,0x3a,0x3a,0x53,0x45,0x08,0x3a,0x0a,0x40,0x6e,0x61,0x6d,0x65,0x49,0x22,0x08,0x55,0x70,0x31,0x06,0x3a,0x06,0x45,0x54,0x3a,0x0b,0x40,0x70,0x69,0x74,0x63,0x68,0x69,0x69,0x3a,0x0c,0x40,0x76,0x6f,0x6c,0x75,0x6d,0x65,0x69,0x69))
   ChangeVariable(1117,1117,1,0,20)
   ShowMessageFace("alicetromeria_fc1",0,0,2,39)
   ShowMessage("\\n<Alicetroemeria>Welcome to my tea party.\nJudging from your expression, is there something you want to ask of me?")
   ShowMessageFace("arumaeruma_fc2",0,0,2,40)
   ShowMessage("\\n<Alma Elma>Even in the Monster Lord's position, you seem to enjoy a lot of freedom... Have you ever thought about what it means to be a Monster Lord?")
   ShowMessageFace("alicetromeria_fc1",0,0,2,41)
   ShowMessage("\\n<Alicetroemeria>Being a Monster Lord is not a shackle.\nI am not bound by anything.")
   ShowMessageFace("alicetromeria_fc1",0,0,2,42)
   ShowMessage("\\n<Alicetroemeria>I have heard rumors that you are the most free of the Four Heavenly Knights... And yet, you look more burdened than anyone else.")
   ShowMessageFace("arumaeruma_fc2",3,0,2,43)
   ShowMessage("\\n<Alma Elma>............")
   0()
  EndIf()
  If(1,1114,0,3,0)
   ShowMessageFace("chrom_fc2",1,0,2,44)
   ShowMessage("\\n<Chrome>I thank you for inviting me.\nI am Chrome Artiste, pleased to make your acquaintance.")
   250(bytes(0x04,0x08,0x6f,0x3a,0x0c,0x52,0x50,0x47,0x3a,0x3a,0x53,0x45,0x08,0x3a,0x0a,0x40,0x6e,0x61,0x6d,0x65,0x49,0x22,0x08,0x55,0x70,0x31,0x06,0x3a,0x06,0x45,0x54,0x3a,0x0b,0x40,0x70,0x69,0x74,0x63,0x68,0x69,0x69,0x3a,0x0c,0x40,0x76,0x6f,0x6c,0x75,0x6d,0x65,0x69,0x69))
   ChangeVariable(1117,1117,1,0,20)
   ShowMessageFace("alicetromeria_fc1",0,0,2,45)
   ShowMessage("\\n<Alicetroemeria>Oh my, a descendant of the Artiste family.\nI would love to see a demonstration of your magicraft afterwards...")
   0()
  EndIf()
  If(1,1114,0,4,0)
   ShowMessageFace("youko_fc1",0,0,2,46)
   ShowMessage("\\n<Kitsu>Thank you so much for the invitation...\nWow, there's so many yummy-looking fruits and sweets♪")
   250(bytes(0x04,0x08,0x6f,0x3a,0x0c,0x52,0x50,0x47,0x3a,0x3a,0x53,0x45,0x08,0x3a,0x0a,0x40,0x6e,0x61,0x6d,0x65,0x49,0x22,0x08,0x55,0x70,0x31,0x06,0x3a,0x06,0x45,0x54,0x3a,0x0b,0x40,0x70,0x69,0x74,0x63,0x68,0x69,0x69,0x3a,0x0c,0x40,0x76,0x6f,0x6c,0x75,0x6d,0x65,0x69,0x69))
   ChangeVariable(1117,1117,1,0,20)
   ShowMessageFace("alicetromeria_fc1",0,0,2,47)
   ShowMessage("\\n<Alicetroemeria>My, what an adorable little fox.\nI wonder if I should have prepared some fried tofu...?")
   0()
  EndIf()
  If(1,1114,0,5,0)
   ShowMessageFace("cupid_fc1",0,0,2,48)
   ShowMessage("\\n<Cupi>Wow, what a big cake!\nIt looks soooo delicious♪")
   250(bytes(0x04,0x08,0x6f,0x3a,0x0c,0x52,0x50,0x47,0x3a,0x3a,0x53,0x45,0x08,0x3a,0x0a,0x40,0x6e,0x61,0x6d,0x65,0x49,0x22,0x0a,0x44,0x6f,0x77,0x6e,0x31,0x06,0x3a,0x06,0x45,0x54,0x3a,0x0b,0x40,0x70,0x69,0x74,0x63,0x68,0x69,0x69,0x3a,0x0c,0x40,0x76,0x6f,0x6c,0x75,0x6d,0x65,0x69,0x69))
   ChangeVariable(1117,1117,1,0,0)
   ShowMessageFace("alicetromeria_fc1",4,0,2,49)
   ShowMessage("\\n<Alicetroemeria>My my, even angels are enticed by the fragrance of sweets... I wonder if you truly cherish your life?")
   0()
  EndIf()
  If(1,1114,0,6,0)
   ShowMessageFace("shirokuma_fc1",0,0,2,50)
   ShowMessage("\\n<Knoot>This room is warm and cozy...\nLots of fruit, too...♪")
   250(bytes(0x04,0x08,0x6f,0x3a,0x0c,0x52,0x50,0x47,0x3a,0x3a,0x53,0x45,0x08,0x3a,0x0a,0x40,0x6e,0x61,0x6d,0x65,0x49,0x22,0x08,0x55,0x70,0x33,0x06,0x3a,0x06,0x45,0x54,0x3a,0x0b,0x40,0x70,0x69,0x74,0x63,0x68,0x69,0x69,0x3a,0x0c,0x40,0x76,0x6f,0x6c,0x75,0x6d,0x65,0x69,0x55))
   ChangeVariable(1117,1117,1,0,40)
   ShowMessageFace("alicetromeria_fc1",0,0,2,51)
   ShowMessage("\\n<Alicetroemeria>Oh, a polar beary...\nI just so happen to love bearies♪")
   0()
  EndIf()
  If(1,1114,0,7,0)
   ShowMessageFace("heinrich_fc1",7,0,2,52)
   ShowMessage("\\n<Heinrich>I'm here, Alicetroemeria.")
   250(bytes(0x04,0x08,0x6f,0x3a,0x0c,0x52,0x50,0x47,0x3a,0x3a,0x53,0x45,0x08,0x3a,0x0a,0x40,0x6e,0x61,0x6d,0x65,0x49,0x22,0x08,0x55,0x70,0x33,0x06,0x3a,0x06,0x45,0x54,0x3a,0x0b,0x40,0x70,0x69,0x74,0x63,0x68,0x69,0x69,0x3a,0x0c,0x40,0x76,0x6f,0x6c,0x75,0x6d,0x65,0x69,0x55))
   ChangeVariable(1117,1117,1,0,60)
   ShowMessageFace("alicetromeria_fc1",0,0,2,53)
   ShowMessage("\\n<Alicetroemeria>Ah, Heinrich.\nI am delighted that you have come.")
   0()
  EndIf()
  If(1,1114,0,8,0)
   ShowMessageFace("candy_fc1",1,0,2,54)
   ShowMessage("\\n<Candy>There's so much delicious-looking food...\n*munch* *munch* *munch*...")
   250(bytes(0x04,0x08,0x6f,0x3a,0x0c,0x52,0x50,0x47,0x3a,0x3a,0x53,0x45,0x08,0x3a,0x0a,0x40,0x6e,0x61,0x6d,0x65,0x49,0x22,0x0a,0x44,0x6f,0x77,0x6e,0x31,0x06,0x3a,0x06,0x45,0x54,0x3a,0x0b,0x40,0x70,0x69,0x74,0x63,0x68,0x69,0x69,0x3a,0x0c,0x40,0x76,0x6f,0x6c,0x75,0x6d,0x65,0x69,0x69))
   ChangeVariable(1117,1117,1,0,0)
   ShowMessageFace("alicetromeria_fc1",0,0,2,55)
   ShowMessage("\\n<Alicetroemeria>Oh, you're eating already?\nAren't you a bit ill-mannered...")
   0()
  EndIf()
  If(1,1114,0,9,0)
   ShowMessageFace("nekomata_fc1",2,0,2,56)
   ShowMessage("\\n<Tama>Unyaaa♪")
   250(bytes(0x04,0x08,0x6f,0x3a,0x0c,0x52,0x50,0x47,0x3a,0x3a,0x53,0x45,0x08,0x3a,0x0a,0x40,0x6e,0x61,0x6d,0x65,0x49,0x22,0x08,0x55,0x70,0x33,0x06,0x3a,0x06,0x45,0x54,0x3a,0x0b,0x40,0x70,0x69,0x74,0x63,0x68,0x69,0x69,0x3a,0x0c,0x40,0x76,0x6f,0x6c,0x75,0x6d,0x65,0x69,0x55))
   ChangeVariable(1117,1117,1,0,40)
   ShowMessageFace("alicetromeria_fc1",0,0,2,57)
   ShowMessage("\\n<Alicetroemeria>My, you invited a kitty to come along too?\nUfufu, how adorable♪")
   0()
  EndIf()
  If(1,1114,0,10,0)
   ShowMessageFace("nyumaou_fc1",0,0,2,58)
   ShowMessage("\\n<Cow Demon Queen>This is the first time I am seeing you.\nI am called the Cow Demon Queen, and I aspire to become Queen Beast.")
   250(bytes(0x04,0x08,0x6f,0x3a,0x0c,0x52,0x50,0x47,0x3a,0x3a,0x53,0x45,0x08,0x3a,0x0a,0x40,0x6e,0x61,0x6d,0x65,0x49,0x22,0x08,0x55,0x70,0x31,0x06,0x3a,0x06,0x45,0x54,0x3a,0x0b,0x40,0x70,0x69,0x74,0x63,0x68,0x69,0x69,0x3a,0x0c,0x40,0x76,0x6f,0x6c,0x75,0x6d,0x65,0x69,0x69))
   ChangeVariable(1117,1117,1,0,20)
   ShowMessageFace("alicetromeria_fc1",0,0,2,59)
   ShowMessage("\\n<Alicetroemeria>My my, you're so big...\nPerhaps I should have prepared a much bigger cake.")
   0()
  EndIf()
  If(1,1114,0,11,0)
   ShowMessageFace("alice_fc5",0,0,2,60)
   ShowMessage("\\n<Alice>As the current Monster Lord, I've accepted your invitation. You probably know already, but I'm Alipheese the Sixteenth.")
   250(bytes(0x04,0x08,0x6f,0x3a,0x0c,0x52,0x50,0x47,0x3a,0x3a,0x53,0x45,0x08,0x3a,0x0a,0x40,0x6e,0x61,0x6d,0x65,0x49,0x22,0x08,0x55,0x70,0x31,0x06,0x3a,0x06,0x45,0x54,0x3a,0x0b,0x40,0x70,0x69,0x74,0x63,0x68,0x69,0x69,0x3a,0x0c,0x40,0x76,0x6f,0x6c,0x75,0x6d,0x65,0x69,0x69))
   ChangeVariable(1117,1117,1,0,20)
   ShowMessageFace("alicetromeria_fc1",0,0,2,61)
   ShowMessage("\\n<Alicetroemeria>I never imagined fellow Monster Lords would be having tea with one another like this...\nThis truly is a rare occasion.")
   0()
  EndIf()
  If(1,1114,0,12,0)
   ShowMessageFace("mefist_fc1",0,0,2,62)
   ShowMessage("\\n<Mephisto>It has been a very long time, Your Majesty...\nThis Mephisto has answered your invitation.")
   250(bytes(0x04,0x08,0x6f,0x3a,0x0c,0x52,0x50,0x47,0x3a,0x3a,0x53,0x45,0x08,0x3a,0x0a,0x40,0x6e,0x61,0x6d,0x65,0x49,0x22,0x08,0x55,0x70,0x31,0x06,0x3a,0x06,0x45,0x54,0x3a,0x0b,0x40,0x70,0x69,0x74,0x63,0x68,0x69,0x69,0x3a,0x0c,0x40,0x76,0x6f,0x6c,0x75,0x6d,0x65,0x69,0x69))
   ChangeVariable(1117,1117,1,0,20)
   ShowMessageFace("alicetromeria_fc1",0,0,2,63)
   ShowMessage("\\n<Alicetroemeria>Oh, if it isn't Mephisto.\nIt would appear that you have been cleverly changing jobs up to the present age.")
   0()
  EndIf()
  If(1,1114,0,13,0)
   ShowMessageFace("stein_fc2",0,0,2,64)
   ShowMessage("\\n<Promestein>...Hello, I thank you for the invitation.\nThough I am not very fond of these seats...")
   250(bytes(0x04,0x08,0x6f,0x3a,0x0c,0x52,0x50,0x47,0x3a,0x3a,0x53,0x45,0x08,0x3a,0x0a,0x40,0x6e,0x61,0x6d,0x65,0x49,0x22,0x08,0x55,0x70,0x31,0x06,0x3a,0x06,0x45,0x54,0x3a,0x0b,0x40,0x70,0x69,0x74,0x63,0x68,0x69,0x69,0x3a,0x0c,0x40,0x76,0x6f,0x6c,0x75,0x6d,0x65,0x69,0x69))
   ChangeVariable(1117,1117,1,0,20)
   ShowMessageFace("alicetromeria_fc1",1,0,2,65)
   ShowMessage("\\n<Alicetroemeria>I believe you and I will get along very well...")
   0()
  EndIf()
  If(1,1114,0,14,0)
   ShowMessageFace("queenvampire_fc1",0,0,2,66)
   ShowMessage("\\n<Fatima>How do you do, Your Great Majesty the Eighth.\nI am Fatima, the queen who rules over the vampires of this world.")
   250(bytes(0x04,0x08,0x6f,0x3a,0x0c,0x52,0x50,0x47,0x3a,0x3a,0x53,0x45,0x08,0x3a,0x0a,0x40,0x6e,0x61,0x6d,0x65,0x49,0x22,0x08,0x55,0x70,0x31,0x06,0x3a,0x06,0x45,0x54,0x3a,0x0b,0x40,0x70,0x69,0x74,0x63,0x68,0x69,0x69,0x3a,0x0c,0x40,0x76,0x6f,0x6c,0x75,0x6d,0x65,0x69,0x69))
   ChangeVariable(1117,1117,1,0,20)
   ShowMessageFace("alicetromeria_fc1",0,0,2,67)
   ShowMessage("\\n<Alicetroemeria>So you are the current Queen Vampire...?\nI can see you have good eyes, burning with aspiration.")
   0()
  EndIf()
  If(1,1114,0,15,0)
   ShowMessageFace("cassandra_fc1",1,0,2,68)
   ShowMessage("\\n<Cassandra>Your Dear Majesty, I am Cassandra of House Nereneid. It is a great honor to receive your invitation...")
   250(bytes(0x04,0x08,0x6f,0x3a,0x0c,0x52,0x50,0x47,0x3a,0x3a,0x53,0x45,0x08,0x3a,0x0a,0x40,0x6e,0x61,0x6d,0x65,0x49,0x22,0x08,0x55,0x70,0x31,0x06,0x3a,0x06,0x45,0x54,0x3a,0x0b,0x40,0x70,0x69,0x74,0x63,0x68,0x69,0x69,0x3a,0x0c,0x40,0x76,0x6f,0x6c,0x75,0x6d,0x65,0x69,0x69))
   ChangeVariable(1117,1117,1,0,20)
   ShowMessageFace("alicetromeria_fc1",0,0,2,69)
   ShowMessage("\\n<Alicetroemeria>That scent... It seems you are a close relative of mine. As we are closely related by blood, we should get along well with each other.")
   0()
  EndIf()
  If(1,1115,0,1,0)
   ShowMessageFace("eden_fc1",1,0,2,70)
   ShowMessage("\\n<Eden>Black Alice...")
   250(bytes(0x04,0x08,0x6f,0x3a,0x0c,0x52,0x50,0x47,0x3a,0x3a,0x53,0x45,0x08,0x3a,0x0a,0x40,0x6e,0x61,0x6d,0x65,0x49,0x22,0x0a,0x44,0x6f,0x77,0x6e,0x31,0x06,0x3a,0x06,0x45,0x54,0x3a,0x0b,0x40,0x70,0x69,0x74,0x63,0x68,0x69,0x69,0x3a,0x0c,0x40,0x76,0x6f,0x6c,0x75,0x6d,0x65,0x69,0x69))
   ChangeVariable(1117,1117,1,0,0)
   ShowMessageFace("alicetromeria_fc1",4,0,2,71)
   ShowMessage("\\n<Alicetroemeria>Eden...")
   0()
  EndIf()
  If(1,1115,0,2,0)
   ShowMessageFace("arumaeruma_fc2",0,0,2,72)
   ShowMessage("\\n<Alma Elma>I am Alma Elma, at your invitation.\nI am also one of the Monster Lord's Four Heavenly Knights, as well as the current Queen Succubus.")
   250(bytes(0x04,0x08,0x6f,0x3a,0x0c,0x52,0x50,0x47,0x3a,0x3a,0x53,0x45,0x08,0x3a,0x0a,0x40,0x6e,0x61,0x6d,0x65,0x49,0x22,0x08,0x55,0x70,0x31,0x06,0x3a,0x06,0x45,0x54,0x3a,0x0b,0x40,0x70,0x69,0x74,0x63,0x68,0x69,0x69,0x3a,0x0c,0x40,0x76,0x6f,0x6c,0x75,0x6d,0x65,0x69,0x69))
   ChangeVariable(1117,1117,1,0,20)
   ShowMessageFace("alicetromeria_fc1",0,0,2,73)
   ShowMessage("\\n<Alicetroemeria>Welcome to my tea party.\nJudging from your expression, is there something you want to ask of me?")
   ShowMessageFace("arumaeruma_fc2",0,0,2,74)
   ShowMessage("\\n<Alma Elma>Even in the Monster Lord's position, you seem to enjoy a lot of freedom... Have you ever thought about what it means to be a Monster Lord?")
   ShowMessageFace("alicetromeria_fc1",0,0,2,75)
   ShowMessage("\\n<Alicetroemeria>Being a Monster Lord is not a shackle.\nI am not bound by anything.")
   ShowMessageFace("alicetromeria_fc1",0,0,2,76)
   ShowMessage("\\n<Alicetroemeria>I have heard rumors that you are the most free of the Four Heavenly Knights... And yet, you look more burdened than anyone else.")
   ShowMessageFace("arumaeruma_fc2",3,0,2,77)
   ShowMessage("\\n<Alma Elma>............")
   0()
  EndIf()
  If(1,1115,0,3,0)
   ShowMessageFace("chrom_fc2",1,0,2,78)
   ShowMessage("\\n<Chrome>I thank you for inviting me.\nI am Chrome Artiste, pleased to make your acquaintance.")
   250(bytes(0x04,0x08,0x6f,0x3a,0x0c,0x52,0x50,0x47,0x3a,0x3a,0x53,0x45,0x08,0x3a,0x0a,0x40,0x6e,0x61,0x6d,0x65,0x49,0x22,0x08,0x55,0x70,0x31,0x06,0x3a,0x06,0x45,0x54,0x3a,0x0b,0x40,0x70,0x69,0x74,0x63,0x68,0x69,0x69,0x3a,0x0c,0x40,0x76,0x6f,0x6c,0x75,0x6d,0x65,0x69,0x69))
   ChangeVariable(1117,1117,1,0,20)
   ShowMessageFace("alicetromeria_fc1",0,0,2,79)
   ShowMessage("\\n<Alicetroemeria>Oh my, a descendant of the Artiste family.\nI would love to see a demonstration of your magicraft afterwards...")
   0()
  EndIf()
  If(1,1115,0,4,0)
   ShowMessageFace("youko_fc1",0,0,2,80)
   ShowMessage("\\n<Kitsu>Thank you so much for the invitation...\nWow, there's so many yummy-looking fruits and sweets♪")
   250(bytes(0x04,0x08,0x6f,0x3a,0x0c,0x52,0x50,0x47,0x3a,0x3a,0x53,0x45,0x08,0x3a,0x0a,0x40,0x6e,0x61,0x6d,0x65,0x49,0x22,0x08,0x55,0x70,0x31,0x06,0x3a,0x06,0x45,0x54,0x3a,0x0b,0x40,0x70,0x69,0x74,0x63,0x68,0x69,0x69,0x3a,0x0c,0x40,0x76,0x6f,0x6c,0x75,0x6d,0x65,0x69,0x69))
   ChangeVariable(1117,1117,1,0,20)
   ShowMessageFace("alicetromeria_fc1",0,0,2,81)
   ShowMessage("\\n<Alicetroemeria>My, what an adorable little fox.\nI wonder if I should have prepared some fried tofu...?")
   0()
  EndIf()
  If(1,1115,0,5,0)
   ShowMessageFace("cupid_fc1",0,0,2,82)
   ShowMessage("\\n<Cupi>Wow, what a big cake!\nIt looks soooo delicious♪")
   250(bytes(0x04,0x08,0x6f,0x3a,0x0c,0x52,0x50,0x47,0x3a,0x3a,0x53,0x45,0x08,0x3a,0x0a,0x40,0x6e,0x61,0x6d,0x65,0x49,0x22,0x0a,0x44,0x6f,0x77,0x6e,0x31,0x06,0x3a,0x06,0x45,0x54,0x3a,0x0b,0x40,0x70,0x69,0x74,0x63,0x68,0x69,0x69,0x3a,0x0c,0x40,0x76,0x6f,0x6c,0x75,0x6d,0x65,0x69,0x69))
   ChangeVariable(1117,1117,1,0,0)
   ShowMessageFace("alicetromeria_fc1",4,0,2,83)
   ShowMessage("\\n<Alicetroemeria>My my, even angels are enticed by the fragrance of sweets... I wonder if you truly cherish your life?")
   0()
  EndIf()
  If(1,1115,0,6,0)
   ShowMessageFace("shirokuma_fc1",0,0,2,84)
   ShowMessage("\\n<Knoot>This room is warm and cozy...\nLots of fruit, too...♪")
   250(bytes(0x04,0x08,0x6f,0x3a,0x0c,0x52,0x50,0x47,0x3a,0x3a,0x53,0x45,0x08,0x3a,0x0a,0x40,0x6e,0x61,0x6d,0x65,0x49,0x22,0x08,0x55,0x70,0x33,0x06,0x3a,0x06,0x45,0x54,0x3a,0x0b,0x40,0x70,0x69,0x74,0x63,0x68,0x69,0x69,0x3a,0x0c,0x40,0x76,0x6f,0x6c,0x75,0x6d,0x65,0x69,0x55))
   ChangeVariable(1117,1117,1,0,40)
   ShowMessageFace("alicetromeria_fc1",0,0,2,85)
   ShowMessage("\\n<Alicetroemeria>Oh, a polar beary...\nI just so happen to love bearies♪")
   0()
  EndIf()
  If(1,1115,0,7,0)
   ShowMessageFace("heinrich_fc1",7,0,2,86)
   ShowMessage("\\n<Heinrich>I'm here, Alicetroemeria.")
   250(bytes(0x04,0x08,0x6f,0x3a,0x0c,0x52,0x50,0x47,0x3a,0x3a,0x53,0x45,0x08,0x3a,0x0a,0x40,0x6e,0x61,0x6d,0x65,0x49,0x22,0x08,0x55,0x70,0x33,0x06,0x3a,0x06,0x45,0x54,0x3a,0x0b,0x40,0x70,0x69,0x74,0x63,0x68,0x69,0x69,0x3a,0x0c,0x40,0x76,0x6f,0x6c,0x75,0x6d,0x65,0x69,0x55))
   ChangeVariable(1117,1117,1,0,60)
   ShowMessageFace("alicetromeria_fc1",0,0,2,87)
   ShowMessage("\\n<Alicetroemeria>Ah, Heinrich.\nI am delighted that you have come.")
   0()
  EndIf()
  If(1,1115,0,8,0)
   ShowMessageFace("candy_fc1",1,0,2,88)
   ShowMessage("\\n<Candy>There's so much delicious-looking food...\n*munch* *munch* *munch*...")
   250(bytes(0x04,0x08,0x6f,0x3a,0x0c,0x52,0x50,0x47,0x3a,0x3a,0x53,0x45,0x08,0x3a,0x0a,0x40,0x6e,0x61,0x6d,0x65,0x49,0x22,0x0a,0x44,0x6f,0x77,0x6e,0x31,0x06,0x3a,0x06,0x45,0x54,0x3a,0x0b,0x40,0x70,0x69,0x74,0x63,0x68,0x69,0x69,0x3a,0x0c,0x40,0x76,0x6f,0x6c,0x75,0x6d,0x65,0x69,0x69))
   ChangeVariable(1117,1117,1,0,0)
   ShowMessageFace("alicetromeria_fc1",0,0,2,89)
   ShowMessage("\\n<Alicetroemeria>Oh, you're eating already?\nAren't you a bit ill-mannered...")
   0()
  EndIf()
  If(1,1115,0,9,0)
   ShowMessageFace("nekomata_fc1",2,0,2,90)
   ShowMessage("\\n<Tama>Unyaaa♪")
   250(bytes(0x04,0x08,0x6f,0x3a,0x0c,0x52,0x50,0x47,0x3a,0x3a,0x53,0x45,0x08,0x3a,0x0a,0x40,0x6e,0x61,0x6d,0x65,0x49,0x22,0x08,0x55,0x70,0x33,0x06,0x3a,0x06,0x45,0x54,0x3a,0x0b,0x40,0x70,0x69,0x74,0x63,0x68,0x69,0x69,0x3a,0x0c,0x40,0x76,0x6f,0x6c,0x75,0x6d,0x65,0x69,0x55))
   ChangeVariable(1117,1117,1,0,40)
   ShowMessageFace("alicetromeria_fc1",0,0,2,91)
   ShowMessage("\\n<Alicetroemeria>My, you invited a kitty to come along too?\nUfufu, how adorable♪")
   0()
  EndIf()
  If(1,1115,0,10,0)
   ShowMessageFace("nyumaou_fc1",0,0,2,92)
   ShowMessage("\\n<Cow Demon Queen>This is the first time I am seeing you.\nI am called the Cow Demon Queen, and I aspire to become Queen Beast.")
   250(bytes(0x04,0x08,0x6f,0x3a,0x0c,0x52,0x50,0x47,0x3a,0x3a,0x53,0x45,0x08,0x3a,0x0a,0x40,0x6e,0x61,0x6d,0x65,0x49,0x22,0x08,0x55,0x70,0x31,0x06,0x3a,0x06,0x45,0x54,0x3a,0x0b,0x40,0x70,0x69,0x74,0x63,0x68,0x69,0x69,0x3a,0x0c,0x40,0x76,0x6f,0x6c,0x75,0x6d,0x65,0x69,0x69))
   ChangeVariable(1117,1117,1,0,20)
   ShowMessageFace("alicetromeria_fc1",0,0,2,93)
   ShowMessage("\\n<Alicetroemeria>My my, you're so big...\nPerhaps I should have prepared a much bigger cake.")
   0()
  EndIf()
  If(1,1115,0,11,0)
   ShowMessageFace("alice_fc5",0,0,2,94)
   ShowMessage("\\n<Alice>As the current Monster Lord, I've accepted your invitation. You probably know already, but I'm Alipheese the Sixteenth.")
   250(bytes(0x04,0x08,0x6f,0x3a,0x0c,0x52,0x50,0x47,0x3a,0x3a,0x53,0x45,0x08,0x3a,0x0a,0x40,0x6e,0x61,0x6d,0x65,0x49,0x22,0x08,0x55,0x70,0x31,0x06,0x3a,0x06,0x45,0x54,0x3a,0x0b,0x40,0x70,0x69,0x74,0x63,0x68,0x69,0x69,0x3a,0x0c,0x40,0x76,0x6f,0x6c,0x75,0x6d,0x65,0x69,0x69))
   ChangeVariable(1117,1117,1,0,20)
   ShowMessageFace("alicetromeria_fc1",0,0,2,95)
   ShowMessage("\\n<Alicetroemeria>I never imagined fellow Monster Lords would be having tea with one another like this...\nThis truly is a rare occasion.")
   0()
  EndIf()
  If(1,1115,0,12,0)
   ShowMessageFace("mefist_fc1",0,0,2,96)
   ShowMessage("\\n<Mephisto>It has been a very long time, Your Majesty...\nThis Mephisto has answered your invitation.")
   250(bytes(0x04,0x08,0x6f,0x3a,0x0c,0x52,0x50,0x47,0x3a,0x3a,0x53,0x45,0x08,0x3a,0x0a,0x40,0x6e,0x61,0x6d,0x65,0x49,0x22,0x08,0x55,0x70,0x31,0x06,0x3a,0x06,0x45,0x54,0x3a,0x0b,0x40,0x70,0x69,0x74,0x63,0x68,0x69,0x69,0x3a,0x0c,0x40,0x76,0x6f,0x6c,0x75,0x6d,0x65,0x69,0x69))
   ChangeVariable(1117,1117,1,0,20)
   ShowMessageFace("alicetromeria_fc1",0,0,2,97)
   ShowMessage("\\n<Alicetroemeria>Oh, if it isn't Mephisto.\nIt would appear that you have been cleverly changing jobs up to the present age.")
   0()
  EndIf()
  If(1,1115,0,13,0)
   ShowMessageFace("stein_fc2",0,0,2,98)
   ShowMessage("\\n<Promestein>...Hello, I thank you for the invitation.\nThough I am not very fond of these seats...")
   250(bytes(0x04,0x08,0x6f,0x3a,0x0c,0x52,0x50,0x47,0x3a,0x3a,0x53,0x45,0x08,0x3a,0x0a,0x40,0x6e,0x61,0x6d,0x65,0x49,0x22,0x08,0x55,0x70,0x31,0x06,0x3a,0x06,0x45,0x54,0x3a,0x0b,0x40,0x70,0x69,0x74,0x63,0x68,0x69,0x69,0x3a,0x0c,0x40,0x76,0x6f,0x6c,0x75,0x6d,0x65,0x69,0x69))
   ChangeVariable(1117,1117,1,0,20)
   ShowMessageFace("alicetromeria_fc1",1,0,2,99)
   ShowMessage("\\n<Alicetroemeria>I believe you and I will get along very well...")
   0()
  EndIf()
  If(1,1115,0,14,0)
   ShowMessageFace("queenvampire_fc1",0,0,2,100)
   ShowMessage("\\n<Fatima>How do you do, Your Great Majesty the Eighth.\nI am Fatima, the queen who rules over the vampires of this world.")
   250(bytes(0x04,0x08,0x6f,0x3a,0x0c,0x52,0x50,0x47,0x3a,0x3a,0x53,0x45,0x08,0x3a,0x0a,0x40,0x6e,0x61,0x6d,0x65,0x49,0x22,0x08,0x55,0x70,0x31,0x06,0x3a,0x06,0x45,0x54,0x3a,0x0b,0x40,0x70,0x69,0x74,0x63,0x68,0x69,0x69,0x3a,0x0c,0x40,0x76,0x6f,0x6c,0x75,0x6d,0x65,0x69,0x69))
   ChangeVariable(1117,1117,1,0,20)
   ShowMessageFace("alicetromeria_fc1",0,0,2,101)
   ShowMessage("\\n<Alicetroemeria>So you are the current Queen Vampire...?\nI can see you have good eyes, burning with aspiration.")
   0()
  EndIf()
  If(1,1115,0,15,0)
   ShowMessageFace("cassandra_fc1",1,0,2,102)
   ShowMessage("\\n<Cassandra>Your Dear Majesty, I am Cassandra of House Nereneid. It is a great honor to receive your invitation...")
   250(bytes(0x04,0x08,0x6f,0x3a,0x0c,0x52,0x50,0x47,0x3a,0x3a,0x53,0x45,0x08,0x3a,0x0a,0x40,0x6e,0x61,0x6d,0x65,0x49,0x22,0x08,0x55,0x70,0x31,0x06,0x3a,0x06,0x45,0x54,0x3a,0x0b,0x40,0x70,0x69,0x74,0x63,0x68,0x69,0x69,0x3a,0x0c,0x40,0x76,0x6f,0x6c,0x75,0x6d,0x65,0x69,0x69))
   ChangeVariable(1117,1117,1,0,20)
   ShowMessageFace("alicetromeria_fc1",0,0,2,103)
   ShowMessage("\\n<Alicetroemeria>That scent... It seems you are a close relative of mine. As we are closely related by blood, we should get along well with each other.")
   0()
  EndIf()
  221()
  If(1,1117,0,59,2)
   ShowMessageFace("",0,0,2,104)
   ShowMessage("The tea party proceeded along with a delicate mood.\nAlicetroemeria does not look pleased...")
   222()
   ShowMessageFace("alicetromeria_fc1",2,0,2,105)
   ShowMessage("\\n<Alicetroemeria>Well now... I think we should draw this to a close.")
   0()
  EndIf()
  If(1,1117,0,60,0)
   ShowMessageFace("",0,0,2,106)
   ShowMessage("The tea party proceeded along with a bright mood.\nAlicetroemeria looks satisfied!")
   222()
   ShowMessageFace("alicetromeria_fc1",0,0,2,107)
   ShowMessage("\\n<Alicetroemeria>Well, I think we should draw this to a close now. This was a truly enjoyable tea party.")
   0()
  EndIf()
  If(1,1117,0,61,1)
   ShowMessageFace("",0,0,2,108)
   ShowMessage("The tea party proceeded along with a cheerful mood.\nAlicetroemeria looks delighted!")
   222()
   ShowMessageFace("alicetromeria_fc1",0,0,2,109)
   ShowMessage("\\n<Alicetroemeria>Well, I think we should draw this to a close now. This was a most wonderful tea party...♪")
   0()
  EndIf()
  221()
  ShowMessageFace("",0,0,2,110)
  ShowMessage("And thus, Alicetroemeria's tea party concluded...")
  Wait(60)
  TeleportPlayer(0,77,3,18,6,2)
  222()
  ShowMessageFace("ruka_fc1",0,0,2,111)
  ShowMessage("\\n<Luka>Now then... Let's report back to Lilith and Lilim.")
  ChangeSwitch(2419,2419,0)
  EndEventProcessing()
  0()
