
DisplayName "Haunted Mansion Parlor 2"



EVENT   1
 PAGE   1
  250(bytes(0x04,0x08,0x6f,0x3a,0x0c,0x52,0x50,0x47,0x3a,0x3a,0x53,0x45,0x08,0x3a,0x0a,0x40,0x6e,0x61,0x6d,0x65,0x49,0x22,0x09,0x4d,0x6f,0x76,0x65,0x06,0x3a,0x06,0x45,0x54,0x3a,0x0b,0x40,0x70,0x69,0x74,0x63,0x68,0x69,0x69,0x3a,0x0c,0x40,0x76,0x6f,0x6c,0x75,0x6d,0x65,0x69,0x55))
  TeleportPlayer(0,346,57,48,0,0)
  0()



EVENT   3
 PAGE   1
  250(bytes(0x04,0x08,0x6f,0x3a,0x0c,0x52,0x50,0x47,0x3a,0x3a,0x53,0x45,0x08,0x3a,0x0a,0x40,0x6e,0x61,0x6d,0x65,0x49,0x22,0x0a,0x43,0x68,0x65,0x73,0x74,0x06,0x3a,0x06,0x45,0x54,0x3a,0x0b,0x40,0x70,0x69,0x74,0x63,0x68,0x69,0x69,0x3a,0x0c,0x40,0x76,0x6f,0x6c,0x75,0x6d,0x65,0x69,0x55))
  205(0,bytes(0x04,0x08,0x6f,0x3a,0x13,0x52,0x50,0x47,0x3a,0x3a,0x4d,0x6f,0x76,0x65,0x52,0x6f,0x75,0x74,0x65,0x09,0x3a,0x0c,0x40,0x72,0x65,0x70,0x65,0x61,0x74,0x46,0x3a,0x0f,0x40,0x73,0x6b,0x69,0x70,0x70,0x61,0x62,0x6c,0x65,0x46,0x3a,0x0a,0x40,0x77,0x61,0x69,0x74,0x54,0x3a,0x0a,0x40,0x6c,0x69,0x73,0x74,0x5b,0x0b,0x6f,0x3a,0x15,0x52,0x50,0x47,0x3a,0x3a,0x4d,0x6f,0x76,0x65,0x43,0x6f,0x6d,0x6d,0x61,0x6e,0x64,0x07,0x3a,0x0a,0x40,0x63,0x6f,0x64,0x65,0x69,0x29,0x3a,0x10,0x40,0x70,0x61,0x72,0x61,0x6d,0x65,0x74,0x65,0x72,0x73,0x5b,0x00,0x6f,0x3b,0x0a,0x07,0x3b,0x0b,0x69,0x16,0x3b,0x0c,0x5b,0x00,0x6f,0x3b,0x0a,0x07,0x3b,0x0b,0x69,0x14,0x3b,0x0c,0x5b,0x06,0x69,0x08,0x6f,0x3b,0x0a,0x07,0x3b,0x0b,0x69,0x17,0x3b,0x0c,0x5b,0x00,0x6f,0x3b,0x0a,0x07,0x3b,0x0b,0x69,0x14,0x3b,0x0c,0x5b,0x06,0x69,0x08,0x6f,0x3b,0x0a,0x07,0x3b,0x0b,0x69,0x00,0x3b,0x0c,0x5b,0x00))
  ChangeSelfSwitch("A",0)
  ChangeInventoryWeapon(482,0,0,1,false)
  0()
 PAGE   2
  // condition: self-switch A is ON
  0()



EVENT   4
 PAGE   1
  If(0,2069,0)
   If(0,2073,0)
    If(0,2078,0)
     If(0,2079,0)
      If(0,2080,0)
       If(2,"A",1)
        ChangeSelfSwitch("A",0)
        ShowMessageFace("mimic_fc1",1,0,2,1)
        ShowMessage("\\n<Mimic>*mushmush*... I'm a good mimic.")
        ShowMessageFace("mimic_fc1",1,0,2,2)
        ShowMessage("\\n<Mimic>Thank you, take this. Chrome, unaware of me being a mimic, put this into my chest.")
        250(bytes(0x04,0x08,0x6f,0x3a,0x0c,0x52,0x50,0x47,0x3a,0x3a,0x53,0x45,0x08,0x3a,0x0a,0x40,0x6e,0x61,0x6d,0x65,0x49,0x22,0x0a,0x49,0x74,0x65,0x6d,0x31,0x06,0x3a,0x06,0x45,0x54,0x3a,0x0b,0x40,0x70,0x69,0x74,0x63,0x68,0x69,0x69,0x3a,0x0c,0x40,0x76,0x6f,0x6c,0x75,0x6d,0x65,0x69,0x55))
        ChangeInventory_Item(614,0,0,1)
        ShowMessageFace("mimic_fc1",1,0,2,3)
        ShowMessage("\\n<Mimic>With this, you will be able to change jobs to \\C[14]Spiritualist\\C[0]. You'll be able to summon zombies and ghosts.")
        ShowMessageFace("mimic_fc1",1,0,2,4)
        ShowMessage("\\n<Mimic>Is it okay for me to give it to you, you ask? Chrome hasn't returned for it in fifty years.")
        EndEventProcessing()
        0()
       Else()
        ShowMessageFace("mimic_fc1",1,0,2,5)
        ShowMessage("\\n<Mimic>*mushmush*... I'm a good mimic.")
        ShowMessageFace("mimic_fc1",1,0,2,6)
        ShowMessage("\\n<Mimic>Recently, the Cursed Doll has been mischievous. When I'm asleep she puts heavy things on top of my lid.")
        EndEventProcessing()
        0()
       EndIf()
       0()
      EndIf()
      0()
     EndIf()
     0()
    EndIf()
    0()
   EndIf()
   0()
  EndIf()
  ShowMessageFace("mimic_fc1",1,0,2,7)
  ShowMessage("\\n<Mimic>*mushmush* I'm a good mimic.")
  ShowMessageFace("mimic_fc1",1,0,2,8)
  ShowMessage("\\n<Mimic>Lately, everyone in the mansion has been making a commotion. I think they're nervous since humans showed up here.")
  ShowMessageFace("mimic_fc1",1,0,2,9)
  ShowMessage("\\n<Mimic>If you defeat them, then talk to them, won't they calm down? Once you calm everyone down, I'll give you a thank you gift.")
  EndEventProcessing()
  0()