﻿


EVENT   1
 PAGE   1
  250(bytes(0x04,0x08,0x6f,0x3a,0x0c,0x52,0x50,0x47,0x3a,0x3a,0x53,0x45,0x08,0x3a,0x0a,0x40,0x6e,0x61,0x6d,0x65,0x49,0x22,0x09,0x4d,0x6f,0x76,0x65,0x06,0x3a,0x06,0x45,0x54,0x3a,0x0b,0x40,0x70,0x69,0x74,0x63,0x68,0x69,0x69,0x3a,0x0c,0x40,0x76,0x6f,0x6c,0x75,0x6d,0x65,0x69,0x55))
  TeleportPlayer(0,879,11,9,0,0)
  0()



EVENT   2
 PAGE   1
  250(bytes(0x04,0x08,0x6f,0x3a,0x0c,0x52,0x50,0x47,0x3a,0x3a,0x53,0x45,0x08,0x3a,0x0a,0x40,0x6e,0x61,0x6d,0x65,0x49,0x22,0x09,0x4d,0x6f,0x76,0x65,0x06,0x3a,0x06,0x45,0x54,0x3a,0x0b,0x40,0x70,0x69,0x74,0x63,0x68,0x69,0x69,0x3a,0x0c,0x40,0x76,0x6f,0x6c,0x75,0x6d,0x65,0x69,0x55))
  TeleportPlayer(0,892,6,7,0,0)
  0()



EVENT   3
 PAGE   1
  ShowMessageFace("",0,0,2,1)
  ShowMessage("There isn't any reaction.\nSeems like it's still out of service...")
  0()



EVENT   4
 PAGE   1
  ShowMessageFace("gilgoon_fc1",0,0,2,1)
  ShowMessage("\\n<Gilgorn>...I can't wake up no matter how long I wait.\nActually, this sensation is like a mix of dreams and reality...")
  ShowMessageFace("gilgoon_fc1",0,0,2,2)
  ShowMessage("\\n<Gilgorn>Moreover, the flow of magical power is clearly different from before. It's as if I were in a different world...")
  ShowMessageFace("gilgoon_fc1",0,0,2,3)
  ShowMessage("\\n<Gilgorn>Shit, those annoying Nightmares... What have they done this time?!")
  If(0,4,0)
   ShowMessageFace("alice_fc5",6,0,2,4)
   ShowMessage("\\n<Alice>You are a Demon Lord...?\nAren't you still a little girl?!")
   0()
  EndIf()
  If(0,5,0)
   ShowMessageFace("iriasu_fc4",5,0,2,5)
   ShowMessage("\\n<Ilias>You are a Demon Lord...?\nAren't you still a little girl?!")
   0()
  EndIf()
  205(0,bytes(0x04,0x08,0x6f,0x3a,0x13,0x52,0x50,0x47,0x3a,0x3a,0x4d,0x6f,0x76,0x65,0x52,0x6f,0x75,0x74,0x65,0x09,0x3a,0x0c,0x40,0x72,0x65,0x70,0x65,0x61,0x74,0x46,0x3a,0x0f,0x40,0x73,0x6b,0x69,0x70,0x70,0x61,0x62,0x6c,0x65,0x46,0x3a,0x0a,0x40,0x77,0x61,0x69,0x74,0x54,0x3a,0x0a,0x40,0x6c,0x69,0x73,0x74,0x5b,0x08,0x6f,0x3a,0x15,0x52,0x50,0x47,0x3a,0x3a,0x4d,0x6f,0x76,0x65,0x43,0x6f,0x6d,0x6d,0x61,0x6e,0x64,0x07,0x3a,0x0a,0x40,0x63,0x6f,0x64,0x65,0x69,0x29,0x3a,0x10,0x40,0x70,0x61,0x72,0x61,0x6d,0x65,0x74,0x65,0x72,0x73,0x5b,0x00,0x6f,0x3b,0x0a,0x07,0x3b,0x0b,0x69,0x1e,0x3b,0x0c,0x5b,0x00,0x6f,0x3b,0x0a,0x07,0x3b,0x0b,0x69,0x00,0x3b,0x0c,0x5b,0x00))
  241(bytes(0x04,0x08,0x6f,0x3a,0x0d,0x52,0x50,0x47,0x3a,0x3a,0x42,0x47,0x4d,0x08,0x3a,0x0a,0x40,0x6e,0x61,0x6d,0x65,0x49,0x22,0x0a,0x62,0x6f,0x73,0x73,0x30,0x06,0x3a,0x06,0x45,0x54,0x3a,0x0c,0x40,0x76,0x6f,0x6c,0x75,0x6d,0x65,0x69,0x69,0x3a,0x0b,0x40,0x70,0x69,0x74,0x63,0x68,0x69,0x69))
  PictureDisplay(5,"80_gilgoon_st01",0,0,0,0,100,100,0,0)
  PictureMove(5,null,0,0,0,0,100,100,255,0,30,true)
  ShowMessageFace("gilgoon_fc1",0,0,2,6)
  ShowMessage("\\n<Gilgorn>You sure are rude, showing up out of nowhere...\nAnd you, who are you?")
  If(0,4,0)
   ShowMessageFace("alice_fc5",2,0,2,7)
   ShowMessage("\\n<Alice>I am the Monster Lord, Alice the 16th.")
   ShowMessageFace("gilgoon_fc1",0,0,2,8)
   ShowMessage("\\n<Gilgorn>You are a Monster Lord...?\nAren't you still a little girl?!")
   ShowMessageFace("gilgoon_fc1",0,0,2,9)
   ShowMessage("\\n<Gilgorn>...or so I should say, but I am not surprised.\nYour powers are sealed, aren't they?")
   ShowMessageFace("alice_fc5",2,0,2,10)
   ShowMessage("\\n<Alice>I see, you can tell at a glance...\nThat's proof enough of your true power.")
   0()
  EndIf()
  If(0,5,0)
   ShowMessageFace("iriasu_fc4",7,0,2,11)
   ShowMessage("\\n<Ilias>I am Ilias, the Goddess of Creation.")
   ShowMessageFace("gilgoon_fc1",0,0,2,12)
   ShowMessage("\\n<Gilgorn>Oh, a Goddess...?\nIndeed, I can see glimpses of divine power in you.")
   ShowMessageFace("iriasu_fc4",0,0,2,13)
   ShowMessage("\\n<Ilias>I see, so you do understand...\nYou seem to be different from the rabble whose title as Monster Lord is all they have.")
   0()
  EndIf()
  ShowMessageFace("gilgoon_fc1",0,0,2,14)
  ShowMessage("\\n<Gilgorn>I know the reason why you lot have come to me...")
  If(0,4,0)
   ShowMessageFace("alice_fc5",1,0,2,15)
   ShowMessage("\\n<Alice>I see, that will speed things up.\nJoin us to defeat the Nigh-")
   ShowMessageFace("gilgoon_fc1",0,0,2,16)
   ShowMessage("\\n<Gilgorn>...Bring it on, Monster Lord from another world!\nI will defeat you all and crush the plans of the Nightmares with my own hands!")
   ShowMessageFace("alice_fc5",6,0,2,17)
   ShowMessage("\\n<Alice>Wait, you got it wrong!\nWe are not your enemies-")
   0()
  EndIf()
  If(0,5,0)
   ShowMessageFace("iriasu_fc4",0,0,2,18)
   ShowMessage("\\n<Ilias>Then the talk won't take long.\nJoin us, let us defeat the Nightmares toget-")
   ShowMessageFace("gilgoon_fc1",0,0,2,19)
   ShowMessage("\\n<Gilgorn>...Bring it on, Goddess from another world!\nI will defeat you all and crush the plans of the Nightmares with my own hands!")
   ShowMessageFace("iriasu_fc4",5,0,2,20)
   ShowMessage("\\n<Ilias>Wait, this is a misunderstanding!\nWe are on the same side!")
   0()
  EndIf()
  ShowMessageFace("gilgoon_fc1",0,0,2,21)
  ShowMessage("\\n<Gilgorn>There is no need to talk, this is just another trap set by the Nightmares to trick me! But I am not one to be fooled by something like this!")
  ShowMessageFace("",0,0,2,22)
  ShowMessage("The Demon Lord Gilgorn refuses to listen to a word we say!\nDid something horrible happen to her...?")
  ShowMessageFace("rejeo_fc1",1,0,2,23)
  ShowMessage("\\n<Rigeo>There is no way we could win in a proper fight here, let alone if we were in the Dream World... but I heard Gilgorn was very vulnerable to pleasure for some reason.")
  ShowMessageFace("gilgoon_fc1",0,0,2,24)
  ShowMessage("\\n<Gilgorn>Kukuku, my preparations are already complete!\nNo pleasure attack shall work before this Wall of Reality!")
  250(bytes(0x04,0x08,0x6f,0x3a,0x0c,0x52,0x50,0x47,0x3a,0x3a,0x53,0x45,0x08,0x3a,0x0a,0x40,0x6e,0x61,0x6d,0x65,0x49,0x22,0x0a,0x44,0x6f,0x77,0x6e,0x31,0x06,0x3a,0x06,0x45,0x54,0x3a,0x0b,0x40,0x70,0x69,0x74,0x63,0x68,0x69,0x69,0x3a,0x0c,0x40,0x76,0x6f,0x6c,0x75,0x6d,0x65,0x69,0x55))
  ShowMessageFace("",0,0,2,25)
  ShowMessage("Some sort of defensive field was deployed for a moment, but...\nIt disappeared without us doing anything to it.")
  Wait(30)
  ShowMessageFace("rejeo_fc1",0,0,2,26)
  ShowMessage("\\n<Rigeo>A wall...? I don't see anything like that though...")
  ShowMessageFace("lawrat_fc1",0,0,2,27)
  ShowMessage("\\n<Lauratt>............")
  ShowMessageFace("gilgoon_fc1",0,0,2,28)
  ShowMessage("\\n<Gilgorn>...Ah, damn it! Wait a second!\nI'm still adjusting to this world!")
  ShowMessageFace("rovissa_fc1",0,0,2,29)
  ShowMessage("\\n<Rovissa>...I don't really get it, but it looks like this is our chance. If you're weak to pleasure, then we'll thoroughly torment you with it.")
  ShowMessageFace("gilgoon_fc1",0,0,2,30)
  ShowMessage("\\n<Gilgorn>Oh well, it doesn't matter if I can't use the Wall of Reality!\nI shall use my powers to the fullest in this world so close to reality!")
  250(bytes(0x04,0x08,0x6f,0x3a,0x0c,0x52,0x50,0x47,0x3a,0x3a,0x53,0x45,0x08,0x3a,0x0a,0x40,0x6e,0x61,0x6d,0x65,0x49,0x22,0x0f,0x6d,0x6f,0x6e,0x5f,0x65,0x61,0x72,0x74,0x68,0x31,0x06,0x3a,0x06,0x45,0x54,0x3a,0x0b,0x40,0x70,0x69,0x74,0x63,0x68,0x69,0x69,0x3a,0x0c,0x40,0x76,0x6f,0x6c,0x75,0x6d,0x65,0x69,0x69))
  224(bytes(0x04,0x08,0x75,0x3a,0x0a,0x43,0x6f,0x6c,0x6f,0x72,0x25,0x00,0x00,0x00,0x00,0x00,0xe0,0x6f,0x40,0x00,0x00,0x00,0x00,0x00,0xe0,0x6f,0x40,0x00,0x00,0x00,0x00,0x00,0xe0,0x6f,0x40,0x00,0x00,0x00,0x00,0x00,0xe0,0x6f,0x40),60,false)
  225(9,9,60,true)
  If(0,4,0)
   ShowMessageFace("alice_fc6",0,0,2,31)
   ShowMessage("\\n<Alice>Gh, what powerful magical power...!\nWe are no match for her in a head-on fight!")
   0()
  EndIf()
  If(0,5,0)
   ShowMessageFace("iriasu_fc4",5,0,2,32)
   ShowMessage("\\n<Ilias>Her power is incredible...\nWe have no chance of winning in a head-on fight!")
   0()
  EndIf()
  ShowMessageFace("rejeo_fc1",0,0,2,33)
  ShowMessage("\\n<Rigeo>Then it's fine if we don't.\nIf it were up to me, I would seize the initiative to prevent her from moving...")
  ShowMessageFace("gilgoon_fc1",0,0,2,34)
  ShowMessage("\\n<Gilgorn>I will show you the true power of a Demon Lord!\nNow, get ready to beg for your lives!!!")
  PictureClear(5)
  SetBattleBGM(bytes(0x04,0x08,0x6f,0x3a,0x0d,0x52,0x50,0x47,0x3a,0x3a,0x42,0x47,0x4d,0x08,0x3a,0x0a,0x40,0x6e,0x61,0x6d,0x65,0x49,0x22,0x08,0x63,0x62,0x33,0x06,0x3a,0x06,0x45,0x54,0x3a,0x0c,0x40,0x76,0x6f,0x6c,0x75,0x6d,0x65,0x69,0x69,0x3a,0x0b,0x40,0x70,0x69,0x74,0x63,0x68,0x69,0x69))
  Battle(0,1397,false,false)
  SetBattleBGM(bytes(0x04,0x08,0x6f,0x3a,0x0d,0x52,0x50,0x47,0x3a,0x3a,0x42,0x47,0x4d,0x08,0x3a,0x0a,0x40,0x6e,0x61,0x6d,0x65,0x49,0x22,0x0b,0x62,0x61,0x74,0x74,0x6c,0x65,0x06,0x3a,0x06,0x45,0x54,0x3a,0x0c,0x40,0x76,0x6f,0x6c,0x75,0x6d,0x65,0x69,0x69,0x3a,0x0b,0x40,0x70,0x69,0x74,0x63,0x68,0x69,0x69))
  241(bytes(0x04,0x08,0x6f,0x3a,0x0d,0x52,0x50,0x47,0x3a,0x3a,0x42,0x47,0x4d,0x08,0x3a,0x0a,0x40,0x6e,0x61,0x6d,0x65,0x49,0x22,0x10,0x73,0x63,0x65,0x6e,0x65,0x5f,0x63,0x6f,0x6d,0x69,0x32,0x06,0x3a,0x06,0x45,0x54,0x3a,0x0c,0x40,0x76,0x6f,0x6c,0x75,0x6d,0x65,0x69,0x69,0x3a,0x0b,0x40,0x70,0x69,0x74,0x63,0x68,0x69,0x69))
  205(0,bytes(0x04,0x08,0x6f,0x3a,0x13,0x52,0x50,0x47,0x3a,0x3a,0x4d,0x6f,0x76,0x65,0x52,0x6f,0x75,0x74,0x65,0x09,0x3a,0x0c,0x40,0x72,0x65,0x70,0x65,0x61,0x74,0x46,0x3a,0x0f,0x40,0x73,0x6b,0x69,0x70,0x70,0x61,0x62,0x6c,0x65,0x46,0x3a,0x0a,0x40,0x77,0x61,0x69,0x74,0x54,0x3a,0x0a,0x40,0x6c,0x69,0x73,0x74,0x5b,0x08,0x6f,0x3a,0x15,0x52,0x50,0x47,0x3a,0x3a,0x4d,0x6f,0x76,0x65,0x43,0x6f,0x6d,0x6d,0x61,0x6e,0x64,0x07,0x3a,0x0a,0x40,0x63,0x6f,0x64,0x65,0x69,0x15,0x3a,0x10,0x40,0x70,0x61,0x72,0x61,0x6d,0x65,0x74,0x65,0x72,0x73,0x5b,0x00,0x6f,0x3b,0x0a,0x07,0x3b,0x0b,0x69,0x2e,0x3b,0x0c,0x5b,0x07,0x49,0x22,0x18,0x43,0x6f,0x6c,0x6c,0x61,0x62,0x6f,0x72,0x61,0x74,0x69,0x6f,0x6e,0x30,0x33,0x5f,0x63,0x69,0x70,0x06,0x3a,0x06,0x45,0x54,0x69,0x0b,0x6f,0x3b,0x0a,0x07,0x3b,0x0b,0x69,0x00,0x3b,0x0c,0x5b,0x00))
  ShowMessageFace("gilgoon_fc1",1,0,2,35)
  ShowMessage("\\n<Gilgorn>Huff...huff...\nW-why do I have to go through this again...")
  If(0,4,0)
   ShowMessageFace("alice_fc5",2,0,2,36)
   ShowMessage("\\n<Alice>We are fighting against the Nightmares.\nWill you help us defeat the Queen of Dreams?")
   0()
  EndIf()
  If(0,5,0)
   ShowMessageFace("iriasu_fc4",7,0,2,37)
   ShowMessage("\\n<Ilias>We are fighting against the Nightmares.\nWill you help us defeat the Queen of Dreams?")
   0()
  EndIf()
  ShowMessageFace("gilgoon_fc1",1,0,2,38)
  ShowMessage("\\n<Gilgorn>Why...didn't you tell me that sooner...?")
  ShowMessageFace("rovissa_fc1",0,0,2,39)
  ShowMessage("\\n<Rovissa>We did...right from the start.")
  ShowMessageFace("gilgoon_fc1",1,0,2,40)
  ShowMessage("\\n<Gilgorn>Very well, I will... lend you my power...\nI'll teach those Nightmares... a lesson...")
  If(0,4,0)
   ShowMessageFace("alice_fc5",6,0,2,41)
   ShowMessage("\\n<Alice>You're completely exhausted!!\nGet some rest...")
   0()
  EndIf()
  If(0,5,0)
   ShowMessageFace("iriasu_fc4",5,0,2,42)
   ShowMessage("\\n<Ilias>You're completely exhausted!!\nTake a break...")
   0()
  EndIf()
  ShowMessageFace("",0,0,2,43)
  ShowMessage("Anyway, the Demon Lord Gilgorn has agreed to cooperate with us. This is very reassuring...or is it?")
  241(bytes(0x04,0x08,0x6f,0x3a,0x0d,0x52,0x50,0x47,0x3a,0x3a,0x42,0x47,0x4d,0x08,0x3a,0x0a,0x40,0x6e,0x61,0x6d,0x65,0x49,0x22,0x08,0x63,0x62,0x31,0x06,0x3a,0x06,0x45,0x54,0x3a,0x0c,0x40,0x76,0x6f,0x6c,0x75,0x6d,0x65,0x69,0x69,0x3a,0x0b,0x40,0x70,0x69,0x74,0x63,0x68,0x69,0x69))
  ShowMessageFace("magatu_fc1",2,0,2,44)
  ShowMessage("\\n<Magatsu>She is extraordinarily powerful, indeed...\nBut can she fight Nightmares when she's this weak to pleasure?")
  ShowMessageFace("tarsa_fc2",1,0,2,45)
  ShowMessage("\\n<Tarsa>Maybe she could fight them from a distance and not approach them...")
  ShowMessageFace("daimeikai_fc1",1,0,2,46)
  ShowMessage("\\n<Daimyokai>Leave the strategy talk for later.\nNow, let's get the hell out of here!")
  ShowMessageFace("kazuya_fc1",0,0,2,47)
  ShowMessage("\\n<Kazuya>That's right. We should hurry and leave.\nBut going back on that route is going to be difficult.")
  ShowMessageFace("kazuya_fc1",0,0,2,48)
  ShowMessage("\\n<Kazuya>...By the way, what's this crystal?")
  ShowMessageFace("gilgoon_fc1",1,0,2,49)
  ShowMessage("\\n<Gilgorn>It's a teleportation device...that I made...")
  ShowMessageFace("rejeo_fc1",0,0,2,50)
  ShowMessage("\\n<Rigeo>If we use it, we might be able to get back to the portal on the first floor.")
  If(0,4,0)
   ShowMessageFace("alice_fc5",1,0,2,51)
   ShowMessage("\\n<Alice>I see, that's a relief.\nAll right, let's do the transfer!")
   0()
  EndIf()
  If(0,5,0)
   ShowMessageFace("iriasu_fc4",0,0,2,52)
   ShowMessage("\\n<Ilias>I see, we can use it as a shortcut.\nAll right, let's do the transfer!")
   0()
  EndIf()
  Wait(30)
  250(bytes(0x04,0x08,0x6f,0x3a,0x0c,0x52,0x50,0x47,0x3a,0x3a,0x53,0x45,0x08,0x3a,0x0a,0x40,0x6e,0x61,0x6d,0x65,0x49,0x22,0x0b,0x4d,0x61,0x67,0x69,0x63,0x31,0x06,0x3a,0x06,0x45,0x54,0x3a,0x0b,0x40,0x70,0x69,0x74,0x63,0x68,0x69,0x69,0x3a,0x0c,0x40,0x76,0x6f,0x6c,0x75,0x6d,0x65,0x69,0x55))
  221()
  ShowMessageFace("",0,0,2,53)
  ShowMessage("Luka and the others used the portal's transfer function!")
  TeleportPlayer(0,880,22,15,2,0)
  ChangeVariable(1210,1210,0,0,3)
  314(0,0)
  222()
  Wait(30)
  ShowMessageFace("byakunen_fc1",1,0,2,54)
  ShowMessage("\\n<Hakunen>The exit is just a few steps away from here.")
  ShowMessageFace("ruka_fc1",0,0,2,55)
  ShowMessage("\\n<Luka>Yeah... Let's get out of here right now!")
  ShowMessageFace("",0,0,2,56)
  ShowMessage("The gates of the castle are just in front of us.\nWe need to leave now and rethink our strategy.")
  EndEventProcessing()
  0()
 PAGE   2
  // condition: variable 1210 >= 3
  0()
