﻿
DisplayName "Gold Volcano"



EVENT   1
 PAGE   1
  0()



EVENT   2
 PAGE   1
  0()



EVENT   3
 PAGE   1
  0()



EVENT   4
 PAGE   1
  0()



EVENT   5
 PAGE   1
  0()



EVENT   6
 PAGE   1
  0()



EVENT   7
 PAGE   1
  0()



EVENT   8
 PAGE   1
  0()



EVENT   9
 PAGE   1
  0()



EVENT   10
 PAGE   1
  0()



EVENT   11
 PAGE   1
  0()



EVENT   12
 PAGE   1
  250(bytes(0x04,0x08,0x6f,0x3a,0x0c,0x52,0x50,0x47,0x3a,0x3a,0x53,0x45,0x08,0x3a,0x0a,0x40,0x6e,0x61,0x6d,0x65,0x49,0x22,0x09,0x4d,0x6f,0x76,0x65,0x06,0x3a,0x06,0x45,0x54,0x3a,0x0b,0x40,0x70,0x69,0x74,0x63,0x68,0x69,0x69,0x3a,0x0c,0x40,0x76,0x6f,0x6c,0x75,0x6d,0x65,0x69,0x55))
  TeleportPlayer(0,920,63,53,6,0)
  0()



EVENT   13
 PAGE   1
  250(bytes(0x04,0x08,0x6f,0x3a,0x0c,0x52,0x50,0x47,0x3a,0x3a,0x53,0x45,0x08,0x3a,0x0a,0x40,0x6e,0x61,0x6d,0x65,0x49,0x22,0x0a,0x43,0x68,0x65,0x73,0x74,0x06,0x3a,0x06,0x45,0x54,0x3a,0x0b,0x40,0x70,0x69,0x74,0x63,0x68,0x69,0x69,0x3a,0x0c,0x40,0x76,0x6f,0x6c,0x75,0x6d,0x65,0x69,0x55))
  205(0,bytes(0x04,0x08,0x6f,0x3a,0x13,0x52,0x50,0x47,0x3a,0x3a,0x4d,0x6f,0x76,0x65,0x52,0x6f,0x75,0x74,0x65,0x09,0x3a,0x0c,0x40,0x72,0x65,0x70,0x65,0x61,0x74,0x46,0x3a,0x0f,0x40,0x73,0x6b,0x69,0x70,0x70,0x61,0x62,0x6c,0x65,0x46,0x3a,0x0a,0x40,0x77,0x61,0x69,0x74,0x54,0x3a,0x0a,0x40,0x6c,0x69,0x73,0x74,0x5b,0x0b,0x6f,0x3a,0x15,0x52,0x50,0x47,0x3a,0x3a,0x4d,0x6f,0x76,0x65,0x43,0x6f,0x6d,0x6d,0x61,0x6e,0x64,0x07,0x3a,0x0a,0x40,0x63,0x6f,0x64,0x65,0x69,0x29,0x3a,0x10,0x40,0x70,0x61,0x72,0x61,0x6d,0x65,0x74,0x65,0x72,0x73,0x5b,0x00,0x6f,0x3b,0x0a,0x07,0x3b,0x0b,0x69,0x16,0x3b,0x0c,0x5b,0x00,0x6f,0x3b,0x0a,0x07,0x3b,0x0b,0x69,0x14,0x3b,0x0c,0x5b,0x06,0x69,0x08,0x6f,0x3b,0x0a,0x07,0x3b,0x0b,0x69,0x17,0x3b,0x0c,0x5b,0x00,0x6f,0x3b,0x0a,0x07,0x3b,0x0b,0x69,0x14,0x3b,0x0c,0x5b,0x06,0x69,0x08,0x6f,0x3b,0x0a,0x07,0x3b,0x0b,0x69,0x00,0x3b,0x0c,0x5b,0x00))
  ChangeSelfSwitch("A",0)
  ChangeInventoryArmor(311,0,0,1,false)
  0()
 PAGE   2
  // condition: self-switch A is ON
  0()



EVENT   14
 PAGE   1
  250(bytes(0x04,0x08,0x6f,0x3a,0x0c,0x52,0x50,0x47,0x3a,0x3a,0x53,0x45,0x08,0x3a,0x0a,0x40,0x6e,0x61,0x6d,0x65,0x49,0x22,0x0a,0x43,0x68,0x65,0x73,0x74,0x06,0x3a,0x06,0x45,0x54,0x3a,0x0b,0x40,0x70,0x69,0x74,0x63,0x68,0x69,0x69,0x3a,0x0c,0x40,0x76,0x6f,0x6c,0x75,0x6d,0x65,0x69,0x55))
  205(0,bytes(0x04,0x08,0x6f,0x3a,0x13,0x52,0x50,0x47,0x3a,0x3a,0x4d,0x6f,0x76,0x65,0x52,0x6f,0x75,0x74,0x65,0x09,0x3a,0x0c,0x40,0x72,0x65,0x70,0x65,0x61,0x74,0x46,0x3a,0x0f,0x40,0x73,0x6b,0x69,0x70,0x70,0x61,0x62,0x6c,0x65,0x46,0x3a,0x0a,0x40,0x77,0x61,0x69,0x74,0x54,0x3a,0x0a,0x40,0x6c,0x69,0x73,0x74,0x5b,0x0b,0x6f,0x3a,0x15,0x52,0x50,0x47,0x3a,0x3a,0x4d,0x6f,0x76,0x65,0x43,0x6f,0x6d,0x6d,0x61,0x6e,0x64,0x07,0x3a,0x0a,0x40,0x63,0x6f,0x64,0x65,0x69,0x29,0x3a,0x10,0x40,0x70,0x61,0x72,0x61,0x6d,0x65,0x74,0x65,0x72,0x73,0x5b,0x00,0x6f,0x3b,0x0a,0x07,0x3b,0x0b,0x69,0x16,0x3b,0x0c,0x5b,0x00,0x6f,0x3b,0x0a,0x07,0x3b,0x0b,0x69,0x14,0x3b,0x0c,0x5b,0x06,0x69,0x08,0x6f,0x3b,0x0a,0x07,0x3b,0x0b,0x69,0x17,0x3b,0x0c,0x5b,0x00,0x6f,0x3b,0x0a,0x07,0x3b,0x0b,0x69,0x14,0x3b,0x0c,0x5b,0x06,0x69,0x08,0x6f,0x3b,0x0a,0x07,0x3b,0x0b,0x69,0x00,0x3b,0x0c,0x5b,0x00))
  ChangeSelfSwitch("A",0)
  ChangeInventoryWeapon(926,0,0,1,false)
  0()
 PAGE   2
  // condition: self-switch A is ON
  0()



EVENT   15
 PAGE   1
  250(bytes(0x04,0x08,0x6f,0x3a,0x0c,0x52,0x50,0x47,0x3a,0x3a,0x53,0x45,0x08,0x3a,0x0a,0x40,0x6e,0x61,0x6d,0x65,0x49,0x22,0x0a,0x43,0x68,0x65,0x73,0x74,0x06,0x3a,0x06,0x45,0x54,0x3a,0x0b,0x40,0x70,0x69,0x74,0x63,0x68,0x69,0x69,0x3a,0x0c,0x40,0x76,0x6f,0x6c,0x75,0x6d,0x65,0x69,0x55))
  205(0,bytes(0x04,0x08,0x6f,0x3a,0x13,0x52,0x50,0x47,0x3a,0x3a,0x4d,0x6f,0x76,0x65,0x52,0x6f,0x75,0x74,0x65,0x09,0x3a,0x0c,0x40,0x72,0x65,0x70,0x65,0x61,0x74,0x46,0x3a,0x0f,0x40,0x73,0x6b,0x69,0x70,0x70,0x61,0x62,0x6c,0x65,0x46,0x3a,0x0a,0x40,0x77,0x61,0x69,0x74,0x54,0x3a,0x0a,0x40,0x6c,0x69,0x73,0x74,0x5b,0x0b,0x6f,0x3a,0x15,0x52,0x50,0x47,0x3a,0x3a,0x4d,0x6f,0x76,0x65,0x43,0x6f,0x6d,0x6d,0x61,0x6e,0x64,0x07,0x3a,0x0a,0x40,0x63,0x6f,0x64,0x65,0x69,0x29,0x3a,0x10,0x40,0x70,0x61,0x72,0x61,0x6d,0x65,0x74,0x65,0x72,0x73,0x5b,0x00,0x6f,0x3b,0x0a,0x07,0x3b,0x0b,0x69,0x16,0x3b,0x0c,0x5b,0x00,0x6f,0x3b,0x0a,0x07,0x3b,0x0b,0x69,0x14,0x3b,0x0c,0x5b,0x06,0x69,0x08,0x6f,0x3b,0x0a,0x07,0x3b,0x0b,0x69,0x17,0x3b,0x0c,0x5b,0x00,0x6f,0x3b,0x0a,0x07,0x3b,0x0b,0x69,0x14,0x3b,0x0c,0x5b,0x06,0x69,0x08,0x6f,0x3b,0x0a,0x07,0x3b,0x0b,0x69,0x00,0x3b,0x0c,0x5b,0x00))
  ChangeSelfSwitch("A",0)
  ChangeInventoryArmor(138,0,0,1,false)
  0()
 PAGE   2
  // condition: self-switch A is ON
  0()



EVENT   16
 PAGE   1
  250(bytes(0x04,0x08,0x6f,0x3a,0x0c,0x52,0x50,0x47,0x3a,0x3a,0x53,0x45,0x08,0x3a,0x0a,0x40,0x6e,0x61,0x6d,0x65,0x49,0x22,0x0a,0x43,0x68,0x65,0x73,0x74,0x06,0x3a,0x06,0x45,0x54,0x3a,0x0b,0x40,0x70,0x69,0x74,0x63,0x68,0x69,0x69,0x3a,0x0c,0x40,0x76,0x6f,0x6c,0x75,0x6d,0x65,0x69,0x55))
  205(0,bytes(0x04,0x08,0x6f,0x3a,0x13,0x52,0x50,0x47,0x3a,0x3a,0x4d,0x6f,0x76,0x65,0x52,0x6f,0x75,0x74,0x65,0x09,0x3a,0x0c,0x40,0x72,0x65,0x70,0x65,0x61,0x74,0x46,0x3a,0x0f,0x40,0x73,0x6b,0x69,0x70,0x70,0x61,0x62,0x6c,0x65,0x46,0x3a,0x0a,0x40,0x77,0x61,0x69,0x74,0x54,0x3a,0x0a,0x40,0x6c,0x69,0x73,0x74,0x5b,0x0b,0x6f,0x3a,0x15,0x52,0x50,0x47,0x3a,0x3a,0x4d,0x6f,0x76,0x65,0x43,0x6f,0x6d,0x6d,0x61,0x6e,0x64,0x07,0x3a,0x0a,0x40,0x63,0x6f,0x64,0x65,0x69,0x29,0x3a,0x10,0x40,0x70,0x61,0x72,0x61,0x6d,0x65,0x74,0x65,0x72,0x73,0x5b,0x00,0x6f,0x3b,0x0a,0x07,0x3b,0x0b,0x69,0x16,0x3b,0x0c,0x5b,0x00,0x6f,0x3b,0x0a,0x07,0x3b,0x0b,0x69,0x14,0x3b,0x0c,0x5b,0x06,0x69,0x08,0x6f,0x3b,0x0a,0x07,0x3b,0x0b,0x69,0x17,0x3b,0x0c,0x5b,0x00,0x6f,0x3b,0x0a,0x07,0x3b,0x0b,0x69,0x14,0x3b,0x0c,0x5b,0x06,0x69,0x08,0x6f,0x3b,0x0a,0x07,0x3b,0x0b,0x69,0x00,0x3b,0x0c,0x5b,0x00))
  ChangeSelfSwitch("A",0)
  ChangeInventoryArmor(1494,0,0,1,false)
  0()
 PAGE   2
  // condition: self-switch A is ON
  0()



EVENT   19
 PAGE   1
  250(bytes(0x04,0x08,0x6f,0x3a,0x0c,0x52,0x50,0x47,0x3a,0x3a,0x53,0x45,0x08,0x3a,0x0a,0x40,0x6e,0x61,0x6d,0x65,0x49,0x22,0x0a,0x43,0x68,0x65,0x73,0x74,0x06,0x3a,0x06,0x45,0x54,0x3a,0x0b,0x40,0x70,0x69,0x74,0x63,0x68,0x69,0x69,0x3a,0x0c,0x40,0x76,0x6f,0x6c,0x75,0x6d,0x65,0x69,0x55))
  205(0,bytes(0x04,0x08,0x6f,0x3a,0x13,0x52,0x50,0x47,0x3a,0x3a,0x4d,0x6f,0x76,0x65,0x52,0x6f,0x75,0x74,0x65,0x09,0x3a,0x0c,0x40,0x72,0x65,0x70,0x65,0x61,0x74,0x46,0x3a,0x0f,0x40,0x73,0x6b,0x69,0x70,0x70,0x61,0x62,0x6c,0x65,0x46,0x3a,0x0a,0x40,0x77,0x61,0x69,0x74,0x54,0x3a,0x0a,0x40,0x6c,0x69,0x73,0x74,0x5b,0x0b,0x6f,0x3a,0x15,0x52,0x50,0x47,0x3a,0x3a,0x4d,0x6f,0x76,0x65,0x43,0x6f,0x6d,0x6d,0x61,0x6e,0x64,0x07,0x3a,0x0a,0x40,0x63,0x6f,0x64,0x65,0x69,0x29,0x3a,0x10,0x40,0x70,0x61,0x72,0x61,0x6d,0x65,0x74,0x65,0x72,0x73,0x5b,0x00,0x6f,0x3b,0x0a,0x07,0x3b,0x0b,0x69,0x16,0x3b,0x0c,0x5b,0x00,0x6f,0x3b,0x0a,0x07,0x3b,0x0b,0x69,0x14,0x3b,0x0c,0x5b,0x06,0x69,0x08,0x6f,0x3b,0x0a,0x07,0x3b,0x0b,0x69,0x17,0x3b,0x0c,0x5b,0x00,0x6f,0x3b,0x0a,0x07,0x3b,0x0b,0x69,0x14,0x3b,0x0c,0x5b,0x06,0x69,0x08,0x6f,0x3b,0x0a,0x07,0x3b,0x0b,0x69,0x00,0x3b,0x0c,0x5b,0x00))
  ChangeSelfSwitch("A",0)
  ChangeInventoryWeapon(531,0,0,1,false)
  0()
 PAGE   2
  // condition: self-switch A is ON
  0()



EVENT   21
 PAGE   1
  PictureDisplay(5,"80_salamander_st01",0,0,0,0,100,100,0,0)
  PictureMove(5,null,0,0,0,0,100,100,255,0,60,true)
  217()
  ShowMessageFace("salamander_fc1",0,0,2,1)
  ShowMessage("\\n<Salamander>My physical body is somewhere else right now...\nSo I hope you won't mind keeping my spiritual form company.")
  ShowMessageFace("salamander_fc1",0,0,2,2)
  ShowMessage("\\n<Salamander>I'm Salamander, the spirit who governs flames.\nWhat do you want from me, traveler...?")
  ShowMessageFace("lawrat_fc1",0,0,2,3)
  ShowMessage("\\n<Lauratt>............")
  ShowMessageFace("",0,0,2,4)
  ShowMessage("Lauratt explained his circumstances to Salamander...")
  PictureDisplay(5,"80_salamander_st03",0,0,0,0,100,100,255,0)
  ShowMessageFace("salamander_fc1",2,0,2,5)
  ShowMessage("\\n<Salamander>You can use runes?!\nThat's incredible, I've really missed those...")
  ShowMessageFace("salamander_fc1",2,0,2,6)
  ShowMessage("\\n<Salamander>The last time I saw a rune user...was probably not long after the Great Monster Wars if I'm remembering correctly.")
  ShowMessageFace("salamander_fc1",2,0,2,7)
  ShowMessage("\\n<Salamander>After the Great Monster Wars, runes were forbidden. It's hard to believe there was someone who inherited that lost art.")
  ShowMessageFace("lawrat_fc1",0,0,2,8)
  ShowMessage("\\n<Lauratt>............")
  ShowMessageFace("",0,0,2,9)
  ShowMessage("It would seem runes had disappeared from this world about a thousand years ago. Could it have been because of their connection to spirit worship that they were prohibited?")
  PictureDisplay(5,"80_salamander_st02",0,0,0,0,100,100,255,0)
  ShowMessageFace("salamander_fc1",1,0,2,10)
  ShowMessage("\\n<Salamander>I see, so you want me to infuse your runes with my power... All right then, if that's what you want, you'll need to show me your strength first!")
  ShowMessageFace("salamander_fc1",1,0,2,11)
  ShowMessage("\\n<Salamander>Come on, show me everything you've got!\nIf you can defeat me, I'll lend you my power!")
  ShowMessageFace("magatu_fc1",2,0,2,12)
  ShowMessage("\\n<Magatsu>Feels like every world has trials like this.\nI'll show her as much of my power as she wants!")
  ShowMessageFace("rejeo_fc1",1,0,2,13)
  ShowMessage("\\n<Rigeo>Such violence... It's unbearably hot...")
  ShowMessageFace("lawrat_fc1",0,0,2,14)
  ShowMessage("\\n<Lauratt>............")
  ShowMessageFace("",0,0,2,15)
  ShowMessage("Lauratt needs to become stronger now.\nTo that end, he must show her his conviction...")
  SetBattleBGM(bytes(0x04,0x08,0x6f,0x3a,0x0d,0x52,0x50,0x47,0x3a,0x3a,0x42,0x47,0x4d,0x08,0x3a,0x0a,0x40,0x6e,0x61,0x6d,0x65,0x49,0x22,0x13,0x62,0x6f,0x73,0x73,0x5f,0x79,0x6f,0x6e,0x73,0x65,0x69,0x72,0x65,0x69,0x06,0x3a,0x06,0x45,0x54,0x3a,0x0c,0x40,0x76,0x6f,0x6c,0x75,0x6d,0x65,0x69,0x69,0x3a,0x0b,0x40,0x70,0x69,0x74,0x63,0x68,0x69,0x69))
  Battle(0,1349,false,false)
  281(1)
  TeleportPlayer(0,854,27,41,8,2)
  205(0,bytes(0x04,0x08,0x6f,0x3a,0x13,0x52,0x50,0x47,0x3a,0x3a,0x4d,0x6f,0x76,0x65,0x52,0x6f,0x75,0x74,0x65,0x09,0x3a,0x0c,0x40,0x72,0x65,0x70,0x65,0x61,0x74,0x46,0x3a,0x0f,0x40,0x73,0x6b,0x69,0x70,0x70,0x61,0x62,0x6c,0x65,0x46,0x3a,0x0a,0x40,0x77,0x61,0x69,0x74,0x54,0x3a,0x0a,0x40,0x6c,0x69,0x73,0x74,0x5b,0x07,0x6f,0x3a,0x15,0x52,0x50,0x47,0x3a,0x3a,0x4d,0x6f,0x76,0x65,0x43,0x6f,0x6d,0x6d,0x61,0x6e,0x64,0x07,0x3a,0x0a,0x40,0x63,0x6f,0x64,0x65,0x69,0x15,0x3a,0x10,0x40,0x70,0x61,0x72,0x61,0x6d,0x65,0x74,0x65,0x72,0x73,0x5b,0x00,0x6f,0x3b,0x0a,0x07,0x3b,0x0b,0x69,0x00,0x3b,0x0c,0x5b,0x00))
  SetBattleBGM(bytes(0x04,0x08,0x6f,0x3a,0x0d,0x52,0x50,0x47,0x3a,0x3a,0x42,0x47,0x4d,0x08,0x3a,0x0a,0x40,0x6e,0x61,0x6d,0x65,0x49,0x22,0x0b,0x62,0x61,0x74,0x74,0x6c,0x65,0x06,0x3a,0x06,0x45,0x54,0x3a,0x0c,0x40,0x76,0x6f,0x6c,0x75,0x6d,0x65,0x69,0x69,0x3a,0x0b,0x40,0x70,0x69,0x74,0x63,0x68,0x69,0x69))
  241(bytes(0x04,0x08,0x6f,0x3a,0x0d,0x52,0x50,0x47,0x3a,0x3a,0x42,0x47,0x4d,0x08,0x3a,0x0a,0x40,0x6e,0x61,0x6d,0x65,0x49,0x22,0x14,0x73,0x63,0x65,0x6e,0x65,0x5f,0x65,0x70,0x69,0x6c,0x6f,0x67,0x75,0x65,0x32,0x06,0x3a,0x06,0x45,0x54,0x3a,0x0c,0x40,0x76,0x6f,0x6c,0x75,0x6d,0x65,0x69,0x69,0x3a,0x0b,0x40,0x70,0x69,0x74,0x63,0x68,0x69,0x69))
  ShowMessageFace("salamander_fc1",1,0,2,16)
  ShowMessage("\\n<Salamander>All right... That's enough.\nI acknowledge your strength.")
  ShowMessageFace("rejeo_fc1",1,0,2,17)
  ShowMessage("\\n<Rigeo>*sigh*...I-is it finally over...?\nI'm exhausted... Let me get some rest...")
  ShowMessageFace("magatu_fc1",0,0,2,18)
  ShowMessage("\\n<Magatsu>As expected of one who controls flames...\nShe was just like the fury of fire itself.")
  PictureDisplay(5,"80_salamander_st01",0,0,0,0,100,100,255,0)
  ShowMessageFace("salamander_fc1",0,0,2,19)
  ShowMessage("\\n<Salamander>Now then, I'll carve my power into this rune.\nThough it's been about a thousand years, so whether this works or not...")
  ShowMessageFace("rejeo_fc1",0,0,2,20)
  ShowMessage("\\n<Rigeo>We've come so far, I hope you're not expecting us to forgive you if this fails...?")
  ShowMessageFace("",0,0,2,21)
  ShowMessage("Salamander places her palm over Lauratt's hand!")
  PictureDisplay(5,"80_salamander_st02",0,0,0,0,100,100,255,0)
  ShowMessageFace("salamander_fc1",1,0,2,22)
  ShowMessage("\\n<Salamander>This feeling takes me back...\nRune, be engraved with my fire!")
  250(bytes(0x04,0x08,0x6f,0x3a,0x0c,0x52,0x50,0x47,0x3a,0x3a,0x53,0x45,0x08,0x3a,0x0a,0x40,0x6e,0x61,0x6d,0x65,0x49,0x22,0x0d,0x6d,0x6f,0x6e,0x5f,0x77,0x61,0x72,0x6d,0x06,0x3a,0x06,0x45,0x54,0x3a,0x0b,0x40,0x70,0x69,0x74,0x63,0x68,0x69,0x69,0x3a,0x0c,0x40,0x76,0x6f,0x6c,0x75,0x6d,0x65,0x69,0x69))
  PictureDisplay(6,"sys_white",0,0,0,0,100,100,0,0)
  PictureMove(6,null,0,0,0,0,100,100,255,0,30,true)
  PictureMove(6,null,0,0,0,0,100,100,0,0,30,true)
  PictureClear(6)
  ShowMessageFace("salamander_fc1",1,0,2,23)
  ShowMessage("\\n<Salamander>...Okay, it worked.\nWith that, your rune has been imbued with a spirit's power.")
  ShowMessageFace("rejeo_fc1",0,0,2,24)
  ShowMessage("\\n<Rigeo>How is it, Lauratt?\nDoes it feel like you've gotten stronger now...?")
  ShowMessageFace("lawrat_fc1",0,0,2,25)
  ShowMessage("\\n<Lauratt>............")
  If(0,1927,1)
   355("set_class_level(807, 34, 10, false, false)")
   655("set_class_level(807, 35, 3, false, false)")
   655("set_class_level(807, 36, 3, false, false)")
   655("set_class_level(807, 37, 3, false, false)")
   655("set_class_level(807, 40, 10, false, false)")
   655("set_class_level(807, 41, 4, false, true)")
   655("set_class_level(807, 45, 10, false, false)")
   655("set_class_level(807, 47, 10, false, false)")
   655("set_class_level(807, 101, 10, false, false)")
   0()
  Else()
   355("set_class_level(807, 34, 10, false, false)")
   655("set_class_level(807, 35, 3, false, false)")
   655("set_class_level(807, 36, 3, false, false)")
   655("set_class_level(807, 37, 3, false, false)")
   655("set_class_level(807, 40, 10, false, false)")
   655("set_class_level(807, 41, 4, false, false)")
   655("set_class_level(807, 45, 10, false, false)")
   655("set_class_level(807, 47, 10, false, false)")
   655("set_class_level(807, 101, 10, false, false)")
   0()
  EndIf()
  318(0,807,0,279)
  ShowMessageFace("",0,0,2,26)
  ShowMessage("Lauratt feels a burning power surging through his rune.\nNow he can use even more powerful magic!")
  PictureDisplay(5,"80_salamander_st01",0,0,0,0,100,100,255,0)
  ShowMessageFace("salamander_fc1",0,0,2,27)
  ShowMessage("\\n<Salamander>Now then, if you'll excuse me...\nThere's a lot I need to be doing with my physical body.")
  ShowMessageFace("magatu_fc1",2,0,2,28)
  ShowMessage("\\n<Magatsu>About that, you said this was a spiritual form.\nTo be able to use such an advanced technique...")
  ShowMessageFace("rejeo_fc1",0,0,2,29)
  ShowMessage("\\n<Rigeo>You're busy...? What's going on?")
  ShowMessageFace("salamander_fc1",0,0,2,30)
  ShowMessage("\\n<Salamander>There's been a strange incident in Finoa, so I need to accompany--no, there's no time to explain.")
  ShowMessageFace("salamander_fc1",0,0,2,31)
  ShowMessage("\\n<Salamander>That's why I have to hurry back to my body!\nMay you be victorious in your future!")
  PictureClear(5)
  Wait(30)
  250(bytes(0x04,0x08,0x6f,0x3a,0x0c,0x52,0x50,0x47,0x3a,0x3a,0x53,0x45,0x08,0x3a,0x0a,0x40,0x6e,0x61,0x6d,0x65,0x49,0x22,0x0d,0x6d,0x6f,0x6e,0x5f,0x77,0x61,0x72,0x70,0x06,0x3a,0x06,0x45,0x54,0x3a,0x0b,0x40,0x70,0x69,0x74,0x63,0x68,0x69,0x69,0x3a,0x0c,0x40,0x76,0x6f,0x6c,0x75,0x6d,0x65,0x69,0x69))
  205(0,bytes(0x04,0x08,0x6f,0x3a,0x13,0x52,0x50,0x47,0x3a,0x3a,0x4d,0x6f,0x76,0x65,0x52,0x6f,0x75,0x74,0x65,0x09,0x3a,0x0c,0x40,0x72,0x65,0x70,0x65,0x61,0x74,0x46,0x3a,0x0f,0x40,0x73,0x6b,0x69,0x70,0x70,0x61,0x62,0x6c,0x65,0x46,0x3a,0x0a,0x40,0x77,0x61,0x69,0x74,0x54,0x3a,0x0a,0x40,0x6c,0x69,0x73,0x74,0x5b,0x07,0x6f,0x3a,0x15,0x52,0x50,0x47,0x3a,0x3a,0x4d,0x6f,0x76,0x65,0x43,0x6f,0x6d,0x6d,0x61,0x6e,0x64,0x07,0x3a,0x0a,0x40,0x63,0x6f,0x64,0x65,0x69,0x2c,0x3a,0x10,0x40,0x70,0x61,0x72,0x61,0x6d,0x65,0x74,0x65,0x72,0x73,0x5b,0x00,0x6f,0x3b,0x0a,0x07,0x3b,0x0b,0x69,0x00,0x3b,0x0c,0x5b,0x00))
  Wait(30)
  ShowMessageFace("rejeo_fc1",0,0,2,32)
  ShowMessage("\\n<Rigeo>...Well, I suppose we're done here.\nLet's leave this sweltering place right away.")
  242(1)
  ShowMessageFace("",0,0,2,33)
  ShowMessage("\\n<？？？>Oh, leaving so soon?\nBut I wanted to come see you in person...")
  205(-1,bytes(0x04,0x08,0x6f,0x3a,0x13,0x52,0x50,0x47,0x3a,0x3a,0x4d,0x6f,0x76,0x65,0x52,0x6f,0x75,0x74,0x65,0x09,0x3a,0x0c,0x40,0x72,0x65,0x70,0x65,0x61,0x74,0x46,0x3a,0x0f,0x40,0x73,0x6b,0x69,0x70,0x70,0x61,0x62,0x6c,0x65,0x46,0x3a,0x0a,0x40,0x77,0x61,0x69,0x74,0x54,0x3a,0x0a,0x40,0x6c,0x69,0x73,0x74,0x5b,0x07,0x6f,0x3a,0x15,0x52,0x50,0x47,0x3a,0x3a,0x4d,0x6f,0x76,0x65,0x43,0x6f,0x6d,0x6d,0x61,0x6e,0x64,0x07,0x3a,0x0a,0x40,0x63,0x6f,0x64,0x65,0x69,0x15,0x3a,0x10,0x40,0x70,0x61,0x72,0x61,0x6d,0x65,0x74,0x65,0x72,0x73,0x5b,0x00,0x6f,0x3b,0x0a,0x07,0x3b,0x0b,0x69,0x00,0x3b,0x0c,0x5b,0x00))
  Wait(30)
  212(22,542,false)
  Wait(60)
  ChangeSwitch(31,31,0)
  Wait(60)
  241(bytes(0x04,0x08,0x6f,0x3a,0x0d,0x52,0x50,0x47,0x3a,0x3a,0x42,0x47,0x4d,0x08,0x3a,0x0a,0x40,0x6e,0x61,0x6d,0x65,0x49,0x22,0x0c,0x62,0x6f,0x73,0x73,0x30,0x2d,0x32,0x06,0x3a,0x06,0x45,0x54,0x3a,0x0c,0x40,0x76,0x6f,0x6c,0x75,0x6d,0x65,0x69,0x69,0x3a,0x0b,0x40,0x70,0x69,0x74,0x63,0x68,0x69,0x69))
  ShowMessageFace("",0,0,2,34)
  ShowMessage("A woman calmly appeared on the spot.\nShe was a Nightmare that Lauratt and Rigeo were well-acquainted with...")
  PictureDisplay(5,"80_fulbeua_st01",0,0,0,0,100,100,0,0)
  PictureMove(5,null,0,0,0,0,100,100,255,0,30,true)
  ShowMessageFace("fulbeua_fc1",0,0,2,35)
  ShowMessage("\\n<Fulbeua>Fulbeua Sina Lestani...\nSear my beautiful name into your memory.")
  ShowMessageFace("rejeo_fc1",1,0,2,36)
  ShowMessage("\\n<Rigeo>Fulbeua... It can't be, Fulbeua?!\nWhat are you doing in this world...?!")
  ShowMessageFace("",0,0,2,37)
  ShowMessage("Could she possibly be one of the Queen of Dream's allies...? Was Fulbeua also summoned by her as well?")
  ShowMessageFace("fulbeua_fc1",0,0,2,38)
  ShowMessage("\\n<Fulbeua>Lauratt, you came to meet me at the secret church. So this time, I've come to answer your request.")
  ShowMessageFace("fulbeua_fc1",0,0,2,39)
  ShowMessage("\\n<Fulbeua>Consider it an honor to have had the privilege of looking after me...♡")
  ShowMessageFace("rejeo_fc1",0,0,2,40)
  ShowMessage("\\n<Rigeo>...Lauratt, did you go by yourself to meet Fulbeua?")
  ShowMessageFace("lawrat_fc1",0,0,2,41)
  ShowMessage("\\n<Lauratt>............")
  ShowMessageFace("",0,0,2,42)
  ShowMessage("No, he doesn't recall doing that.")
  ShowMessageFace("magatu_fc1",3,0,2,43)
  ShowMessage("\\n<Magatsu>Is this Nightmare from the same world you come from? Regardless, she looks pretty strong--")
  ShowMessageFace("fulbeua_fc1",0,0,2,44)
  ShowMessage("\\n<Fulbeua>--\\*\\fiAnd\\*\\fi beautiful.")
  ShowMessageFace("magatu_fc1",2,0,2,45)
  ShowMessage("\\n<Magatsu>(I was gonna say she's narcissistic)")
  ShowMessageFace("rejeo_fc1",0,0,2,46)
  ShowMessage("\\n<Rigeo>This is a surprise... I have no clue what you're doing here, but you sound awfully proud to be serving the Queen of Dreams.")
  ShowMessageFace("fulbeua_fc1",0,0,2,47)
  ShowMessage("\\n<Fulbeua>Do you not understand what \"ally\" means?\nThere is no hierarchy among the Queen of Dreams and her allies.")
  ShowMessageFace("fulbeua_fc1",0,0,2,48)
  ShowMessage("\\n<Fulbeua>I wasn't particularly interested in her Land of Night to begin with. If the will of men were lost, then the heart which reveres beauty would disappear as well...")
  ShowMessageFace("fulbeua_fc1",0,0,2,49)
  ShowMessage("\\n<Fulbeua>I do not desire such a world.\nBeauty, beauty would lose all meaning in that world...")
  ShowMessageFace("lawrat_fc1",0,0,2,50)
  ShowMessage("\\n<Lauratt>............")
  ShowMessageFace("fulbeua_fc1",0,0,2,51)
  ShowMessage("\\n<Fulbeua>But Est Morn...\nI don't really know why she would want such a world.")
  ShowMessageFace("rejeo_fc1",0,0,2,52)
  ShowMessage("\\n<Rigeo>Who are you talking about...?\nIs Est the name of the Queen of Dreams...?")
  ShowMessageFace("magatu_fc1",2,0,2,53)
  ShowMessage("\\n<Magatsu>If you're not Est's lapdog, then...\nWhat do you hope to gain in the end from working with her?")
  ShowMessageFace("fulbeua_fc1",0,0,2,54)
  ShowMessage("\\n<Fulbeua>I just want to bring true beauty to this world.\nWorking for someone else would contradict my sense of beauty.")
  ShowMessageFace("lawrat_fc1",0,0,2,55)
  ShowMessage("\\n<Lauratt>............")
  ShowMessageFace("fulbeua_fc1",0,0,2,56)
  ShowMessage("\\n<Fulbeua>Now...the Demonic Château will appear in the eastern lands soon. It is my domain, the Château des Romances!")
  ShowMessageFace("rejeo_fc1",1,0,2,57)
  ShowMessage("\\n<Rigeo>The Château des Romances...?!\nWhat do you mean by the eastern lands?!")
  ShowMessageFace("fulbeua_fc1",0,0,2,58)
  ShowMessage("\\n<Fulbeua>It was some palace called Grand Noah if I'm not mistaken... That palace will be the site for the summoning.")
  ShowMessageFace("fulbeua_fc1",0,0,2,59)
  ShowMessage("\\n<Fulbeua>We now have the shaman in our hands.\nThat shaman from another world possesses the power to expand the gates.")
  ShowMessageFace("magatu_fc1",3,0,2,60)
  ShowMessage("\\n<Magatsu>A shaman from another world...?\nAre you planning to cause even more chaos with her power?!")
  ShowMessageFace("fulbeua_fc1",0,0,2,61)
  ShowMessage("\\n<Fulbeua>Correct... That is our plan.\nWith the shaman's power, we can open the gates to the other worlds...")
  ShowMessageFace("fulbeua_fc1",0,0,2,62)
  ShowMessage("\\n<Fulbeua>And then, I will summon the Demonic Château itself, the Nightmares inside it, and everything else...")
  ShowMessageFace("lawrat_fc1",0,0,2,63)
  ShowMessage("\\n<Lauratt>......?!")
  ShowMessageFace("rejeo_fc1",0,0,2,64)
  ShowMessage("\\n<Rigeo>No way, if you do that--")
  ShowMessageFace("",0,0,2,65)
  ShowMessage("The Château des Romances is from the dream world; in other words, everything around it is part of the dream world.\nIf a castle such as that were summoned into this world...")
  ShowMessageFace("fulbeua_fc1",0,0,2,66)
  ShowMessage("\\n<Fulbeua>Yes... The Land of Night would spread in an instant. Dreams of pleasure would flood this world, and everyone would yield their hearts to eternal bliss.")
  ShowMessageFace("fulbeua_fc1",0,0,2,67)
  ShowMessage("\\n<Fulbeua>But I have no interest in the Land of Night...\nMy Château is the only place fit for me, of course.")
  ShowMessageFace("rejeo_fc1",1,0,2,68)
  ShowMessage("\\n<Rigeo>I won't let you do that...!")
  ShowMessageFace("fulbeua_fc1",0,0,2,69)
  ShowMessage("\\n<Fulbeua>...Then you should hurry to Grand Noah.")
  ShowMessageFace("fulbeua_fc1",0,0,2,70)
  ShowMessage("\\n<Fulbeua>The shaman has already fallen into Musette's hands. Even now, the ritual to summon the Demonic Château is being prepared.")
  ShowMessageFace("",0,0,2,71)
  ShowMessage("Musette... She too must be one of Est's allies.\nIt would appear this has already become a pressing situation.")
  ShowMessageFace("fulbeua_fc1",0,0,2,72)
  ShowMessage("\\n<Fulbeua>Lauratt...\nI shall be looking forward to how you proceed from here on.")
  ShowMessageFace("fulbeua_fc1",0,0,2,73)
  ShowMessage("\\n<Fulbeua>At the very least, you understand what beauty is.\nSo should you need to ask...")
  ShowMessageFace("fulbeua_fc1",0,0,2,74)
  ShowMessage("\\n<Fulbeua>...I am the embodiment of beauty, Fulbeua Sina Lestani.")
  ShowMessageFace("fulbeua_fc1",0,0,2,75)
  ShowMessage("\\n<Fulbeua>I shall be waiting for you, ufufufu...")
  PictureClear(5)
  Wait(30)
  212(22,542,false)
  Wait(60)
  ChangeVariable(1205,1205,0,0,6)
  ChangeSwitch(31,31,1)
  Wait(60)
  241(bytes(0x04,0x08,0x6f,0x3a,0x0d,0x52,0x50,0x47,0x3a,0x3a,0x42,0x47,0x4d,0x08,0x3a,0x0a,0x40,0x6e,0x61,0x6d,0x65,0x49,0x22,0x0a,0x6b,0x69,0x6b,0x69,0x32,0x06,0x3a,0x06,0x45,0x54,0x3a,0x0c,0x40,0x76,0x6f,0x6c,0x75,0x6d,0x65,0x69,0x69,0x3a,0x0b,0x40,0x70,0x69,0x74,0x63,0x68,0x69,0x69))
  ShowMessageFace("rejeo_fc1",0,0,2,76)
  ShowMessage("\\n<Rigeo>She just said some stuff and left...")
  ShowMessageFace("magatu_fc2",2,0,2,77)
  ShowMessage("\\n<Magatsu>That woman... What did she come here for?\nIs everyone in your world like that...?")
  ShowMessageFace("rejeo_fc1",1,0,2,78)
  ShowMessage("\\n<Rigeo>I imagine there are many weird people out there...\n...but she is an extraordinary case in of herself...")
  ShowMessageFace("lawrat_fc1",0,0,2,79)
  ShowMessage("\\n<Lauratt>............")
  ShowMessageFace("",0,0,2,80)
  ShowMessage("Her strange behavior aside...\nFulbeua revealed some shocking facts.")
  ShowMessageFace("",0,0,2,81)
  ShowMessage("She was about to summon the Château des Romances.\nIf Fulbeua is correct, this world is fast approaching its ruin.")
  ShowMessageFace("magatu_fc1",2,0,2,82)
  ShowMessage("\\n<Magatsu>Seems this situation is more pressing than we thought. We can't afford to take our time gathering the other heroes together anymore.")
  ShowMessageFace("rejeo_fc1",1,0,2,83)
  ShowMessage("\\n<Rigeo>We have no choice but to hurry to Grand Noah.\nWe can't let the Château des Romances be summoned!")
  ShowMessageFace("lawrat_fc1",0,0,2,84)
  ShowMessage("\\n<Lauratt>............")
  ShowMessageFace("",0,0,2,85)
  ShowMessage("Right now, a ritual to summon the Demonic Château is about to take place... Fulbeua said as much.")
  ShowMessageFace("",0,0,2,86)
  ShowMessage("The crisis facing this world cannot be overlooked.\nThey need to head to Grand Noah as quickly as possible...")
  Wait(60)
  242(2)
  221()
  Wait(120)
  PictureDisplay(5,"iv_chapter06",0,0,0,0,100,100,255,0)
  222()
  Wait(180)
  221()
  PictureClear(5)
  Wait(120)
  TeleportPlayer(0,936,21,5,2,2)
  0()



EVENT   23
 PAGE   1
  250(bytes(0x04,0x08,0x6f,0x3a,0x0c,0x52,0x50,0x47,0x3a,0x3a,0x53,0x45,0x08,0x3a,0x0a,0x40,0x6e,0x61,0x6d,0x65,0x49,0x22,0x0a,0x48,0x65,0x61,0x6c,0x37,0x06,0x3a,0x06,0x45,0x54,0x3a,0x0b,0x40,0x70,0x69,0x74,0x63,0x68,0x69,0x69,0x3a,0x0c,0x40,0x76,0x6f,0x6c,0x75,0x6d,0x65,0x69,0x55))
  224(bytes(0x04,0x08,0x75,0x3a,0x0a,0x43,0x6f,0x6c,0x6f,0x72,0x25,0x00,0x00,0x00,0x00,0x00,0xe0,0x6f,0x40,0x00,0x00,0x00,0x00,0x00,0xe0,0x6f,0x40,0x00,0x00,0x00,0x00,0x00,0xe0,0x6f,0x40,0x00,0x00,0x00,0x00,0x00,0xe0,0x6f,0x40),30,true)
  314(0,0)
  ShowMessageFace("",0,0,2,1)
  ShowMessage("The party's HP and MP have been fully restored!")
  0()



EVENT   20
 PAGE   1
  ChangeVariable(1205,1205,0,0,5)
  ShowMessageFace("magatu_fc1",3,0,2,1)
  ShowMessage("\\n<Magatsu>I must say, it's hotter in here than I expected...\nIt's a good thing I dressed light.")
  ShowMessageFace("rejeo_fc1",1,0,2,2)
  ShowMessage("\\n<Rigeo>I'm a Nightmare, so I won't come down with heatstroke, however... I can definitely tell it's sweltering in here.")
  ShowMessageFace("rejeo_fc1",1,0,2,3)
  ShowMessage("\\n<Rigeo>Lauratt... Are you going to be all right in such thick clothing? We've been to places like this in the dream world, but not in reality...")
  ShowMessageFace("lawrat_fc1",0,0,2,4)
  ShowMessage("\\n<Lauratt>............")
  ShowMessageFace("",0,0,2,5)
  ShowMessage("The heat was unpleasant for Lauratt, but this wasn't the time to complain. He had to find Salamander in the volcano's depths and acquire her power...")
  0()
 PAGE   2
  // condition: variable 1205 >= 5
  0()



EVENT   22
 PAGE   1
  // condition: switch 31 is ON
  0()



EVENT   17
 PAGE   1
  250(bytes(0x04,0x08,0x6f,0x3a,0x0c,0x52,0x50,0x47,0x3a,0x3a,0x53,0x45,0x08,0x3a,0x0a,0x40,0x6e,0x61,0x6d,0x65,0x49,0x22,0x0a,0x43,0x68,0x65,0x73,0x74,0x06,0x3a,0x06,0x45,0x54,0x3a,0x0b,0x40,0x70,0x69,0x74,0x63,0x68,0x69,0x69,0x3a,0x0c,0x40,0x76,0x6f,0x6c,0x75,0x6d,0x65,0x69,0x55))
  205(0,bytes(0x04,0x08,0x6f,0x3a,0x13,0x52,0x50,0x47,0x3a,0x3a,0x4d,0x6f,0x76,0x65,0x52,0x6f,0x75,0x74,0x65,0x09,0x3a,0x0c,0x40,0x72,0x65,0x70,0x65,0x61,0x74,0x46,0x3a,0x0f,0x40,0x73,0x6b,0x69,0x70,0x70,0x61,0x62,0x6c,0x65,0x46,0x3a,0x0a,0x40,0x77,0x61,0x69,0x74,0x54,0x3a,0x0a,0x40,0x6c,0x69,0x73,0x74,0x5b,0x0b,0x6f,0x3a,0x15,0x52,0x50,0x47,0x3a,0x3a,0x4d,0x6f,0x76,0x65,0x43,0x6f,0x6d,0x6d,0x61,0x6e,0x64,0x07,0x3a,0x0a,0x40,0x63,0x6f,0x64,0x65,0x69,0x29,0x3a,0x10,0x40,0x70,0x61,0x72,0x61,0x6d,0x65,0x74,0x65,0x72,0x73,0x5b,0x00,0x6f,0x3b,0x0a,0x07,0x3b,0x0b,0x69,0x16,0x3b,0x0c,0x5b,0x00,0x6f,0x3b,0x0a,0x07,0x3b,0x0b,0x69,0x14,0x3b,0x0c,0x5b,0x06,0x69,0x08,0x6f,0x3b,0x0a,0x07,0x3b,0x0b,0x69,0x17,0x3b,0x0c,0x5b,0x00,0x6f,0x3b,0x0a,0x07,0x3b,0x0b,0x69,0x14,0x3b,0x0c,0x5b,0x06,0x69,0x08,0x6f,0x3b,0x0a,0x07,0x3b,0x0b,0x69,0x00,0x3b,0x0c,0x5b,0x00))
  ChangeSelfSwitch("A",0)
  ChangeInventoryArmor(169,0,0,1,false)
  0()
 PAGE   2
  // condition: self-switch A is ON
  0()



EVENT   18
 PAGE   1
  250(bytes(0x04,0x08,0x6f,0x3a,0x0c,0x52,0x50,0x47,0x3a,0x3a,0x53,0x45,0x08,0x3a,0x0a,0x40,0x6e,0x61,0x6d,0x65,0x49,0x22,0x0a,0x43,0x68,0x65,0x73,0x74,0x06,0x3a,0x06,0x45,0x54,0x3a,0x0b,0x40,0x70,0x69,0x74,0x63,0x68,0x69,0x69,0x3a,0x0c,0x40,0x76,0x6f,0x6c,0x75,0x6d,0x65,0x69,0x55))
  205(0,bytes(0x04,0x08,0x6f,0x3a,0x13,0x52,0x50,0x47,0x3a,0x3a,0x4d,0x6f,0x76,0x65,0x52,0x6f,0x75,0x74,0x65,0x09,0x3a,0x0c,0x40,0x72,0x65,0x70,0x65,0x61,0x74,0x46,0x3a,0x0f,0x40,0x73,0x6b,0x69,0x70,0x70,0x61,0x62,0x6c,0x65,0x46,0x3a,0x0a,0x40,0x77,0x61,0x69,0x74,0x54,0x3a,0x0a,0x40,0x6c,0x69,0x73,0x74,0x5b,0x0b,0x6f,0x3a,0x15,0x52,0x50,0x47,0x3a,0x3a,0x4d,0x6f,0x76,0x65,0x43,0x6f,0x6d,0x6d,0x61,0x6e,0x64,0x07,0x3a,0x0a,0x40,0x63,0x6f,0x64,0x65,0x69,0x29,0x3a,0x10,0x40,0x70,0x61,0x72,0x61,0x6d,0x65,0x74,0x65,0x72,0x73,0x5b,0x00,0x6f,0x3b,0x0a,0x07,0x3b,0x0b,0x69,0x16,0x3b,0x0c,0x5b,0x00,0x6f,0x3b,0x0a,0x07,0x3b,0x0b,0x69,0x14,0x3b,0x0c,0x5b,0x06,0x69,0x08,0x6f,0x3b,0x0a,0x07,0x3b,0x0b,0x69,0x17,0x3b,0x0c,0x5b,0x00,0x6f,0x3b,0x0a,0x07,0x3b,0x0b,0x69,0x14,0x3b,0x0c,0x5b,0x06,0x69,0x08,0x6f,0x3b,0x0a,0x07,0x3b,0x0b,0x69,0x00,0x3b,0x0c,0x5b,0x00))
  ChangeSelfSwitch("A",0)
  ChangeInventoryWeapon(424,0,0,1,false)
  0()
 PAGE   2
  // condition: self-switch A is ON
  0()



EVENT   24
 PAGE   1
  250(bytes(0x04,0x08,0x6f,0x3a,0x0c,0x52,0x50,0x47,0x3a,0x3a,0x53,0x45,0x08,0x3a,0x0a,0x40,0x6e,0x61,0x6d,0x65,0x49,0x22,0x0a,0x43,0x68,0x65,0x73,0x74,0x06,0x3a,0x06,0x45,0x54,0x3a,0x0b,0x40,0x70,0x69,0x74,0x63,0x68,0x69,0x69,0x3a,0x0c,0x40,0x76,0x6f,0x6c,0x75,0x6d,0x65,0x69,0x55))
  205(0,bytes(0x04,0x08,0x6f,0x3a,0x13,0x52,0x50,0x47,0x3a,0x3a,0x4d,0x6f,0x76,0x65,0x52,0x6f,0x75,0x74,0x65,0x09,0x3a,0x0c,0x40,0x72,0x65,0x70,0x65,0x61,0x74,0x46,0x3a,0x0f,0x40,0x73,0x6b,0x69,0x70,0x70,0x61,0x62,0x6c,0x65,0x46,0x3a,0x0a,0x40,0x77,0x61,0x69,0x74,0x54,0x3a,0x0a,0x40,0x6c,0x69,0x73,0x74,0x5b,0x0b,0x6f,0x3a,0x15,0x52,0x50,0x47,0x3a,0x3a,0x4d,0x6f,0x76,0x65,0x43,0x6f,0x6d,0x6d,0x61,0x6e,0x64,0x07,0x3a,0x0a,0x40,0x63,0x6f,0x64,0x65,0x69,0x29,0x3a,0x10,0x40,0x70,0x61,0x72,0x61,0x6d,0x65,0x74,0x65,0x72,0x73,0x5b,0x00,0x6f,0x3b,0x0a,0x07,0x3b,0x0b,0x69,0x16,0x3b,0x0c,0x5b,0x00,0x6f,0x3b,0x0a,0x07,0x3b,0x0b,0x69,0x14,0x3b,0x0c,0x5b,0x06,0x69,0x08,0x6f,0x3b,0x0a,0x07,0x3b,0x0b,0x69,0x17,0x3b,0x0c,0x5b,0x00,0x6f,0x3b,0x0a,0x07,0x3b,0x0b,0x69,0x14,0x3b,0x0c,0x5b,0x06,0x69,0x08,0x6f,0x3b,0x0a,0x07,0x3b,0x0b,0x69,0x00,0x3b,0x0c,0x5b,0x00))
  ChangeSelfSwitch("A",0)
  If(0,2909,0)
   ChangeInventoryWeapon(740,0,0,1,false)
   EndEventProcessing()
   0()
  EndIf()
  If(0,2910,0)
   ChangeInventoryWeapon(272,0,0,1,false)
   EndEventProcessing()
   0()
  EndIf()
  If(0,2911,0)
   ChangeInventoryWeapon(529,0,0,1,false)
   EndEventProcessing()
   0()
  EndIf()
  0()
 PAGE   2
  // condition: self-switch A is ON
  0()



EVENT   25
 PAGE   1
  250(bytes(0x04,0x08,0x6f,0x3a,0x0c,0x52,0x50,0x47,0x3a,0x3a,0x53,0x45,0x08,0x3a,0x0a,0x40,0x6e,0x61,0x6d,0x65,0x49,0x22,0x0a,0x48,0x65,0x61,0x6c,0x37,0x06,0x3a,0x06,0x45,0x54,0x3a,0x0b,0x40,0x70,0x69,0x74,0x63,0x68,0x69,0x69,0x3a,0x0c,0x40,0x76,0x6f,0x6c,0x75,0x6d,0x65,0x69,0x55))
  224(bytes(0x04,0x08,0x75,0x3a,0x0a,0x43,0x6f,0x6c,0x6f,0x72,0x25,0x00,0x00,0x00,0x00,0x00,0xe0,0x6f,0x40,0x00,0x00,0x00,0x00,0x00,0xe0,0x6f,0x40,0x00,0x00,0x00,0x00,0x00,0xe0,0x6f,0x40,0x00,0x00,0x00,0x00,0x00,0xe0,0x6f,0x40),30,true)
  314(0,0)
  ShowMessageFace("",0,0,2,1)
  ShowMessage("The party's HP and MP have been fully restored!")
  0()
