﻿


EVENT   1
 PAGE   1
  // condition: switch 4 is ON
  0()
 PAGE   2
  // condition: switch 5 is ON
  0()



EVENT   2
 PAGE   1
  0()



EVENT   3
 PAGE   1
  0()



EVENT   4
 PAGE   1
  0()



EVENT   5
 PAGE   1
  0()



EVENT   6
 PAGE   1
  0()



EVENT   7
 PAGE   1
  0()



EVENT   8
 PAGE   1
  0()



EVENT   9
 PAGE   1
  0()



EVENT   10
 PAGE   1
  0()



EVENT   11
 PAGE   1
  0()



EVENT   12
 PAGE   1
  0()



EVENT   13
 PAGE   1
  0()



EVENT   14
 PAGE   1
  0()
 PAGE   2
  // condition: switch 38 is ON
  0()



EVENT   16
 PAGE   1
  241(bytes(0x04,0x08,0x6f,0x3a,0x0d,0x52,0x50,0x47,0x3a,0x3a,0x42,0x47,0x4d,0x08,0x3a,0x0a,0x40,0x6e,0x61,0x6d,0x65,0x49,0x22,0x0b,0x66,0x69,0x65,0x6c,0x64,0x33,0x06,0x3a,0x06,0x45,0x54,0x3a,0x0c,0x40,0x76,0x6f,0x6c,0x75,0x6d,0x65,0x69,0x69,0x3a,0x0b,0x40,0x70,0x69,0x74,0x63,0x68,0x69,0x69))
  Wait(60)
  If(0,4,0)
   PictureDisplay(5,"80_alice_st71",0,0,0,0,100,100,0,0)
   PictureMove(5,null,0,0,0,0,100,100,255,0,30,true)
   ShowMessageFace("alice_fc5",0,0,2,1)
   ShowMessage("\\n<Alice>We're in position to confront Château des Romances. From here on, are we ready to begin the final battle?")
   0()
  EndIf()
  If(0,5,0)
   PictureDisplay(5,"80_iriasu_st38",0,0,0,0,100,100,0,0)
   PictureMove(5,null,0,0,0,0,100,100,255,0,30,true)
   ShowMessageFace("iriasu_fc4",7,0,2,2)
   ShowMessage("\\n<Ilias>From here we can see Château des Romances clearly... Now then, shall we start the final battle?")
   0()
  EndIf()
  ShowChoices(strings("Prepare more","Start the final battle"),2)
  IfPlayerPicksChoice(0,null)
   If(0,4,0)
    ShowMessageFace("alice_fc5",0,0,2,3)
    ShowMessage("\\n<Alice>I see... Well then, we're turning back.")
    PictureClear(5)
    0()
   EndIf()
   If(0,5,0)
    ShowMessageFace("iriasu_fc4",2,0,2,4)
    ShowMessage("\\n<Ilias>Understood, we'll retreat at once.")
    PictureClear(5)
    0()
   EndIf()
   221()
   Wait(60)
   211(1)
   TeleportPlayer(0,2,328,187,2,2)
   222()
   EndEventProcessing()
   0()
  IfPlayerPicksChoice(1,null)
   0()
  404()
  ChangeVariable(1002,1002,0,0,43)
  ChangeSwitch(100,100,0)
  ChangeSwitch(81,81,0)
  241(bytes(0x04,0x08,0x6f,0x3a,0x0d,0x52,0x50,0x47,0x3a,0x3a,0x42,0x47,0x4d,0x08,0x3a,0x0a,0x40,0x6e,0x61,0x6d,0x65,0x49,0x22,0x0a,0x74,0x69,0x74,0x6c,0x65,0x06,0x3a,0x06,0x45,0x54,0x3a,0x0c,0x40,0x76,0x6f,0x6c,0x75,0x6d,0x65,0x69,0x69,0x3a,0x0b,0x40,0x70,0x69,0x74,0x63,0x68,0x69,0x69))
  PictureDisplay(5,"80_ruka_st01",0,0,-100,0,75,75,0,0)
  PictureDisplay(6,"80_byakunen_st01",0,0,15,0,100,100,0,0)
  PictureDisplay(7,"80_lawrat_st01",0,0,200,20,95,95,0,0)
  PictureDisplay(8,"80_lars_st11",0,0,-220,150,90,90,0,0)
  PictureDisplay(9,"80_nobissa_st01",0,0,-50,150,90,90,0,0)
  PictureDisplay(10,"80_kazuya_st01",0,0,160,150,75,75,0,0)
  PictureDisplay(11,"80_rest_st01",0,0,250,0,100,100,0,0)
  PictureMove(5,null,0,0,-100,0,75,75,255,0,30,false)
  PictureMove(6,null,0,0,15,0,100,100,255,0,30,false)
  PictureMove(7,null,0,0,200,20,95,95,255,0,30,false)
  PictureMove(8,null,0,0,-220,150,90,90,255,0,30,false)
  PictureMove(9,null,0,0,-50,150,90,90,255,0,30,false)
  PictureMove(10,null,0,0,160,150,75,75,255,0,30,false)
  PictureMove(11,null,0,0,250,0,100,100,255,0,30,true)
  ShowMessageFace("ruka_fc1",0,0,2,5)
  ShowMessage("\\n<Luka>Okay, at long last, the final battle!\nNow, let's start our plan!")
  ShowMessageFace("kazuya_fc1",0,0,2,6)
  ShowMessage("\\n<Kazuya>All right, I guess we should get fired up...")
  ShowMessageFace("rest_fc1",0,0,2,7)
  ShowMessage("\\n<Lest>I'm fully ready to go!")
  ShowMessageFace("byakunen_fc1",0,0,2,8)
  ShowMessage("\\n<Hakunen>I'm still nervous, but... I'll do my best!")
  ShowMessageFace("",0,0,2,9)
  ShowMessage("Facing the castle, we build our fervor for the battle to come. Right here and now, all seven heroes walk forward together.")
  ShowMessageFace("sonia_fc1",3,0,2,10)
  ShowMessage("\\n<Sonya>All the heroes shoulder-to-shoulder like this... It's quite a sight. It feels like we could beat any enemy!")
  If(0,4,0)
   ShowMessageFace("alice_fc5",0,0,2,11)
   ShowMessage("\\n<Alice>It looks like we could be routed by pleasure, though.")
   0()
  EndIf()
  If(0,5,0)
   ShowMessageFace("iriasu_fc4",2,0,2,12)
   ShowMessage("\\n<Ilias>It seems we could be routed by pleasure, though.")
   0()
  EndIf()
  Wait(30)
  250(bytes(0x04,0x08,0x6f,0x3a,0x0c,0x52,0x50,0x47,0x3a,0x3a,0x53,0x45,0x08,0x3a,0x0a,0x40,0x6e,0x61,0x6d,0x65,0x49,0x22,0x0a,0x57,0x69,0x6e,0x64,0x36,0x06,0x3a,0x06,0x45,0x54,0x3a,0x0b,0x40,0x70,0x69,0x74,0x63,0x68,0x69,0x69,0x3a,0x0c,0x40,0x76,0x6f,0x6c,0x75,0x6d,0x65,0x69,0x69))
  PictureDisplay(12,"iv_ahe",0,0,300,0,100,100,0,0)
  PictureMove(12,null,0,0,25,300,40,40,255,0,60,true)
  250(bytes(0x04,0x08,0x6f,0x3a,0x0c,0x52,0x50,0x47,0x3a,0x3a,0x53,0x45,0x08,0x3a,0x0a,0x40,0x6e,0x61,0x6d,0x65,0x49,0x22,0x0d,0x54,0x68,0x75,0x6e,0x64,0x65,0x72,0x36,0x06,0x3a,0x06,0x45,0x54,0x3a,0x0b,0x40,0x70,0x69,0x74,0x63,0x68,0x69,0x69,0x3a,0x0c,0x40,0x76,0x6f,0x6c,0x75,0x6d,0x65,0x69,0x69))
  224(bytes(0x04,0x08,0x75,0x3a,0x0a,0x43,0x6f,0x6c,0x6f,0x72,0x25,0x00,0x00,0x00,0x00,0x00,0xe0,0x6f,0x40,0x00,0x00,0x00,0x00,0x00,0xe0,0x6f,0x40,0x00,0x00,0x00,0x00,0x00,0xe0,0x6f,0x40,0x00,0x00,0x00,0x00,0x00,0xe0,0x6f,0x40),60,true)
  Wait(90)
  ShowMessageFace("rovissa_fc1",0,0,2,13)
  ShowMessage("\\n<Rovissa>(Lars doesn't lose to pleasure...)")
  ShowMessageFace("rejeo_fc1",0,0,2,14)
  ShowMessage("\\n<Rigeo>(Lauratt shouldn't lose to pleasure...)")
  ShowMessageFace("magatu_fc1",1,0,2,15)
  ShowMessage("\\n<Magatsu>(I want to see Hakunen's face twisted in pleasure...)")
  ShowMessageFace("tarsa_fc2",1,0,2,16)
  ShowMessage("\\n<Tarsa>(They all look so tasty...)")
  PictureClear(6)
  PictureClear(7)
  PictureClear(8)
  PictureClear(9)
  PictureClear(10)
  PictureClear(11)
  PictureClear(12)
  If(0,4,0)
   PictureDisplay(5,"80_alice_st73",0,0,0,0,100,100,255,0)
   ShowMessageFace("alice_fc5",2,0,2,17)
   ShowMessage("\\n<Alice>Well then... The enemy should have a lot of Nightmares. Remember, Nightmares can't be affected by anything besides pleasure.")
   ShowMessageFace("alice_fc5",2,0,2,18)
   ShowMessage("\\n<Alice>By the way, you heroes... How many of you fought sex battles in your worlds?")
   0()
  EndIf()
  If(0,5,0)
   PictureDisplay(5,"80_iriasu_st38",0,0,0,0,100,100,255,0)
   ShowMessageFace("iriasu_fc4",7,0,2,19)
   ShowMessage("\\n<Ilias>Well then... The enemy should have a lot of Nightmares. All of you already know they can't be harmed beyond pleasure, yes?")
   ShowMessageFace("iriasu_fc4",7,0,2,20)
   ShowMessage("\\n<Ilias>On that note, heroes... Anyone who fought sex battles in their home world, please raise your hand.")
   0()
  EndIf()
  PictureDisplay(6,"80_lawrat_st01",0,0,-200,50,100,100,255,0)
  PictureDisplay(5,"80_lars_st11",0,0,0,30,95,95,255,0)
  PictureDisplay(7,"80_nobissa_st01",0,0,200,30,95,95,255,0)
  ShowMessageFace("lars_fc01",0,0,2,21)
  ShowMessage("\\n<Lars>............")
  ShowMessageFace("lawrat_fc1",0,0,2,22)
  ShowMessage("\\n<Lauratt>............")
  ShowMessageFace("nobissa_fc1",0,0,2,23)
  ShowMessage("\\n<Novissa>............")
  ShowMessageFace("",0,0,2,24)
  ShowMessage("Lars, Lauratt, and Novissa raised their hands.")
  If(0,4,0)
   ShowMessageFace("alice_fc5",0,0,2,25)
   ShowMessage("\\n<Alice>Three people... And they're all the silent guys.\n...Is there some reason for that?")
   ShowMessageFace("alice_fc5",2,0,2,26)
   ShowMessage("\\n<Alice>Anyways, the remaining four are powerless against Nightmares. Don't forget this.")
   0()
  EndIf()
  If(0,5,0)
   ShowMessageFace("iriasu_fc4",2,0,2,27)
   ShowMessage("\\n<Ilias>Three people... And they're all the silent guys.\n...Is there some reason for that?")
   ShowMessageFace("iriasu_fc4",7,0,2,28)
   ShowMessage("\\n<Ilias>Anyways, the remaining four are powerless against Nightmares. Don't forget this.")
   0()
  EndIf()
  PictureClear(5)
  PictureClear(6)
  PictureClear(7)
  ShowMessageFace("ruka_fc1",0,0,2,29)
  ShowMessage("\\n<Luka>So when fighting Nightmares, I can't do anything besides support... That's kind of frustrating.")
  ShowMessageFace("kazuya_fc1",0,0,2,30)
  ShowMessage("\\n<Kazuya>This is the one thing I have no experience with...\nIn my world, if you insert in something you're as good as dead.")
  ShowMessageFace("rejeo_fc1",0,0,2,31)
  ShowMessage("\\n<Rigeo>Well, we'll cover for you there. If we're fighting Nightmares, bring me out.")
  241(bytes(0x04,0x08,0x6f,0x3a,0x0d,0x52,0x50,0x47,0x3a,0x3a,0x42,0x47,0x4d,0x08,0x3a,0x0a,0x40,0x6e,0x61,0x6d,0x65,0x49,0x22,0x0a,0x6b,0x69,0x6b,0x69,0x34,0x06,0x3a,0x06,0x45,0x54,0x3a,0x0c,0x40,0x76,0x6f,0x6c,0x75,0x6d,0x65,0x69,0x69,0x3a,0x0b,0x40,0x70,0x69,0x74,0x63,0x68,0x69,0x69))
  If(0,4,0)
   ShowMessageFace("alice_fc5",0,0,2,32)
   ShowMessage("\\n<Alice>...Now then, let's execute our strategy.\nGilgorn, you know your role in this, yes?")
   0()
  EndIf()
  If(0,5,0)
   ShowMessageFace("iriasu_fc4",0,0,2,33)
   ShowMessage("\\n<Ilias>...Now then, let's execute our strategy.\nGilgorn, you understand your role, yes?")
   0()
  EndIf()
  PictureDisplay(5,"80_gilgoon_st01",0,0,0,0,100,100,0,0)
  PictureMove(5,null,0,0,0,0,100,100,255,0,30,true)
  ShowMessageFace("gilgoon_fc1",0,0,2,34)
  ShowMessage("\\n<Gilgorn>I understand, but...aren't you forgetting something? This was originally my castle!")
  ShowMessageFace("gilgoon_fc1",0,0,2,35)
  ShowMessage("\\n<Gilgorn>So really, you're telling me to destroy my own castle by my own hand. What a horrible thing to make me do...")
  PictureClear(5)
  Wait(30)
  205(3,bytes(0x04,0x08,0x6f,0x3a,0x13,0x52,0x50,0x47,0x3a,0x3a,0x4d,0x6f,0x76,0x65,0x52,0x6f,0x75,0x74,0x65,0x09,0x3a,0x0c,0x40,0x72,0x65,0x70,0x65,0x61,0x74,0x46,0x3a,0x0f,0x40,0x73,0x6b,0x69,0x70,0x70,0x61,0x62,0x6c,0x65,0x46,0x3a,0x0a,0x40,0x77,0x61,0x69,0x74,0x54,0x3a,0x0a,0x40,0x6c,0x69,0x73,0x74,0x5b,0x09,0x6f,0x3a,0x15,0x52,0x50,0x47,0x3a,0x3a,0x4d,0x6f,0x76,0x65,0x43,0x6f,0x6d,0x6d,0x61,0x6e,0x64,0x07,0x3a,0x0a,0x40,0x63,0x6f,0x64,0x65,0x69,0x06,0x3a,0x10,0x40,0x70,0x61,0x72,0x61,0x6d,0x65,0x74,0x65,0x72,0x73,0x5b,0x00,0x6f,0x3b,0x0a,0x07,0x3b,0x0b,0x69,0x06,0x3b,0x0c,0x5b,0x00,0x6f,0x3b,0x0a,0x07,0x3b,0x0b,0x69,0x08,0x3b,0x0c,0x5b,0x00,0x6f,0x3b,0x0a,0x07,0x3b,0x0b,0x69,0x00,0x3b,0x0c,0x5b,0x00))
  PictureDisplay(5,"80_rovissa_st01",0,0,0,0,100,100,0,0)
  PictureMove(5,null,0,0,0,0,100,100,255,0,30,true)
  ShowMessageFace("rovissa_fc1",0,0,2,36)
  ShowMessage("\\n<Rovissa>It should be fine if we rebuild it after.\nI'm going to pour my power into you now.")
  PictureClear(5)
  Wait(30)
  212(14,42,false)
  ShowMessageFace("",0,0,2,37)
  ShowMessage("Rovissa places her palm on Gilgorn's back!\nThe power to fight Nightmares flows into Gilgorn's body...")
  PictureDisplay(5,"80_gilgoon_st01",0,0,0,0,100,100,0,0)
  PictureMove(5,null,0,0,0,0,100,100,255,0,30,true)
  ShowMessageFace("gilgoon_fc1",0,0,2,38)
  ShowMessage("\\n<Gilgorn>When you say that, it's... Mu, oo, it's coming!\nWith this, even this castle, blended between reality and dreams, should be doable.")
  PictureClear(5)
  Wait(30)
  250(bytes(0x04,0x08,0x6f,0x3a,0x0c,0x52,0x50,0x47,0x3a,0x3a,0x53,0x45,0x08,0x3a,0x0a,0x40,0x6e,0x61,0x6d,0x65,0x49,0x22,0x0b,0x4d,0x61,0x67,0x69,0x63,0x32,0x06,0x3a,0x06,0x45,0x54,0x3a,0x0b,0x40,0x70,0x69,0x74,0x63,0x68,0x69,0x69,0x3a,0x0c,0x40,0x76,0x6f,0x6c,0x75,0x6d,0x65,0x69,0x55))
  205(14,bytes(0x04,0x08,0x6f,0x3a,0x13,0x52,0x50,0x47,0x3a,0x3a,0x4d,0x6f,0x76,0x65,0x52,0x6f,0x75,0x74,0x65,0x09,0x3a,0x0c,0x40,0x72,0x65,0x70,0x65,0x61,0x74,0x46,0x3a,0x0f,0x40,0x73,0x6b,0x69,0x70,0x70,0x61,0x62,0x6c,0x65,0x46,0x3a,0x0a,0x40,0x77,0x61,0x69,0x74,0x54,0x3a,0x0a,0x40,0x6c,0x69,0x73,0x74,0x5b,0x08,0x6f,0x3a,0x15,0x52,0x50,0x47,0x3a,0x3a,0x4d,0x6f,0x76,0x65,0x43,0x6f,0x6d,0x6d,0x61,0x6e,0x64,0x07,0x3a,0x0a,0x40,0x63,0x6f,0x64,0x65,0x69,0x16,0x3a,0x10,0x40,0x70,0x61,0x72,0x61,0x6d,0x65,0x74,0x65,0x72,0x73,0x5b,0x00,0x6f,0x3b,0x0a,0x07,0x3b,0x0b,0x69,0x2e,0x3b,0x0c,0x5b,0x07,0x49,0x22,0x18,0x43,0x6f,0x6c,0x6c,0x61,0x62,0x6f,0x72,0x61,0x74,0x69,0x6f,0x6e,0x30,0x33,0x5f,0x63,0x69,0x70,0x06,0x3a,0x06,0x45,0x54,0x69,0x0b,0x6f,0x3b,0x0a,0x07,0x3b,0x0b,0x69,0x00,0x3b,0x0c,0x5b,0x00))
  ShowMessageFace("gilgoon_fc1",0,0,2,39)
  ShowMessage("\\n<Gilgorn>Nightmares, I will teach you of my power!\nThe first wave, Meteor Eclipse!!")
  PictureDisplay(5,"iv_castle1",0,0,0,0,100,100,0,0)
  PictureMove(5,null,0,0,0,0,100,100,255,0,30,true)
  212(4,544,true)
  225(9,9,60,true)
  ShowMessageFace("ruka_fc1",0,0,2,40)
  ShowMessage("\\n<Luka>Uwa! In-incredible!")
  If(0,4,0)
   ShowMessageFace("alice_fc5",1,0,2,41)
   ShowMessage("\\n<Alice>More destructive power than I imagined...\nThis is sure to disorganize those inside.")
   0()
  EndIf()
  If(0,5,0)
   ShowMessageFace("iriasu_fc4",0,0,2,42)
   ShowMessage("\\n<Ilias>More destructive power than I imagined...\nThis is sure to disorganize those inside.")
   0()
  EndIf()
  ShowMessageFace("",0,0,2,43)
  ShowMessage("The castle swayed under the impact of Gilgorn's attack.\nTowers crumble, walls break down, and white smoke flows out.")
  ShowMessageFace("gilgoon_fc1",0,0,2,44)
  ShowMessage("\\n<Gilgorn>Hahahaha! Here's another!\nTurn to dust, Meteor Eclipse!!")
  212(4,544,true)
  225(9,9,60,true)
  ShowMessageFace("",0,0,2,45)
  ShowMessage("Even more meteors strike the castle in a second wave.\nThe castle's damage worsens, and the left side's walls cave in completely.")
  205(14,bytes(0x04,0x08,0x6f,0x3a,0x13,0x52,0x50,0x47,0x3a,0x3a,0x4d,0x6f,0x76,0x65,0x52,0x6f,0x75,0x74,0x65,0x09,0x3a,0x0c,0x40,0x72,0x65,0x70,0x65,0x61,0x74,0x46,0x3a,0x0f,0x40,0x73,0x6b,0x69,0x70,0x70,0x61,0x62,0x6c,0x65,0x46,0x3a,0x0a,0x40,0x77,0x61,0x69,0x74,0x54,0x3a,0x0a,0x40,0x6c,0x69,0x73,0x74,0x5b,0x08,0x6f,0x3a,0x15,0x52,0x50,0x47,0x3a,0x3a,0x4d,0x6f,0x76,0x65,0x43,0x6f,0x6d,0x6d,0x61,0x6e,0x64,0x07,0x3a,0x0a,0x40,0x63,0x6f,0x64,0x65,0x69,0x18,0x3a,0x10,0x40,0x70,0x61,0x72,0x61,0x6d,0x65,0x74,0x65,0x72,0x73,0x5b,0x00,0x6f,0x3b,0x0a,0x07,0x3b,0x0b,0x69,0x2e,0x3b,0x0c,0x5b,0x07,0x49,0x22,0x18,0x43,0x6f,0x6c,0x6c,0x61,0x62,0x6f,0x72,0x61,0x74,0x69,0x6f,0x6e,0x30,0x33,0x5f,0x63,0x69,0x70,0x06,0x3a,0x06,0x45,0x54,0x69,0x08,0x6f,0x3b,0x0a,0x07,0x3b,0x0b,0x69,0x00,0x3b,0x0c,0x5b,0x00))
  PictureMove(5,null,0,0,0,0,100,100,0,0,30,true)
  PictureClear(5)
  If(0,4,0)
   ShowMessageFace("alice_fc5",2,0,2,46)
   ShowMessage("\\n<Alice>Gilgorn, how many more meteors can you fire?")
   0()
  EndIf()
  If(0,5,0)
   ShowMessageFace("iriasu_fc4",7,0,2,47)
   ShowMessage("\\n<Ilias>Gilgorn, how many more meteors can you fire?")
   0()
  EndIf()
  ShowMessageFace("gilgoon_fc1",0,0,2,48)
  ShowMessage("\\n<Gilgorn>Heh, I have power for 30 more! Don't underestimate my magic power!")
  ShowMessageFace("ruka_fc1",0,0,2,49)
  ShowMessage("\\n<Luka>A whole 30 more shots...")
  ShowMessageFace("",0,0,2,50)
  ShowMessage("If she fired that many meteors, the castle would be razed to the ground. But it's unlikely the enemy would sit back and watch that happen.")
  ShowMessageFace("rejeo_fc1",1,0,2,51)
  ShowMessage("\\n<Rigeo>...Look! Enemies are coming from the castle!")
  250(bytes(0x04,0x08,0x6f,0x3a,0x0c,0x52,0x50,0x47,0x3a,0x3a,0x53,0x45,0x08,0x3a,0x0a,0x40,0x6e,0x61,0x6d,0x65,0x49,0x22,0x0a,0x57,0x69,0x6e,0x64,0x31,0x06,0x3a,0x06,0x45,0x54,0x3a,0x0b,0x40,0x70,0x69,0x74,0x63,0x68,0x69,0x69,0x3a,0x0c,0x40,0x76,0x6f,0x6c,0x75,0x6d,0x65,0x69,0x55))
  PictureDisplay(5,"iv_castle3",0,0,0,0,100,100,0,0)
  PictureMove(5,null,0,0,0,0,100,100,255,0,30,true)
  ShowMessageFace("",0,0,2,52)
  ShowMessage("Flying towards us from the castle are countless shadows.\nNightmares and monsters approaching to stop the incoming attack.")
  PictureMove(5,null,0,0,0,0,100,100,0,0,30,true)
  PictureClear(5)
  If(0,4,0)
   ShowMessageFace("alice_fc5",2,0,2,53)
   ShowMessage("\\n<Alice>So they've come... Open fire!")
   0()
  EndIf()
  If(0,5,0)
   ShowMessageFace("iriasu_fc4",7,0,2,54)
   ShowMessage("\\n<Ilias>So they've come... Shoot them down!")
   0()
  EndIf()
  ShowMessageFace("kazuya_fc1",0,0,2,55)
  ShowMessage("\\n<Kazuya>Yeah, leave it to us!\nWe won't let them approach Gilgorn!")
  ShowMessageFace("byakunen_fc1",0,0,2,56)
  ShowMessage("\\n<Hakunen>I-I'll go, too!")
  Battle(0,1400,false,false)
  ChangeSwitch(31,39,1)
  TeleportPlayer(0,944,0,0,0,2)
  0()
